%!PS-Adobe-2.0 EPSF-1.2
%%Creator: MATLAB, The MathWorks, Inc. Version 8.3.0.532 (R2014a). Operating System: Darwin 13.4.0 Darwin Kernel Version 13.4.0: Wed Mar 18 16:20:14 PDT 2015; root:xnu-2422.115.14~1/RELEASE_X86_64 x86_64.
%%Title: ./RATE_CHANNELE_SCHEME1.eps
%%CreationDate: 07/14/2015  11:09:00
%%DocumentNeededFonts: Helvetica
%%DocumentProcessColors: Cyan Magenta Yellow Black
%%Extensions: CMYK
%%Pages: 1
%%BoundingBox:    52   192   553   602
%%EndComments

%%BeginProlog
% MathWorks dictionary
/MathWorks 160 dict begin
% definition operators
/bdef {bind def} bind def
/ldef {load def} bind def
/xdef {exch def} bdef
/xstore {exch store} bdef
% operator abbreviations
/c  /clip ldef
/cc /concat ldef
/cp /closepath ldef
/gr /grestore ldef
/gs /gsave ldef
/mt /moveto ldef
/np /newpath ldef
/cm /currentmatrix ldef
/sm /setmatrix ldef
/rm /rmoveto ldef
/rl /rlineto ldef
/s {show newpath} bdef
/sc {setcmykcolor} bdef
/sr /setrgbcolor ldef
/sg /setgray ldef
/w /setlinewidth ldef
/j /setlinejoin ldef
/cap /setlinecap ldef
/rc {rectclip} bdef
/rf {rectfill} bdef
% page state control
/pgsv () def
/bpage {/pgsv save def} bdef
/epage {pgsv restore} bdef
/bplot /gsave ldef
/eplot {stroke grestore} bdef
% orientation switch
/portraitMode 0 def /landscapeMode 1 def /rotateMode 2 def
% coordinate system mappings
/dpi2point 0 def
% font control
/FontSize 0 def
/FMS {/FontSize xstore findfont [FontSize 0 0 FontSize neg 0 0]
  makefont setfont} bdef
/reencode {exch dup where {pop load} {pop StandardEncoding} ifelse
  exch dup 3 1 roll findfont dup length dict begin
  { 1 index /FID ne {def}{pop pop} ifelse } forall
  /Encoding exch def currentdict end definefont pop} bdef
/isroman {findfont /CharStrings get /Agrave known} bdef
/FMSR {3 1 roll 1 index dup isroman {reencode} {pop pop} ifelse
  exch FMS} bdef
/csm {1 dpi2point div -1 dpi2point div scale neg translate
 dup landscapeMode eq {pop -90 rotate}
  {rotateMode eq {90 rotate} if} ifelse} bdef
% line types: solid, dotted, dashed, dotdash
/SO { [] 0 setdash } bdef
/DO { [.5 dpi2point mul 4 dpi2point mul] 0 setdash } bdef
/DA { [6 dpi2point mul] 0 setdash } bdef
/DD { [.5 dpi2point mul 4 dpi2point mul 6 dpi2point mul 4
  dpi2point mul] 0 setdash } bdef
% macros for lines and objects
/L {lineto stroke} bdef
/MP {3 1 roll moveto 1 sub {rlineto} repeat} bdef
/AP {{rlineto} repeat} bdef
/PDlw -1 def
/W {/PDlw currentlinewidth def setlinewidth} def
/PP {closepath eofill} bdef
/DP {closepath stroke} bdef
/MR {4 -2 roll moveto dup  0 exch rlineto exch 0 rlineto
  neg 0 exch rlineto closepath} bdef
/FR {MR stroke} bdef
/PR {MR fill} bdef
/L1i {{currentfile picstr readhexstring pop} image} bdef
/tMatrix matrix def
/MakeOval {newpath tMatrix currentmatrix pop translate scale
0 0 1 0 360 arc tMatrix setmatrix} bdef
/FO {MakeOval stroke} bdef
/PO {MakeOval fill} bdef
/PD {currentlinewidth 2 div 0 360 arc fill
   PDlw -1 eq not {PDlw w /PDlw -1 def} if} def
/FA {newpath tMatrix currentmatrix pop translate scale
  0 0 1 5 -2 roll arc tMatrix setmatrix stroke} bdef
/PA {newpath tMatrix currentmatrix pop	translate 0 0 moveto scale
  0 0 1 5 -2 roll arc closepath tMatrix setmatrix fill} bdef
/FAn {newpath tMatrix currentmatrix pop translate scale
  0 0 1 5 -2 roll arcn tMatrix setmatrix stroke} bdef
/PAn {newpath tMatrix currentmatrix pop translate 0 0 moveto scale
  0 0 1 5 -2 roll arcn closepath tMatrix setmatrix fill} bdef
/vradius 0 def /hradius 0 def /lry 0 def
/lrx 0 def /uly 0 def /ulx 0 def /rad 0 def
/MRR {/vradius xdef /hradius xdef /lry xdef /lrx xdef /uly xdef
  /ulx xdef newpath tMatrix currentmatrix pop ulx hradius add uly
  vradius add translate hradius vradius scale 0 0 1 180 270 arc 
  tMatrix setmatrix lrx hradius sub uly vradius add translate
  hradius vradius scale 0 0 1 270 360 arc tMatrix setmatrix
  lrx hradius sub lry vradius sub translate hradius vradius scale
  0 0 1 0 90 arc tMatrix setmatrix ulx hradius add lry vradius sub
  translate hradius vradius scale 0 0 1 90 180 arc tMatrix setmatrix
  closepath} bdef
/FRR {MRR stroke } bdef
/PRR {MRR fill } bdef
/MlrRR {/lry xdef /lrx xdef /uly xdef /ulx xdef /rad lry uly sub 2 div def
  newpath tMatrix currentmatrix pop ulx rad add uly rad add translate
  rad rad scale 0 0 1 90 270 arc tMatrix setmatrix lrx rad sub lry rad
  sub translate rad rad scale 0 0 1 270 90 arc tMatrix setmatrix
  closepath} bdef
/FlrRR {MlrRR stroke } bdef
/PlrRR {MlrRR fill } bdef
/MtbRR {/lry xdef /lrx xdef /uly xdef /ulx xdef /rad lrx ulx sub 2 div def
  newpath tMatrix currentmatrix pop ulx rad add uly rad add translate
  rad rad scale 0 0 1 180 360 arc tMatrix setmatrix lrx rad sub lry rad
  sub translate rad rad scale 0 0 1 0 180 arc tMatrix setmatrix
  closepath} bdef
/FtbRR {MtbRR stroke } bdef
/PtbRR {MtbRR fill } bdef
/stri 6 array def /dtri 6 array def
/smat 6 array def /dmat 6 array def
/tmat1 6 array def /tmat2 6 array def /dif 3 array def
/asub {/ind2 exch def /ind1 exch def dup dup
  ind1 get exch ind2 get sub exch } bdef
/tri_to_matrix {
  2 0 asub 3 1 asub 4 0 asub 5 1 asub
  dup 0 get exch 1 get 7 -1 roll astore } bdef
/compute_transform {
  dmat dtri tri_to_matrix tmat1 invertmatrix 
  smat stri tri_to_matrix tmat2 concatmatrix } bdef
/ds {stri astore pop} bdef
/dt {dtri astore pop} bdef
/db {2 copy /cols xdef /rows xdef mul dup 3 mul string
  currentfile exch readhexstring pop
  dup 0 3 index getinterval /rbmap xdef
  dup 2 index dup getinterval /gbmap xdef
  1 index dup 2 mul exch getinterval /bbmap xdef pop pop}bdef
/it {gs np dtri aload pop moveto lineto lineto cp c
  cols rows 8 compute_transform 
  rbmap gbmap bbmap true 3 colorimage gr}bdef
/il {newpath moveto lineto stroke}bdef
currentdict end def
%%EndProlog

%%BeginSetup
MathWorks begin

0 cap

end
%%EndSetup

%%Page: 1 1
%%BeginPageSetup
%%PageBoundingBox:    52   192   553   602
MathWorks begin
bpage
%%EndPageSetup

%%BeginObject: obj1
bplot

/dpi2point 12 def
portraitMode 0216 7344 csm

  417   110  6014  4925 MR c np
87 dict begin %Colortable dictionary
/c0 { 0.000000 0.000000 0.000000 sr} bdef
/c1 { 1.000000 1.000000 1.000000 sr} bdef
/c2 { 0.900000 0.000000 0.000000 sr} bdef
/c3 { 0.000000 0.820000 0.000000 sr} bdef
/c4 { 0.000000 0.000000 0.800000 sr} bdef
/c5 { 0.910000 0.820000 0.320000 sr} bdef
/c6 { 1.000000 0.260000 0.820000 sr} bdef
/c7 { 0.000000 0.820000 0.820000 sr} bdef
c0
1 j
1 sg
   0    0 6913 5186 PR
6 w
0 4226 5356 0 0 -4226 899 4615 4 MP
PP
-5356 0 0 4226 5356 0 0 -4226 899 4615 5 MP stroke
4 w
DO
SO
6 w
0 sg
 899 4615 mt 6255 4615 L
 899  389 mt 6255  389 L
 899 4615 mt  899  389 L
6255 4615 mt 6255  389 L
 899 4615 mt 6255 4615 L
 899 4615 mt  899  389 L
 899 4615 mt  899 4561 L
 899  389 mt  899  442 L
%%IncludeResource: font Helvetica
/Helvetica /ISOLatin1Encoding 120 FMSR

 763 4760 mt 
(-10) s
1791 4615 mt 1791 4561 L
1791  389 mt 1791  442 L
1688 4760 mt 
(-5) s
2684 4615 mt 2684 4561 L
2684  389 mt 2684  442 L
2651 4760 mt 
(0) s
3577 4615 mt 3577 4561 L
3577  389 mt 3577  442 L
3544 4760 mt 
(5) s
4469 4615 mt 4469 4561 L
4469  389 mt 4469  442 L
4403 4760 mt 
(10) s
5362 4615 mt 5362 4561 L
5362  389 mt 5362  442 L
5296 4760 mt 
(15) s
6255 4615 mt 6255 4561 L
6255  389 mt 6255  442 L
6189 4760 mt 
(20) s
 899 4615 mt  952 4615 L
6255 4615 mt 6201 4615 L
 798 4659 mt 
(0) s
 899 3910 mt  952 3910 L
6255 3910 mt 6201 3910 L
 798 3954 mt 
(5) s
 899 3206 mt  952 3206 L
6255 3206 mt 6201 3206 L
 731 3250 mt 
(10) s
 899 2502 mt  952 2502 L
6255 2502 mt 6201 2502 L
 731 2546 mt 
(15) s
 899 1797 mt  952 1797 L
6255 1797 mt 6201 1797 L
 731 1841 mt 
(20) s
 899 1093 mt  952 1093 L
6255 1093 mt 6201 1093 L
 731 1137 mt 
(25) s
 899  389 mt  952  389 L
6255  389 mt 6201  389 L
 731  433 mt 
(30) s
 899 4615 mt 6255 4615 L
 899  389 mt 6255  389 L
 899 4615 mt  899  389 L
6255 4615 mt 6255  389 L
gs 899 389 5357 4227 MR c np
DA
24 w
/c8 { 0.000000 1.000000 0.000000 sr} bdef
c8
536 -662 536 -644 535 -612 536 -556 535 -470 536 -361 536 -248 535 -155 
536 -92 535 -52 899 4553 11 MP stroke
gr

24 w
c8
DA
gs 753 555 5649 4145 MR c np
SO
 839 4553 mt  959 4553 L
 899 4493 mt  899 4613 L
1374 4501 mt 1494 4501 L
1434 4441 mt 1434 4561 L
1910 4409 mt 2030 4409 L
1970 4349 mt 1970 4469 L
2445 4254 mt 2565 4254 L
2505 4194 mt 2505 4314 L
2981 4006 mt 3101 4006 L
3041 3946 mt 3041 4066 L
3517 3645 mt 3637 3645 L
3577 3585 mt 3577 3705 L
4052 3175 mt 4172 3175 L
4112 3115 mt 4112 3235 L
4588 2619 mt 4708 2619 L
4648 2559 mt 4648 2679 L
5123 2007 mt 5243 2007 L
5183 1947 mt 5183 2067 L
5659 1363 mt 5779 1363 L
5719 1303 mt 5719 1423 L
6195  701 mt 6315  701 L
6255  641 mt 6255  761 L
 857 4511 mt  941 4595 L
 941 4511 mt  857 4595 L
1392 4459 mt 1476 4543 L
1476 4459 mt 1392 4543 L
1928 4367 mt 2012 4451 L
2012 4367 mt 1928 4451 L
2463 4212 mt 2547 4296 L
2547 4212 mt 2463 4296 L
2999 3964 mt 3083 4048 L
3083 3964 mt 2999 4048 L
3535 3603 mt 3619 3687 L
3619 3603 mt 3535 3687 L
4070 3133 mt 4154 3217 L
4154 3133 mt 4070 3217 L
4606 2577 mt 4690 2661 L
4690 2577 mt 4606 2661 L
5141 1965 mt 5225 2049 L
5225 1965 mt 5141 2049 L
5677 1321 mt 5761 1405 L
5761 1321 mt 5677 1405 L
6213  659 mt 6297  743 L
6297  659 mt 6213  743 L
DA
gr

gs 899 389 5357 4227 MR c np
SO
536 -662 536 -644 535 -613 536 -557 535 -473 536 -366 536 -252 535 -157 
536 -90 535 -48 899 4563 11 MP stroke
gr

SO
gs 753 555 5649 4155 MR c np
 839 4563 mt  959 4563 L
 899 4503 mt  899 4623 L
1374 4515 mt 1494 4515 L
1434 4455 mt 1434 4575 L
1910 4425 mt 2030 4425 L
1970 4365 mt 1970 4485 L
2445 4268 mt 2565 4268 L
2505 4208 mt 2505 4328 L
2981 4016 mt 3101 4016 L
3041 3956 mt 3041 4076 L
3517 3650 mt 3637 3650 L
3577 3590 mt 3577 3710 L
4052 3177 mt 4172 3177 L
4112 3117 mt 4112 3237 L
4588 2620 mt 4708 2620 L
4648 2560 mt 4648 2680 L
5123 2007 mt 5243 2007 L
5183 1947 mt 5183 2067 L
5659 1363 mt 5779 1363 L
5719 1303 mt 5719 1423 L
6195  701 mt 6315  701 L
6255  641 mt 6255  761 L
 857 4521 mt  941 4605 L
 941 4521 mt  857 4605 L
1392 4473 mt 1476 4557 L
1476 4473 mt 1392 4557 L
1928 4383 mt 2012 4467 L
2012 4383 mt 1928 4467 L
2463 4226 mt 2547 4310 L
2547 4226 mt 2463 4310 L
2999 3974 mt 3083 4058 L
3083 3974 mt 2999 4058 L
3535 3608 mt 3619 3692 L
3619 3608 mt 3535 3692 L
4070 3135 mt 4154 3219 L
4154 3135 mt 4070 3219 L
4606 2578 mt 4690 2662 L
4690 2578 mt 4606 2662 L
5141 1965 mt 5225 2049 L
5225 1965 mt 5141 2049 L
5677 1321 mt 5761 1405 L
5761 1321 mt 5677 1405 L
6213  659 mt 6297  743 L
6297  659 mt 6213  743 L
gr

gs 899 389 5357 4227 MR c np
DA
/c9 { 0.000000 0.000000 1.000000 sr} bdef
c9
536 -612 536 -556 535 -471 536 -365 535 -273 536 -198 536 -132 535 -82 
536 -48 535 -26 899 4586 11 MP stroke
gr

c9
DA
gs 753 1677 5649 3056 MR c np
SO
0 j
0 -94 -94 0 0 94 94 0 852 4539 5 MP
DP
0 -94 -94 0 0 94 94 0 1387 4513 5 MP
DP
0 -94 -94 0 0 94 94 0 1923 4465 5 MP
DP
0 -94 -94 0 0 94 94 0 2458 4383 5 MP
DP
0 -94 -94 0 0 94 94 0 2994 4251 5 MP
DP
0 -94 -94 0 0 94 94 0 3530 4053 5 MP
DP
0 -94 -94 0 0 94 94 0 4065 3780 5 MP
DP
0 -94 -94 0 0 94 94 0 4601 3415 5 MP
DP
0 -94 -94 0 0 94 94 0 5136 2944 5 MP
DP
0 -94 -94 0 0 94 94 0 5672 2388 5 MP
DP
0 -94 -94 0 0 94 94 0 6208 1776 5 MP
DP
DA
gr

gs 899 389 5357 4227 MR c np
SO
536 -615 536 -564 535 -489 536 -393 535 -288 536 -191 536 -115 535 -65 
536 -34 535 -18 899 4596 11 MP stroke
gr

SO
gs 753 1678 5649 3065 MR c np
0 j
0 -94 -94 0 0 94 94 0 852 4549 5 MP
DP
0 -94 -94 0 0 94 94 0 1387 4531 5 MP
DP
0 -94 -94 0 0 94 94 0 1923 4497 5 MP
DP
0 -94 -94 0 0 94 94 0 2458 4432 5 MP
DP
0 -94 -94 0 0 94 94 0 2994 4317 5 MP
DP
0 -94 -94 0 0 94 94 0 3530 4126 5 MP
DP
0 -94 -94 0 0 94 94 0 4065 3838 5 MP
DP
0 -94 -94 0 0 94 94 0 4601 3445 5 MP
DP
0 -94 -94 0 0 94 94 0 5136 2956 5 MP
DP
0 -94 -94 0 0 94 94 0 5672 2392 5 MP
DP
0 -94 -94 0 0 94 94 0 6208 1777 5 MP
DP
gr

gs 899 389 5357 4227 MR c np
DA
/c10 { 1.000000 0.000000 1.000000 sr} bdef
c10
536 -609 536 -550 535 -462 536 -356 535 -259 536 -187 536 -125 535 -81 
536 -47 535 -26 899 4586 11 MP stroke
gr

c10
DA
gs 753 1738 5649 2995 MR c np
SO
 839 4586 mt  959 4586 L
 899 4526 mt  899 4646 L
1374 4560 mt 1494 4560 L
1434 4500 mt 1434 4620 L
1910 4513 mt 2030 4513 L
1970 4453 mt 1970 4573 L
2445 4432 mt 2565 4432 L
2505 4372 mt 2505 4492 L
2981 4307 mt 3101 4307 L
3041 4247 mt 3041 4367 L
3517 4120 mt 3637 4120 L
3577 4060 mt 3577 4180 L
4052 3861 mt 4172 3861 L
4112 3801 mt 4112 3921 L
4588 3505 mt 4708 3505 L
4648 3445 mt 4648 3565 L
5123 3043 mt 5243 3043 L
5183 2983 mt 5183 3103 L
5659 2493 mt 5779 2493 L
5719 2433 mt 5719 2553 L
6195 1884 mt 6315 1884 L
6255 1824 mt 6255 1944 L
DA
gr

gs 899 389 5357 4227 MR c np
SO
536 -611 536 -557 535 -481 536 -382 535 -277 536 -183 536 -109 535 -62 
536 -32 535 -17 899 4597 11 MP stroke
gr

SO
gs 753 1740 5649 3004 MR c np
 839 4597 mt  959 4597 L
 899 4537 mt  899 4657 L
1374 4580 mt 1494 4580 L
1434 4520 mt 1434 4640 L
1910 4548 mt 2030 4548 L
1970 4488 mt 1970 4608 L
2445 4486 mt 2565 4486 L
2505 4426 mt 2505 4546 L
2981 4377 mt 3101 4377 L
3041 4317 mt 3041 4437 L
3517 4194 mt 3637 4194 L
3577 4134 mt 3577 4254 L
4052 3917 mt 4172 3917 L
4112 3857 mt 4112 3977 L
4588 3535 mt 4708 3535 L
4648 3475 mt 4648 3595 L
5123 3054 mt 5243 3054 L
5183 2994 mt 5183 3114 L
5659 2497 mt 5779 2497 L
5719 2437 mt 5719 2557 L
6195 1886 mt 6315 1886 L
6255 1826 mt 6255 1946 L
gr

gs 899 389 5357 4227 MR c np
/c11 { 1.000000 0.000000 0.000000 sr} bdef
c11
536 -560 536 -517 535 -450 536 -362 535 -265 536 -175 536 -105 535 -58 
536 -32 535 -16 899 4598 11 MP stroke
gr

c11
gs 753 1912 5649 2833 MR c np
 857 4556 mt  941 4640 L
 941 4556 mt  857 4640 L
1392 4540 mt 1476 4624 L
1476 4540 mt 1392 4624 L
1928 4508 mt 2012 4592 L
2012 4508 mt 1928 4592 L
2463 4450 mt 2547 4534 L
2547 4450 mt 2463 4534 L
2999 4345 mt 3083 4429 L
3083 4345 mt 2999 4429 L
3535 4170 mt 3619 4254 L
3619 4170 mt 3535 4254 L
4070 3905 mt 4154 3989 L
4154 3905 mt 4070 3989 L
4606 3543 mt 4690 3627 L
4690 3543 mt 4606 3627 L
5141 3093 mt 5225 3177 L
5225 3093 mt 5141 3177 L
5677 2576 mt 5761 2660 L
5761 2576 mt 5677 2660 L
6213 2016 mt 6297 2100 L
6297 2016 mt 6213 2100 L
gr

gs 899 389 5357 4227 MR c np
gr

0 sg
2992  294 mt 
(Channel E, Scheme 1) s
%%IncludeResource: font Helvetica
/Helvetica /ISOLatin1Encoding 204 FMSR

3140 4965 mt 
(SNR \(dB\)) s
 631 3784 mt  -90 rotate
(Information Rates \(nats/sec\)) s
90 rotate
%%IncludeResource: font Helvetica
/Helvetica /ISOLatin1Encoding 120 FMSR

 857 4683 mt 
( ) s
6214  456 mt 
( ) s
6 w
1 sg
0 1776 1980 0 0 -1776 1219 2359 4 MP
PP
-1980 0 0 1776 1980 0 0 -1776 1219 2359 5 MP stroke
4 w
DO
SO
6 w
0 sg
1219 2359 mt 3199 2359 L
1219  583 mt 3199  583 L
1219 2359 mt 1219  583 L
3199 2359 mt 3199  583 L
1219 2359 mt 3199 2359 L
1219 2359 mt 1219  583 L
1219 2359 mt 3199 2359 L
1219  583 mt 3199  583 L
1219 2359 mt 1219  583 L
3199 2359 mt 3199  583 L
%%IncludeResource: font Helvetica
/Helvetica /ISOLatin1Encoding 168 FMSR

1687  781 mt 
(Optimal \(PA\)) s
gs 1219 583 1981 1777 MR c np
DA
24 w
c8
360 0 1291 721 2 MP stroke
SO
gr

24 w
c8
gs 1325 575 293 293 MR c np
1411  721 mt 1531  721 L
1471  661 mt 1471  781 L
1429  679 mt 1513  763 L
1513  679 mt 1429  763 L
gr

gs 1219 583 1981 1777 MR c np
gr

0 sg
1687 1015 mt 
(Optimal) s
gs 1219 583 1981 1777 MR c np
c8
360 0 1291 955 2 MP stroke
gs 1325 809 293 293 MR c np
1411  955 mt 1531  955 L
1471  895 mt 1471 1015 L
1429  913 mt 1513  997 L
1513  913 mt 1429  997 L
gr

gr

c8
0 sg
1687 1303 mt 
(EB, K=K) s
%%IncludeResource: font Symbol
/Symbol /ISOLatin1Encoding 132 FMSR

2323 1219 mt 
(\242) s
%%IncludeResource: font Helvetica
/Helvetica /ISOLatin1Encoding 168 FMSR

2355 1303 mt 
(+1 \(PA\)) s
gs 1219 583 1981 1777 MR c np
DA
c9
360 0 1291 1213 2 MP stroke
SO
gs 1325 1067 293 293 MR c np
0 j
0 -94 -94 0 0 94 94 0 1424 1166 5 MP
DP
gr

gr

c9
0 sg
1687 1586 mt 
(EB, K=K) s
%%IncludeResource: font Symbol
/Symbol /ISOLatin1Encoding 132 FMSR

2323 1502 mt 
(\242) s
%%IncludeResource: font Helvetica
/Helvetica /ISOLatin1Encoding 168 FMSR

2355 1586 mt 
(+1) s
gs 1219 583 1981 1777 MR c np
c9
360 0 1291 1495 2 MP stroke
gs 1325 1349 293 293 MR c np
0 j
0 -94 -94 0 0 94 94 0 1424 1448 5 MP
DP
gr

gr

c9
0 sg
1687 1814 mt 
(SB, JLD \(PA\)) s
gs 1219 583 1981 1777 MR c np
DA
c10
360 0 1291 1753 2 MP stroke
SO
gs 1325 1607 293 293 MR c np
1411 1753 mt 1531 1753 L
1471 1693 mt 1471 1813 L
gr

gr

c10
0 sg
1687 2048 mt 
(SB, JLD) s
gs 1219 583 1981 1777 MR c np
c10
360 0 1291 1987 2 MP stroke
gs 1325 1841 293 293 MR c np
1411 1987 mt 1531 1987 L
1471 1927 mt 1471 2047 L
gr

gr

c10
0 sg
1687 2282 mt 
(SB, ILD) s
gs 1219 583 1981 1777 MR c np
c11
360 0 1291 2221 2 MP stroke
gr

c11
gs 1325 2075 293 293 MR c np
1429 2179 mt 1513 2263 L
1513 2179 mt 1429 2263 L
gr

gs 1219 583 1981 1777 MR c np
6 w
gr

6 w

end %%Color Dict

eplot
%%EndObject

epage
end

showpage

%%Trailer
%%EOF
