%!PS-Adobe-2.0 EPSF-1.2
%%Creator: MATLAB, The MathWorks, Inc. Version 8.3.0.532 (R2014a). Operating System: Darwin 13.4.0 Darwin Kernel Version 13.4.0: Wed Mar 18 16:20:14 PDT 2015; root:xnu-2422.115.14~1/RELEASE_X86_64 x86_64.
%%Title: ./RATE_CHANNELE_SCHEME2.eps
%%CreationDate: 07/14/2015  14:13:08
%%DocumentNeededFonts: Helvetica
%%DocumentProcessColors: Cyan Magenta Yellow Black
%%Extensions: CMYK
%%Pages: 1
%%BoundingBox:    52   192   553   602
%%EndComments

%%BeginProlog
% MathWorks dictionary
/MathWorks 160 dict begin
% definition operators
/bdef {bind def} bind def
/ldef {load def} bind def
/xdef {exch def} bdef
/xstore {exch store} bdef
% operator abbreviations
/c  /clip ldef
/cc /concat ldef
/cp /closepath ldef
/gr /grestore ldef
/gs /gsave ldef
/mt /moveto ldef
/np /newpath ldef
/cm /currentmatrix ldef
/sm /setmatrix ldef
/rm /rmoveto ldef
/rl /rlineto ldef
/s {show newpath} bdef
/sc {setcmykcolor} bdef
/sr /setrgbcolor ldef
/sg /setgray ldef
/w /setlinewidth ldef
/j /setlinejoin ldef
/cap /setlinecap ldef
/rc {rectclip} bdef
/rf {rectfill} bdef
% page state control
/pgsv () def
/bpage {/pgsv save def} bdef
/epage {pgsv restore} bdef
/bplot /gsave ldef
/eplot {stroke grestore} bdef
% orientation switch
/portraitMode 0 def /landscapeMode 1 def /rotateMode 2 def
% coordinate system mappings
/dpi2point 0 def
% font control
/FontSize 0 def
/FMS {/FontSize xstore findfont [FontSize 0 0 FontSize neg 0 0]
  makefont setfont} bdef
/reencode {exch dup where {pop load} {pop StandardEncoding} ifelse
  exch dup 3 1 roll findfont dup length dict begin
  { 1 index /FID ne {def}{pop pop} ifelse } forall
  /Encoding exch def currentdict end definefont pop} bdef
/isroman {findfont /CharStrings get /Agrave known} bdef
/FMSR {3 1 roll 1 index dup isroman {reencode} {pop pop} ifelse
  exch FMS} bdef
/csm {1 dpi2point div -1 dpi2point div scale neg translate
 dup landscapeMode eq {pop -90 rotate}
  {rotateMode eq {90 rotate} if} ifelse} bdef
% line types: solid, dotted, dashed, dotdash
/SO { [] 0 setdash } bdef
/DO { [.5 dpi2point mul 4 dpi2point mul] 0 setdash } bdef
/DA { [6 dpi2point mul] 0 setdash } bdef
/DD { [.5 dpi2point mul 4 dpi2point mul 6 dpi2point mul 4
  dpi2point mul] 0 setdash } bdef
% macros for lines and objects
/L {lineto stroke} bdef
/MP {3 1 roll moveto 1 sub {rlineto} repeat} bdef
/AP {{rlineto} repeat} bdef
/PDlw -1 def
/W {/PDlw currentlinewidth def setlinewidth} def
/PP {closepath eofill} bdef
/DP {closepath stroke} bdef
/MR {4 -2 roll moveto dup  0 exch rlineto exch 0 rlineto
  neg 0 exch rlineto closepath} bdef
/FR {MR stroke} bdef
/PR {MR fill} bdef
/L1i {{currentfile picstr readhexstring pop} image} bdef
/tMatrix matrix def
/MakeOval {newpath tMatrix currentmatrix pop translate scale
0 0 1 0 360 arc tMatrix setmatrix} bdef
/FO {MakeOval stroke} bdef
/PO {MakeOval fill} bdef
/PD {currentlinewidth 2 div 0 360 arc fill
   PDlw -1 eq not {PDlw w /PDlw -1 def} if} def
/FA {newpath tMatrix currentmatrix pop translate scale
  0 0 1 5 -2 roll arc tMatrix setmatrix stroke} bdef
/PA {newpath tMatrix currentmatrix pop	translate 0 0 moveto scale
  0 0 1 5 -2 roll arc closepath tMatrix setmatrix fill} bdef
/FAn {newpath tMatrix currentmatrix pop translate scale
  0 0 1 5 -2 roll arcn tMatrix setmatrix stroke} bdef
/PAn {newpath tMatrix currentmatrix pop translate 0 0 moveto scale
  0 0 1 5 -2 roll arcn closepath tMatrix setmatrix fill} bdef
/vradius 0 def /hradius 0 def /lry 0 def
/lrx 0 def /uly 0 def /ulx 0 def /rad 0 def
/MRR {/vradius xdef /hradius xdef /lry xdef /lrx xdef /uly xdef
  /ulx xdef newpath tMatrix currentmatrix pop ulx hradius add uly
  vradius add translate hradius vradius scale 0 0 1 180 270 arc 
  tMatrix setmatrix lrx hradius sub uly vradius add translate
  hradius vradius scale 0 0 1 270 360 arc tMatrix setmatrix
  lrx hradius sub lry vradius sub translate hradius vradius scale
  0 0 1 0 90 arc tMatrix setmatrix ulx hradius add lry vradius sub
  translate hradius vradius scale 0 0 1 90 180 arc tMatrix setmatrix
  closepath} bdef
/FRR {MRR stroke } bdef
/PRR {MRR fill } bdef
/MlrRR {/lry xdef /lrx xdef /uly xdef /ulx xdef /rad lry uly sub 2 div def
  newpath tMatrix currentmatrix pop ulx rad add uly rad add translate
  rad rad scale 0 0 1 90 270 arc tMatrix setmatrix lrx rad sub lry rad
  sub translate rad rad scale 0 0 1 270 90 arc tMatrix setmatrix
  closepath} bdef
/FlrRR {MlrRR stroke } bdef
/PlrRR {MlrRR fill } bdef
/MtbRR {/lry xdef /lrx xdef /uly xdef /ulx xdef /rad lrx ulx sub 2 div def
  newpath tMatrix currentmatrix pop ulx rad add uly rad add translate
  rad rad scale 0 0 1 180 360 arc tMatrix setmatrix lrx rad sub lry rad
  sub translate rad rad scale 0 0 1 0 180 arc tMatrix setmatrix
  closepath} bdef
/FtbRR {MtbRR stroke } bdef
/PtbRR {MtbRR fill } bdef
/stri 6 array def /dtri 6 array def
/smat 6 array def /dmat 6 array def
/tmat1 6 array def /tmat2 6 array def /dif 3 array def
/asub {/ind2 exch def /ind1 exch def dup dup
  ind1 get exch ind2 get sub exch } bdef
/tri_to_matrix {
  2 0 asub 3 1 asub 4 0 asub 5 1 asub
  dup 0 get exch 1 get 7 -1 roll astore } bdef
/compute_transform {
  dmat dtri tri_to_matrix tmat1 invertmatrix 
  smat stri tri_to_matrix tmat2 concatmatrix } bdef
/ds {stri astore pop} bdef
/dt {dtri astore pop} bdef
/db {2 copy /cols xdef /rows xdef mul dup 3 mul string
  currentfile exch readhexstring pop
  dup 0 3 index getinterval /rbmap xdef
  dup 2 index dup getinterval /gbmap xdef
  1 index dup 2 mul exch getinterval /bbmap xdef pop pop}bdef
/it {gs np dtri aload pop moveto lineto lineto cp c
  cols rows 8 compute_transform 
  rbmap gbmap bbmap true 3 colorimage gr}bdef
/il {newpath moveto lineto stroke}bdef
currentdict end def
%%EndProlog

%%BeginSetup
MathWorks begin

0 cap

end
%%EndSetup

%%Page: 1 1
%%BeginPageSetup
%%PageBoundingBox:    52   192   553   602
MathWorks begin
bpage
%%EndPageSetup

%%BeginObject: obj1
bplot

/dpi2point 12 def
portraitMode 0216 7344 csm

  417   110  6014  4925 MR c np
87 dict begin %Colortable dictionary
/c0 { 0.000000 0.000000 0.000000 sr} bdef
/c1 { 1.000000 1.000000 1.000000 sr} bdef
/c2 { 0.900000 0.000000 0.000000 sr} bdef
/c3 { 0.000000 0.820000 0.000000 sr} bdef
/c4 { 0.000000 0.000000 0.800000 sr} bdef
/c5 { 0.910000 0.820000 0.320000 sr} bdef
/c6 { 1.000000 0.260000 0.820000 sr} bdef
/c7 { 0.000000 0.820000 0.820000 sr} bdef
c0
1 j
1 sg
   0    0 6913 5186 PR
6 w
0 4226 5356 0 0 -4226 899 4615 4 MP
PP
-5356 0 0 4226 5356 0 0 -4226 899 4615 5 MP stroke
4 w
DO
SO
6 w
0 sg
 899 4615 mt 6255 4615 L
 899  389 mt 6255  389 L
 899 4615 mt  899  389 L
6255 4615 mt 6255  389 L
 899 4615 mt 6255 4615 L
 899 4615 mt  899  389 L
 899 4615 mt  899 4561 L
 899  389 mt  899  442 L
%%IncludeResource: font Helvetica
/Helvetica /ISOLatin1Encoding 120 FMSR

 763 4760 mt 
(-10) s
1791 4615 mt 1791 4561 L
1791  389 mt 1791  442 L
1688 4760 mt 
(-5) s
2684 4615 mt 2684 4561 L
2684  389 mt 2684  442 L
2651 4760 mt 
(0) s
3577 4615 mt 3577 4561 L
3577  389 mt 3577  442 L
3544 4760 mt 
(5) s
4469 4615 mt 4469 4561 L
4469  389 mt 4469  442 L
4403 4760 mt 
(10) s
5362 4615 mt 5362 4561 L
5362  389 mt 5362  442 L
5296 4760 mt 
(15) s
6255 4615 mt 6255 4561 L
6255  389 mt 6255  442 L
6189 4760 mt 
(20) s
 899 4615 mt  952 4615 L
6255 4615 mt 6201 4615 L
 798 4659 mt 
(0) s
 899 4011 mt  952 4011 L
6255 4011 mt 6201 4011 L
 798 4055 mt 
(5) s
 899 3407 mt  952 3407 L
6255 3407 mt 6201 3407 L
 731 3451 mt 
(10) s
 899 2803 mt  952 2803 L
6255 2803 mt 6201 2803 L
 731 2847 mt 
(15) s
 899 2200 mt  952 2200 L
6255 2200 mt 6201 2200 L
 731 2244 mt 
(20) s
 899 1596 mt  952 1596 L
6255 1596 mt 6201 1596 L
 731 1640 mt 
(25) s
 899  992 mt  952  992 L
6255  992 mt 6201  992 L
 731 1036 mt 
(30) s
 899  389 mt  952  389 L
6255  389 mt 6201  389 L
 731  433 mt 
(35) s
 899 4615 mt 6255 4615 L
 899  389 mt 6255  389 L
 899 4615 mt  899  389 L
6255 4615 mt 6255  389 L
gs 899 389 5357 4227 MR c np
DA
24 w
/c8 { 0.000000 1.000000 0.000000 sr} bdef
c8
536 -680 536 -651 535 -610 536 -545 535 -449 536 -332 536 -220 535 -134 
536 -77 535 -43 899 4567 11 MP stroke
gr

24 w
c8
DA
gs 753 680 5649 4034 MR c np
SO
 839 4567 mt  959 4567 L
 899 4507 mt  899 4627 L
1374 4524 mt 1494 4524 L
1434 4464 mt 1434 4584 L
1910 4447 mt 2030 4447 L
1970 4387 mt 1970 4507 L
2445 4313 mt 2565 4313 L
2505 4253 mt 2505 4373 L
2981 4093 mt 3101 4093 L
3041 4033 mt 3041 4153 L
3517 3761 mt 3637 3761 L
3577 3701 mt 3577 3821 L
4052 3312 mt 4172 3312 L
4112 3252 mt 4112 3372 L
4588 2767 mt 4708 2767 L
4648 2707 mt 4648 2827 L
5123 2157 mt 5243 2157 L
5183 2097 mt 5183 2217 L
5659 1506 mt 5779 1506 L
5719 1446 mt 5719 1566 L
6195  826 mt 6315  826 L
6255  766 mt 6255  886 L
 857 4525 mt  941 4609 L
 941 4525 mt  857 4609 L
1392 4482 mt 1476 4566 L
1476 4482 mt 1392 4566 L
1928 4405 mt 2012 4489 L
2012 4405 mt 1928 4489 L
2463 4271 mt 2547 4355 L
2547 4271 mt 2463 4355 L
2999 4051 mt 3083 4135 L
3083 4051 mt 2999 4135 L
3535 3719 mt 3619 3803 L
3619 3719 mt 3535 3803 L
4070 3270 mt 4154 3354 L
4154 3270 mt 4070 3354 L
4606 2725 mt 4690 2809 L
4690 2725 mt 4606 2809 L
5141 2115 mt 5225 2199 L
5225 2115 mt 5141 2199 L
5677 1464 mt 5761 1548 L
5761 1464 mt 5677 1548 L
6213  784 mt 6297  868 L
6297  784 mt 6213  868 L
DA
gr

gs 899 389 5357 4227 MR c np
SO
536 -615 536 -591 535 -552 536 -492 535 -408 536 -310 536 -213 535 -132 
536 -76 535 -41 899 4571 11 MP stroke
gr

SO
gs 753 995 5649 3723 MR c np
 839 4571 mt  959 4571 L
 899 4511 mt  899 4631 L
1374 4530 mt 1494 4530 L
1434 4470 mt 1434 4590 L
1910 4454 mt 2030 4454 L
1970 4394 mt 1970 4514 L
2445 4322 mt 2565 4322 L
2505 4262 mt 2505 4382 L
2981 4109 mt 3101 4109 L
3041 4049 mt 3041 4169 L
3517 3799 mt 3637 3799 L
3577 3739 mt 3577 3859 L
4052 3391 mt 4172 3391 L
4112 3331 mt 4112 3451 L
4588 2899 mt 4708 2899 L
4648 2839 mt 4648 2959 L
5123 2347 mt 5243 2347 L
5183 2287 mt 5183 2407 L
5659 1756 mt 5779 1756 L
5719 1696 mt 5719 1816 L
6195 1141 mt 6315 1141 L
6255 1081 mt 6255 1201 L
 857 4529 mt  941 4613 L
 941 4529 mt  857 4613 L
1392 4488 mt 1476 4572 L
1476 4488 mt 1392 4572 L
1928 4412 mt 2012 4496 L
2012 4412 mt 1928 4496 L
2463 4280 mt 2547 4364 L
2547 4280 mt 2463 4364 L
2999 4067 mt 3083 4151 L
3083 4067 mt 2999 4151 L
3535 3757 mt 3619 3841 L
3619 3757 mt 3535 3841 L
4070 3349 mt 4154 3433 L
4154 3349 mt 4070 3433 L
4606 2857 mt 4690 2941 L
4690 2857 mt 4606 2941 L
5141 2305 mt 5225 2389 L
5225 2305 mt 5141 2389 L
5677 1714 mt 5761 1798 L
5761 1714 mt 5677 1798 L
6213 1099 mt 6297 1183 L
6297 1099 mt 6213 1183 L
gr

gs 899 389 5357 4227 MR c np
DA
/c9 { 0.000000 0.000000 1.000000 sr} bdef
c9
536 -612 536 -544 535 -449 536 -337 535 -244 536 -172 536 -112 535 -69 
536 -38 535 -22 899 4591 11 MP stroke
gr

c9
DA
gs 753 1846 5649 2892 MR c np
SO
0 j
0 -94 -94 0 0 94 94 0 852 4544 5 MP
DP
0 -94 -94 0 0 94 94 0 1387 4522 5 MP
DP
0 -94 -94 0 0 94 94 0 1923 4484 5 MP
DP
0 -94 -94 0 0 94 94 0 2458 4415 5 MP
DP
0 -94 -94 0 0 94 94 0 2994 4303 5 MP
DP
0 -94 -94 0 0 94 94 0 3530 4131 5 MP
DP
0 -94 -94 0 0 94 94 0 4065 3887 5 MP
DP
0 -94 -94 0 0 94 94 0 4601 3550 5 MP
DP
0 -94 -94 0 0 94 94 0 5136 3101 5 MP
DP
0 -94 -94 0 0 94 94 0 5672 2557 5 MP
DP
0 -94 -94 0 0 94 94 0 6208 1945 5 MP
DP
DA
gr

gs 899 389 5357 4227 MR c np
SO
536 -560 536 -507 535 -434 536 -346 535 -252 536 -168 536 -103 535 -58 
536 -31 535 -17 899 4598 11 MP stroke
gr

SO
gs 753 1976 5649 2769 MR c np
0 j
0 -94 -94 0 0 94 94 0 852 4551 5 MP
DP
0 -94 -94 0 0 94 94 0 1387 4534 5 MP
DP
0 -94 -94 0 0 94 94 0 1923 4503 5 MP
DP
0 -94 -94 0 0 94 94 0 2458 4445 5 MP
DP
0 -94 -94 0 0 94 94 0 2994 4342 5 MP
DP
0 -94 -94 0 0 94 94 0 3530 4174 5 MP
DP
0 -94 -94 0 0 94 94 0 4065 3922 5 MP
DP
0 -94 -94 0 0 94 94 0 4601 3576 5 MP
DP
0 -94 -94 0 0 94 94 0 5136 3142 5 MP
DP
0 -94 -94 0 0 94 94 0 5672 2635 5 MP
DP
0 -94 -94 0 0 94 94 0 6208 2075 5 MP
DP
gr

gs 899 389 5357 4227 MR c np
DA
/c10 { 1.000000 0.000000 1.000000 sr} bdef
c10
536 -602 536 -531 535 -431 536 -321 535 -231 536 -162 536 -107 535 -65 
536 -38 535 -21 899 4592 11 MP stroke
gr

c10
DA
gs 753 1937 5649 2802 MR c np
SO
 839 4592 mt  959 4592 L
 899 4532 mt  899 4652 L
1374 4571 mt 1494 4571 L
1434 4511 mt 1434 4631 L
1910 4533 mt 2030 4533 L
1970 4473 mt 1970 4593 L
2445 4468 mt 2565 4468 L
2505 4408 mt 2505 4528 L
2981 4361 mt 3101 4361 L
3041 4301 mt 3041 4421 L
3517 4199 mt 3637 4199 L
3577 4139 mt 3577 4259 L
4052 3968 mt 4172 3968 L
4112 3908 mt 4112 4028 L
4588 3647 mt 4708 3647 L
4648 3587 mt 4648 3707 L
5123 3216 mt 5243 3216 L
5183 3156 mt 5183 3276 L
5659 2685 mt 5779 2685 L
5719 2625 mt 5719 2745 L
6195 2083 mt 6315 2083 L
6255 2023 mt 6255 2143 L
DA
gr

gs 899 389 5357 4227 MR c np
SO
536 -553 536 -497 535 -421 536 -333 535 -240 536 -160 536 -96 535 -55 
536 -29 535 -16 899 4599 11 MP stroke
gr

SO
gs 753 2053 5649 2693 MR c np
 839 4599 mt  959 4599 L
 899 4539 mt  899 4659 L
1374 4583 mt 1494 4583 L
1434 4523 mt 1434 4643 L
1910 4554 mt 2030 4554 L
1970 4494 mt 1970 4614 L
2445 4499 mt 2565 4499 L
2505 4439 mt 2505 4559 L
2981 4403 mt 3101 4403 L
3041 4343 mt 3041 4463 L
3517 4243 mt 3637 4243 L
3577 4183 mt 3577 4303 L
4052 4003 mt 4172 4003 L
4112 3943 mt 4112 4063 L
4588 3670 mt 4708 3670 L
4648 3610 mt 4648 3730 L
5123 3249 mt 5243 3249 L
5183 3189 mt 5183 3309 L
5659 2752 mt 5779 2752 L
5719 2692 mt 5719 2812 L
6195 2199 mt 6315 2199 L
6255 2139 mt 6255 2259 L
gr

gs 899 389 5357 4227 MR c np
/c11 { 1.000000 0.000000 0.000000 sr} bdef
c11
536 -356 536 -331 535 -294 536 -245 535 -189 536 -132 536 -82 535 -48 
536 -26 535 -13 899 4600 11 MP stroke
gr

c11
gs 753 2738 5649 2009 MR c np
 857 4558 mt  941 4642 L
 941 4558 mt  857 4642 L
1392 4545 mt 1476 4629 L
1476 4545 mt 1392 4629 L
1928 4519 mt 2012 4603 L
2012 4519 mt 1928 4603 L
2463 4471 mt 2547 4555 L
2547 4471 mt 2463 4555 L
2999 4389 mt 3083 4473 L
3083 4389 mt 2999 4473 L
3535 4257 mt 3619 4341 L
3619 4257 mt 3535 4341 L
4070 4068 mt 4154 4152 L
4154 4068 mt 4070 4152 L
4606 3823 mt 4690 3907 L
4690 3823 mt 4606 3907 L
5141 3529 mt 5225 3613 L
5225 3529 mt 5141 3613 L
5677 3198 mt 5761 3282 L
5761 3198 mt 5677 3282 L
6213 2842 mt 6297 2926 L
6297 2842 mt 6213 2926 L
gr

gs 899 389 5357 4227 MR c np
gr

0 sg
2992  294 mt 
(Channel E, Scheme 2) s
%%IncludeResource: font Helvetica
/Helvetica /ISOLatin1Encoding 204 FMSR

3140 4965 mt 
(SNR \(dB\)) s
 631 3784 mt  -90 rotate
(Information Rates \(nats/sec\)) s
90 rotate
%%IncludeResource: font Helvetica
/Helvetica /ISOLatin1Encoding 120 FMSR

 857 4683 mt 
( ) s
6214  456 mt 
( ) s
6 w
1 sg
0 1776 1980 0 0 -1776 1219 2359 4 MP
PP
-1980 0 0 1776 1980 0 0 -1776 1219 2359 5 MP stroke
4 w
DO
SO
6 w
0 sg
1219 2359 mt 3199 2359 L
1219  583 mt 3199  583 L
1219 2359 mt 1219  583 L
3199 2359 mt 3199  583 L
1219 2359 mt 3199 2359 L
1219 2359 mt 1219  583 L
1219 2359 mt 3199 2359 L
1219  583 mt 3199  583 L
1219 2359 mt 1219  583 L
3199 2359 mt 3199  583 L
%%IncludeResource: font Helvetica
/Helvetica /ISOLatin1Encoding 168 FMSR

1687  781 mt 
(Optimal \(PA\)) s
gs 1219 583 1981 1777 MR c np
DA
24 w
c8
360 0 1291 721 2 MP stroke
SO
gr

24 w
c8
gs 1325 575 293 293 MR c np
1411  721 mt 1531  721 L
1471  661 mt 1471  781 L
1429  679 mt 1513  763 L
1513  679 mt 1429  763 L
gr

gs 1219 583 1981 1777 MR c np
gr

0 sg
1687 1015 mt 
(Optimal) s
gs 1219 583 1981 1777 MR c np
c8
360 0 1291 955 2 MP stroke
gs 1325 809 293 293 MR c np
1411  955 mt 1531  955 L
1471  895 mt 1471 1015 L
1429  913 mt 1513  997 L
1513  913 mt 1429  997 L
gr

gr

c8
0 sg
1687 1303 mt 
(EB, K=K) s
%%IncludeResource: font Symbol
/Symbol /ISOLatin1Encoding 132 FMSR

2323 1219 mt 
(\242) s
%%IncludeResource: font Helvetica
/Helvetica /ISOLatin1Encoding 168 FMSR

2355 1303 mt 
(+1 \(PA\)) s
gs 1219 583 1981 1777 MR c np
DA
c9
360 0 1291 1213 2 MP stroke
SO
gs 1325 1067 293 293 MR c np
0 j
0 -94 -94 0 0 94 94 0 1424 1166 5 MP
DP
gr

gr

c9
0 sg
1687 1586 mt 
(EB, K=K) s
%%IncludeResource: font Symbol
/Symbol /ISOLatin1Encoding 132 FMSR

2323 1502 mt 
(\242) s
%%IncludeResource: font Helvetica
/Helvetica /ISOLatin1Encoding 168 FMSR

2355 1586 mt 
(+1) s
gs 1219 583 1981 1777 MR c np
c9
360 0 1291 1495 2 MP stroke
gs 1325 1349 293 293 MR c np
0 j
0 -94 -94 0 0 94 94 0 1424 1448 5 MP
DP
gr

gr

c9
0 sg
1687 1814 mt 
(SB, JLD \(PA\)) s
gs 1219 583 1981 1777 MR c np
DA
c10
360 0 1291 1753 2 MP stroke
SO
gs 1325 1607 293 293 MR c np
1411 1753 mt 1531 1753 L
1471 1693 mt 1471 1813 L
gr

gr

c10
0 sg
1687 2048 mt 
(SB, JLD) s
gs 1219 583 1981 1777 MR c np
c10
360 0 1291 1987 2 MP stroke
gs 1325 1841 293 293 MR c np
1411 1987 mt 1531 1987 L
1471 1927 mt 1471 2047 L
gr

gr

c10
0 sg
1687 2282 mt 
(SB, ILD) s
gs 1219 583 1981 1777 MR c np
c11
360 0 1291 2221 2 MP stroke
gr

c11
gs 1325 2075 293 293 MR c np
1429 2179 mt 1513 2263 L
1513 2179 mt 1429 2263 L
gr

gs 1219 583 1981 1777 MR c np
6 w
gr

6 w

end %%Color Dict

eplot
%%EndObject

epage
end

showpage

%%Trailer
%%EOF
