%!PS-Adobe-2.0 EPSF-1.2
%%Creator: MATLAB, The MathWorks, Inc. Version 8.3.0.532 (R2014a). Operating System: Darwin 13.4.0 Darwin Kernel Version 13.4.0: Wed Mar 18 16:20:14 PDT 2015; root:xnu-2422.115.14~1/RELEASE_X86_64 x86_64.
%%Title: ./SPECTRUM_CHE_SCH1.eps
%%CreationDate: 07/14/2015  11:08:49
%%DocumentNeededFonts: Helvetica
%%DocumentProcessColors: Cyan Magenta Yellow Black
%%Extensions: CMYK
%%Pages: 1
%%BoundingBox:    58   208   543   595
%%EndComments

%%BeginProlog
% MathWorks dictionary
/MathWorks 160 dict begin
% definition operators
/bdef {bind def} bind def
/ldef {load def} bind def
/xdef {exch def} bdef
/xstore {exch store} bdef
% operator abbreviations
/c  /clip ldef
/cc /concat ldef
/cp /closepath ldef
/gr /grestore ldef
/gs /gsave ldef
/mt /moveto ldef
/np /newpath ldef
/cm /currentmatrix ldef
/sm /setmatrix ldef
/rm /rmoveto ldef
/rl /rlineto ldef
/s {show newpath} bdef
/sc {setcmykcolor} bdef
/sr /setrgbcolor ldef
/sg /setgray ldef
/w /setlinewidth ldef
/j /setlinejoin ldef
/cap /setlinecap ldef
/rc {rectclip} bdef
/rf {rectfill} bdef
% page state control
/pgsv () def
/bpage {/pgsv save def} bdef
/epage {pgsv restore} bdef
/bplot /gsave ldef
/eplot {stroke grestore} bdef
% orientation switch
/portraitMode 0 def /landscapeMode 1 def /rotateMode 2 def
% coordinate system mappings
/dpi2point 0 def
% font control
/FontSize 0 def
/FMS {/FontSize xstore findfont [FontSize 0 0 FontSize neg 0 0]
  makefont setfont} bdef
/reencode {exch dup where {pop load} {pop StandardEncoding} ifelse
  exch dup 3 1 roll findfont dup length dict begin
  { 1 index /FID ne {def}{pop pop} ifelse } forall
  /Encoding exch def currentdict end definefont pop} bdef
/isroman {findfont /CharStrings get /Agrave known} bdef
/FMSR {3 1 roll 1 index dup isroman {reencode} {pop pop} ifelse
  exch FMS} bdef
/csm {1 dpi2point div -1 dpi2point div scale neg translate
 dup landscapeMode eq {pop -90 rotate}
  {rotateMode eq {90 rotate} if} ifelse} bdef
% line types: solid, dotted, dashed, dotdash
/SO { [] 0 setdash } bdef
/DO { [.5 dpi2point mul 4 dpi2point mul] 0 setdash } bdef
/DA { [6 dpi2point mul] 0 setdash } bdef
/DD { [.5 dpi2point mul 4 dpi2point mul 6 dpi2point mul 4
  dpi2point mul] 0 setdash } bdef
% macros for lines and objects
/L {lineto stroke} bdef
/MP {3 1 roll moveto 1 sub {rlineto} repeat} bdef
/AP {{rlineto} repeat} bdef
/PDlw -1 def
/W {/PDlw currentlinewidth def setlinewidth} def
/PP {closepath eofill} bdef
/DP {closepath stroke} bdef
/MR {4 -2 roll moveto dup  0 exch rlineto exch 0 rlineto
  neg 0 exch rlineto closepath} bdef
/FR {MR stroke} bdef
/PR {MR fill} bdef
/L1i {{currentfile picstr readhexstring pop} image} bdef
/tMatrix matrix def
/MakeOval {newpath tMatrix currentmatrix pop translate scale
0 0 1 0 360 arc tMatrix setmatrix} bdef
/FO {MakeOval stroke} bdef
/PO {MakeOval fill} bdef
/PD {currentlinewidth 2 div 0 360 arc fill
   PDlw -1 eq not {PDlw w /PDlw -1 def} if} def
/FA {newpath tMatrix currentmatrix pop translate scale
  0 0 1 5 -2 roll arc tMatrix setmatrix stroke} bdef
/PA {newpath tMatrix currentmatrix pop	translate 0 0 moveto scale
  0 0 1 5 -2 roll arc closepath tMatrix setmatrix fill} bdef
/FAn {newpath tMatrix currentmatrix pop translate scale
  0 0 1 5 -2 roll arcn tMatrix setmatrix stroke} bdef
/PAn {newpath tMatrix currentmatrix pop translate 0 0 moveto scale
  0 0 1 5 -2 roll arcn closepath tMatrix setmatrix fill} bdef
/vradius 0 def /hradius 0 def /lry 0 def
/lrx 0 def /uly 0 def /ulx 0 def /rad 0 def
/MRR {/vradius xdef /hradius xdef /lry xdef /lrx xdef /uly xdef
  /ulx xdef newpath tMatrix currentmatrix pop ulx hradius add uly
  vradius add translate hradius vradius scale 0 0 1 180 270 arc 
  tMatrix setmatrix lrx hradius sub uly vradius add translate
  hradius vradius scale 0 0 1 270 360 arc tMatrix setmatrix
  lrx hradius sub lry vradius sub translate hradius vradius scale
  0 0 1 0 90 arc tMatrix setmatrix ulx hradius add lry vradius sub
  translate hradius vradius scale 0 0 1 90 180 arc tMatrix setmatrix
  closepath} bdef
/FRR {MRR stroke } bdef
/PRR {MRR fill } bdef
/MlrRR {/lry xdef /lrx xdef /uly xdef /ulx xdef /rad lry uly sub 2 div def
  newpath tMatrix currentmatrix pop ulx rad add uly rad add translate
  rad rad scale 0 0 1 90 270 arc tMatrix setmatrix lrx rad sub lry rad
  sub translate rad rad scale 0 0 1 270 90 arc tMatrix setmatrix
  closepath} bdef
/FlrRR {MlrRR stroke } bdef
/PlrRR {MlrRR fill } bdef
/MtbRR {/lry xdef /lrx xdef /uly xdef /ulx xdef /rad lrx ulx sub 2 div def
  newpath tMatrix currentmatrix pop ulx rad add uly rad add translate
  rad rad scale 0 0 1 180 360 arc tMatrix setmatrix lrx rad sub lry rad
  sub translate rad rad scale 0 0 1 0 180 arc tMatrix setmatrix
  closepath} bdef
/FtbRR {MtbRR stroke } bdef
/PtbRR {MtbRR fill } bdef
/stri 6 array def /dtri 6 array def
/smat 6 array def /dmat 6 array def
/tmat1 6 array def /tmat2 6 array def /dif 3 array def
/asub {/ind2 exch def /ind1 exch def dup dup
  ind1 get exch ind2 get sub exch } bdef
/tri_to_matrix {
  2 0 asub 3 1 asub 4 0 asub 5 1 asub
  dup 0 get exch 1 get 7 -1 roll astore } bdef
/compute_transform {
  dmat dtri tri_to_matrix tmat1 invertmatrix 
  smat stri tri_to_matrix tmat2 concatmatrix } bdef
/ds {stri astore pop} bdef
/dt {dtri astore pop} bdef
/db {2 copy /cols xdef /rows xdef mul dup 3 mul string
  currentfile exch readhexstring pop
  dup 0 3 index getinterval /rbmap xdef
  dup 2 index dup getinterval /gbmap xdef
  1 index dup 2 mul exch getinterval /bbmap xdef pop pop}bdef
/it {gs np dtri aload pop moveto lineto lineto cp c
  cols rows 8 compute_transform 
  rbmap gbmap bbmap true 3 colorimage gr}bdef
/il {newpath moveto lineto stroke}bdef
currentdict end def
%%EndProlog

%%BeginSetup
MathWorks begin

0 cap

end
%%EndSetup

%%Page: 1 1
%%BeginPageSetup
%%PageBoundingBox:    58   208   543   595
MathWorks begin
bpage
%%EndPageSetup

%%BeginObject: obj1
bplot

/dpi2point 12 def
portraitMode 0216 7344 csm

  480   202  5825  4640 MR c np
85 dict begin %Colortable dictionary
/c0 { 0.000000 0.000000 0.000000 sr} bdef
/c1 { 1.000000 1.000000 1.000000 sr} bdef
/c2 { 0.900000 0.000000 0.000000 sr} bdef
/c3 { 0.000000 0.820000 0.000000 sr} bdef
/c4 { 0.000000 0.000000 0.800000 sr} bdef
/c5 { 0.910000 0.820000 0.320000 sr} bdef
/c6 { 1.000000 0.260000 0.820000 sr} bdef
/c7 { 0.000000 0.820000 0.820000 sr} bdef
c0
1 j
1 sg
   0    0 6913 5186 PR
6 w
0 613 5356 0 0 -613 899 1094 4 MP
PP
-5356 0 0 613 5356 0 0 -613 899 1094 5 MP stroke
4 w
DO
SO
6 w
0 sg
 899 1094 mt 6255 1094 L
 899  481 mt 6255  481 L
 899 1094 mt  899  481 L
6255 1094 mt 6255  481 L
 899 1094 mt 6255 1094 L
 899 1094 mt  899  481 L
1066 1094 mt 1066 1040 L
1066  481 mt 1066  534 L
%%IncludeResource: font Helvetica
/Helvetica /ISOLatin1Encoding 120 FMSR

 930 1239 mt 
(-15) s
1903 1094 mt 1903 1040 L
1903  481 mt 1903  534 L
1767 1239 mt 
(-10) s
2740 1094 mt 2740 1040 L
2740  481 mt 2740  534 L
2637 1239 mt 
(-5) s
3577 1094 mt 3577 1040 L
3577  481 mt 3577  534 L
3544 1239 mt 
(0) s
4413 1094 mt 4413 1040 L
4413  481 mt 4413  534 L
4380 1239 mt 
(5) s
5250 1094 mt 5250 1040 L
5250  481 mt 5250  534 L
5184 1239 mt 
(10) s
6087 1094 mt 6087 1040 L
6087  481 mt 6087  534 L
6021 1239 mt 
(15) s
 899 1094 mt  952 1094 L
6255 1094 mt 6201 1094 L
 798 1138 mt 
(0) s
 899  787 mt  952  787 L
6255  787 mt 6201  787 L
 698  831 mt 
(0.5) s
 899  481 mt  952  481 L
6255  481 mt 6201  481 L
 798  525 mt 
(1) s
 899 1094 mt 6255 1094 L
 899  481 mt 6255  481 L
 899 1094 mt  899  481 L
6255 1094 mt 6255  481 L
gs 899 481 5357 614 MR c np
24 w
/c8 { 0.000000 0.000000 1.000000 sr} bdef
c8
2 0 2 0 2 0 1 0 2 0 2 0 2 0 1 0 
2 0 2 0 2 0 1 0 2 0 2 0 2 0 1 0 
2 0 2 0 2 0 1 0 2 0 2 0 2 0 1 0 
2 0 2 0 2 0 1 0 2 0 2 0 2 0 1 0 
2 0 2 0 2 0 1 0 2 0 2 0 2 0 1 0 
2 0 2 0 1 0 2 0 2 0 2 0 1 0 2 0 
2 0 2 0 1 0 2 0 2 0 2 0 1 0 2 0 
2 0 2 0 1 0 2 0 2 0 2 0 1 0 2 0 
2 0 2 0 1 0 2 0 2 0 2 0 1 0 2 0 
2 0 2 0 1 0 2 0 2 0 2 0 1 0 2 0 
2 0 2 0 1 0 2 0 2 0 1 0 2 0 2 0 
2 0 1 0 2 0 2 0 2 0 1 0 2 0 2 0 
2 0 1 0 2 0 6082 1094 100 MP stroke
2 0 2 0 1 0 2 0 2 0 2 0 1 0 2 0 
2 0 2 0 1 0 2 0 2 0 2 0 1 0 2 0 
2 0 2 0 1 0 2 0 2 0 2 0 1 0 2 0 
2 0 2 0 1 0 2 0 2 0 1 0 2 0 2 0 
2 0 1 0 2 0 2 0 2 0 1 0 2 0 2 0 
2 0 1 0 2 0 2 0 2 0 1 0 2 0 2 0 
2 0 1 0 2 0 2 0 2 0 1 0 2 0 2 0 
2 0 1 0 2 0 2 0 2 0 1 0 2 0 2 0 
2 0 1 0 2 0 2 0 2 0 1 0 2 0 2 0 
1 0 2 0 2 0 2 0 1 0 2 0 2 0 2 0 
1 0 2 0 2 0 2 0 1 0 2 0 2 0 2 0 
1 0 2 0 2 0 2 0 1 0 2 0 2 0 2 0 
1 0 2 0 2 0 5909 1094 100 MP stroke
2 0 1 0 2 0 2 0 2 0 1 0 2 0 2 0 
2 0 1 0 2 0 2 0 1 0 2 0 2 0 2 0 
1 0 2 0 2 0 2 0 1 0 2 0 2 0 2 0 
1 0 2 0 2 0 2 0 1 0 2 0 2 0 2 0 
1 0 2 0 2 0 2 0 1 0 2 0 2 0 2 0 
1 0 2 0 2 0 2 0 1 0 2 0 2 0 2 0 
1 0 2 0 2 0 2 0 1 0 2 0 2 0 1 0 
2 0 2 0 2 0 1 0 2 0 2 0 2 0 1 0 
2 0 2 0 2 0 1 0 2 0 2 0 2 0 1 0 
2 0 2 0 2 0 1 0 2 0 2 0 2 0 1 0 
2 0 2 0 2 0 1 0 2 0 2 0 2 0 1 0 
2 0 2 0 2 0 1 0 2 0 2 0 2 0 1 0 
2 0 2 0 1 0 5737 1094 100 MP stroke
2 0 2 0 2 0 1 0 2 0 2 0 2 0 1 0 
2 0 2 0 2 0 1 0 2 0 2 0 2 0 1 0 
2 0 2 0 2 0 1 0 2 0 2 0 2 0 1 0 
2 0 2 0 2 0 1 0 2 0 2 0 2 0 1 0 
2 0 2 0 2 0 1 0 2 0 2 0 2 0 1 0 
2 0 2 0 1 0 2 0 2 0 2 0 1 0 2 0 
2 0 2 0 1 0 2 0 2 0 2 0 1 0 2 0 
2 0 2 0 1 0 2 0 2 0 2 0 1 0 2 0 
2 0 2 0 1 0 2 0 2 0 2 0 1 0 2 0 
2 0 2 0 1 0 2 0 2 0 2 0 1 0 2 0 
2 0 1 0 2 0 2 0 2 0 1 0 2 0 2 0 
2 0 1 0 2 0 2 0 2 0 1 0 2 0 2 0 
2 0 1 0 2 0 5564 1094 100 MP stroke
2 0 2 0 1 0 2 0 2 0 2 0 1 0 2 0 
2 0 2 0 1 0 2 0 2 0 2 0 1 0 2 0 
2 0 2 0 1 0 2 0 2 0 2 0 1 0 2 0 
2 0 1 0 2 0 2 0 2 0 1 0 2 0 2 0 
2 0 1 0 2 0 2 0 2 0 1 0 2 0 2 0 
2 0 1 0 2 0 2 0 2 0 1 0 2 0 2 0 
2 0 1 0 2 0 2 0 2 0 1 0 2 0 2 0 
2 0 1 0 2 0 2 0 2 0 1 0 2 0 2 0 
2 0 1 0 2 0 2 0 1 0 2 0 2 0 2 0 
1 0 2 0 2 0 2 0 1 0 2 0 2 0 2 0 
1 0 2 0 2 0 2 0 1 0 2 0 2 0 2 0 
1 0 2 0 2 0 2 0 1 0 2 0 2 0 2 0 
1 0 2 0 2 0 5391 1094 100 MP stroke
2 0 1 0 2 0 2 0 2 0 1 0 2 0 2 0 
2 0 1 0 2 0 2 0 1 0 2 0 2 0 2 0 
1 0 2 0 2 0 2 0 1 0 2 0 2 0 2 0 
1 0 2 0 2 0 2 0 1 0 2 0 2 0 2 0 
1 0 2 0 2 0 2 0 1 0 2 0 2 0 2 0 
1 0 2 0 2 0 2 0 1 0 2 0 2 0 2 0 
1 0 2 0 2 0 1 0 2 0 2 0 2 0 1 0 
2 0 2 0 2 0 1 0 2 0 2 0 2 0 1 0 
2 0 2 0 2 0 1 0 2 0 2 0 2 0 1 0 
2 0 2 0 2 0 1 0 2 0 2 0 2 0 1 0 
2 0 2 0 2 0 1 0 2 0 2 0 2 0 1 0 
2 0 2 0 2 0 1 0 2 0 2 0 1 0 2 0 
2 0 2 0 1 0 5219 1094 100 MP stroke
2 0 2 0 2 0 1 0 2 0 2 0 2 0 1 0 
2 0 2 0 2 0 1 0 2 0 2 0 2 0 1 0 
2 0 2 0 2 0 1 0 2 0 2 0 2 0 1 0 
2 0 2 0 2 0 1 0 2 0 2 0 2 0 1 0 
2 0 2 0 2 0 1 0 2 0 2 0 1 0 2 0 
2 0 2 0 1 0 2 0 2 0 2 0 1 0 2 0 
2 0 2 0 1 0 2 0 2 0 2 0 1 0 2 0 
2 0 2 0 1 0 2 0 2 0 2 0 1 0 2 0 
2 0 2 0 1 0 2 0 2 0 2 0 1 0 2 0 
2 0 2 0 1 0 2 0 2 0 2 0 1 0 2 0 
2 0 1 0 2 0 2 0 2 0 1 0 2 0 2 0 
2 0 1 0 2 0 2 0 2 0 1 0 2 0 2 0 
2 0 1 0 2 0 5046 1094 100 MP stroke
2 0 2 0 1 0 2 0 2 0 2 0 1 0 2 0 
2 0 2 0 1 0 2 0 2 0 2 0 1 0 2 0 
2 0 2 0 1 0 2 0 2 0 2 0 1 0 2 0 
2 0 1 0 2 0 2 0 2 0 1 0 2 0 2 0 
2 0 1 0 2 0 2 0 2 0 1 0 2 0 2 0 
2 0 1 0 2 0 2 0 2 0 1 0 2 0 2 0 
2 0 1 0 2 0 2 0 2 0 1 0 2 0 2 0 
2 0 1 0 2 0 2 0 2 0 1 0 2 0 2 0 
1 0 2 0 2 0 2 0 1 0 2 0 2 0 2 0 
1 0 2 0 2 0 2 0 1 0 2 0 2 0 2 0 
1 0 2 0 2 0 2 0 1 0 2 0 2 0 2 0 
1 0 2 0 2 0 2 0 1 0 2 0 2 0 2 0 
1 0 2 0 2 0 4873 1094 100 MP stroke
2 0 1 0 2 0 2 0 2 0 1 0 2 0 2 0 
1 0 2 0 2 0 2 0 1 0 2 0 2 0 2 0 
1 0 2 0 2 0 2 0 1 0 2 0 2 0 2 0 
1 0 2 0 2 0 2 0 1 0 2 0 2 0 2 0 
1 0 2 0 2 0 2 0 1 0 2 0 2 0 2 0 
1 0 2 0 2 0 2 0 1 0 2 0 2 0 2 0 
1 0 2 0 2 0 1 0 2 0 2 0 2 0 1 0 
2 0 2 0 2 0 1 0 2 0 2 0 2 0 1 0 
2 0 2 0 2 0 1 0 2 0 2 0 2 0 1 0 
2 0 2 0 2 0 1 0 2 0 2 0 2 0 1 0 
2 0 2 0 2 0 1 0 2 0 2 0 2 0 1 0 
2 0 2 0 2 0 1 0 2 0 2 0 1 0 2 0 
2 0 2 0 1 0 4701 1094 100 MP stroke
2 0 2 0 2 0 1 0 2 0 2 0 2 0 1 0 
2 0 2 0 2 0 1 0 2 0 2 0 2 0 1 0 
2 0 2 0 2 0 1 0 2 0 2 0 2 0 1 0 
2 0 2 0 2 0 1 0 2 0 2 0 2 0 1 0 
2 0 2 0 1 0 2 0 2 0 2 0 1 0 2 0 
2 0 2 0 1 0 2 0 2 0 2 0 1 0 2 0 
2 0 2 0 1 0 2 0 2 0 2 0 1 0 2 0 
2 0 2 0 1 0 2 0 2 0 2 0 1 0 2 0 
2 0 2 0 1 0 2 0 2 0 2 0 1 0 2 0 
2 0 2 0 1 0 2 0 2 0 1 0 2 0 2 0 
2 0 1 0 2 0 2 0 2 0 1 0 2 0 2 0 
2 0 1 0 2 0 2 0 2 0 1 0 2 0 2 0 
2 0 1 0 2 0 4528 1094 100 MP stroke
2 0 2 0 1 0 2 0 2 0 2 0 1 0 2 0 
2 0 2 0 1 0 2 0 2 0 2 0 1 0 2 0 
2 0 2 0 1 0 2 0 2 0 1 0 2 0 2 0 
2 0 1 0 2 0 2 0 2 0 1 0 2 0 2 0 
2 0 1 0 2 0 2 0 2 0 1 0 2 0 2 0 
2 0 1 0 2 0 2 0 2 0 1 0 2 0 2 0 
2 0 1 0 2 0 2 0 2 0 1 0 2 0 2 0 
2 0 1 0 2 0 2 0 2 0 1 0 2 0 2 0 
1 0 2 0 2 0 2 0 1 0 2 0 2 0 2 0 
1 0 2 0 2 0 2 0 1 0 2 0 2 0 2 0 
1 0 2 0 2 0 2 0 1 0 2 0 2 0 2 0 
1 0 2 0 2 0 2 0 1 0 2 0 2 0 2 0 
1 0 2 0 2 0 4355 1094 100 MP stroke
2 0 1 0 2 0 2 0 1 0 2 0 2 0 2 0 
1 0 2 0 2 0 2 0 1 0 2 0 2 0 2 0 
1 0 2 0 2 0 2 0 1 0 2 0 2 0 2 0 
1 0 2 0 2 0 2 0 1 0 2 0 2 0 2 0 
1 0 2 0 2 0 2 0 1 0 2 0 2 0 2 0 
1 0 2 0 2 0 2 0 1 0 2 0 2 0 1 0 
2 0 2 0 2 0 1 0 2 0 2 0 2 0 1 0 
2 0 2 0 2 0 1 0 2 0 2 0 2 0 1 0 
2 0 2 0 2 0 1 0 2 0 2 0 2 0 1 0 
2 0 2 0 2 0 1 0 2 0 2 0 2 0 1 0 
2 0 2 0 2 0 1 0 2 0 2 0 2 0 1 0 
2 0 2 0 1 0 2 0 2 0 2 0 1 0 2 0 
2 0 2 0 1 0 4183 1094 100 MP stroke
2 0 2 0 2 0 1 0 2 0 2 0 2 0 1 0 
2 0 2 0 2 0 1 0 2 0 2 0 2 0 1 0 
2 0 2 0 2 0 1 0 2 0 2 0 2 0 1 0 
2 0 2 0 2 0 1 0 2 0 2 0 2 0 1 0 
2 0 2 0 1 0 2 0 2 0 2 0 1 0 2 0 
2 0 2 0 1 0 2 0 2 0 2 0 1 0 2 0 
2 0 2 0 1 0 2 0 2 0 2 0 1 0 2 0 
2 0 2 0 1 0 2 0 2 0 2 0 1 0 2 0 
2 0 2 0 1 0 2 0 2 0 2 0 1 0 2 0 
2 0 2 0 1 0 2 0 2 0 1 0 2 0 2 0 
2 0 1 0 2 0 2 0 2 0 1 0 2 0 2 0 
2 0 1 0 2 0 2 0 2 0 1 0 2 0 2 0 
2 0 1 0 2 0 4010 1094 100 MP stroke
2 0 2 0 1 0 2 0 2 0 2 0 1 0 2 0 
2 0 2 0 1 0 2 0 2 0 2 0 1 0 2 0 
2 0 1 0 2 0 2 0 2 0 1 0 2 0 2 0 
2 0 1 0 2 0 2 0 2 0 1 0 2 0 2 0 
2 0 1 0 2 0 2 0 2 0 1 0 2 0 2 0 
2 0 1 0 2 0 2 0 2 0 1 0 2 0 2 0 
2 0 1 0 2 0 2 0 2 0 1 0 2 0 2 0 
2 307 1 0 2 0 2 0 1 0 2 0 2 0 2 0 
1 0 2 0 2 0 2 0 1 0 2 0 2 0 2 0 
1 0 2 0 2 0 2 0 1 0 2 0 2 0 2 0 
1 0 2 0 2 0 2 0 1 0 2 0 2 0 2 0 
1 0 2 0 2 0 2 0 1 0 2 0 2 0 2 0 
1 0 2 0 2 0 3837 787 100 MP stroke
2 0 1 0 2 0 2 0 1 0 2 0 2 0 2 0 
1 0 2 0 2 0 2 0 1 0 2 0 2 0 2 0 
1 0 2 0 2 0 2 0 1 0 2 0 2 0 2 0 
1 0 2 0 2 0 2 0 1 0 2 0 2 0 2 0 
1 0 2 0 2 0 2 0 1 0 2 0 2 0 2 0 
1 0 2 0 2 0 2 0 1 0 2 0 2 0 1 0 
2 0 2 0 2 0 1 0 2 0 2 -307 2 0 1 0 
2 0 2 0 2 0 1 0 2 0 2 0 2 0 1 0 
2 0 2 0 2 0 1 0 2 0 2 0 2 0 1 0 
2 0 2 0 2 0 1 0 2 0 2 0 2 0 1 0 
2 0 2 0 2 0 1 0 2 0 2 0 1 0 2 0 
2 0 2 0 1 0 2 0 2 0 2 0 1 0 2 0 
2 0 2 0 1 0 3665 1094 100 MP stroke
2 0 2 0 2 0 1 0 2 0 2 0 2 0 1 0 
2 0 2 0 2 0 1 0 2 0 2 0 2 0 1 0 
2 0 2 0 2 0 1 0 2 0 2 0 2 0 1 0 
2 0 2 0 2 0 1 0 2 0 2 0 1 0 2 0 
2 0 2 0 1 0 2 0 2 0 2 0 1 0 2 0 
2 0 2 0 1 0 2 0 2 0 2 0 1 0 2 0 
2 0 2 0 1 0 2 0 2 0 2 0 1 0 2 0 
2 0 2 0 1 0 2 0 2 0 2 0 1 0 2 0 
2 0 2 0 1 0 2 0 2 0 2 0 1 0 2 0 
2 0 1 0 2 0 2 0 2 0 1 0 2 0 2 0 
2 0 1 0 2 0 2 0 2 0 1 0 2 0 2 0 
2 0 1 0 2 0 2 0 2 0 1 0 2 0 2 0 
2 0 1 0 2 0 3492 1094 100 MP stroke
2 0 2 0 1 0 2 0 2 0 2 0 1 0 2 0 
2 0 2 0 1 0 2 0 2 0 2 0 1 0 2 0 
2 0 1 0 2 0 2 0 2 0 1 0 2 0 2 0 
2 0 1 0 2 0 2 0 2 0 1 0 2 0 2 0 
2 0 1 0 2 0 2 0 2 0 1 0 2 0 2 0 
2 0 1 0 2 0 2 0 2 0 1 0 2 307 2 0 
2 0 1 0 2 0 2 0 2 0 1 0 2 0 2 0 
1 0 2 0 2 0 2 0 1 0 2 0 2 0 2 0 
1 0 2 0 2 0 2 0 1 0 2 0 2 0 2 0 
1 0 2 0 2 0 2 0 1 0 2 0 2 0 2 0 
1 0 2 0 2 0 2 0 1 0 2 0 2 0 2 0 
1 0 2 0 2 0 2 0 1 0 2 0 2 0 2 0 
1 0 2 0 2 0 3319 787 100 MP stroke
1 0 2 0 2 0 2 0 1 0 2 0 2 0 2 0 
1 0 2 0 2 0 2 0 1 0 2 0 2 0 2 0 
1 0 2 0 2 0 2 0 1 0 2 0 2 0 2 0 
1 0 2 0 2 0 2 0 1 0 2 0 2 0 2 0 
1 0 2 0 2 0 2 0 1 0 2 0 2 0 2 0 
1 0 2 0 2 0 1 -307 2 0 2 0 2 0 1 0 
2 0 2 0 2 0 1 0 2 0 2 0 2 0 1 0 
2 0 2 0 2 0 1 0 2 0 2 0 2 0 1 0 
2 0 2 0 2 0 1 0 2 0 2 0 2 0 1 0 
2 0 2 0 2 0 1 0 2 0 2 0 2 0 1 0 
2 0 2 0 2 0 1 0 2 0 2 0 1 0 2 0 
2 0 2 0 1 0 2 0 2 0 2 0 1 0 2 0 
2 0 2 0 1 0 3147 1094 100 MP stroke
2 0 2 0 2 0 1 0 2 0 2 0 2 0 1 0 
2 0 2 0 2 0 1 0 2 0 2 0 2 0 1 0 
2 0 2 0 2 0 1 0 2 0 2 0 2 0 1 0 
2 0 2 0 1 0 2 0 2 0 2 0 1 0 2 0 
2 0 2 0 1 0 2 0 2 0 2 0 1 0 2 0 
2 0 2 0 1 0 2 0 2 0 2 0 1 0 2 0 
2 0 2 0 1 0 2 0 2 0 2 0 1 0 2 0 
2 0 2 0 1 0 2 0 2 0 2 0 1 0 2 0 
2 0 2 0 1 0 2 0 2 0 1 0 2 0 2 0 
2 0 1 0 2 0 2 0 2 0 1 0 2 0 2 0 
2 0 1 0 2 0 2 0 2 0 1 0 2 0 2 0 
2 0 1 0 2 0 2 0 2 0 1 0 2 0 2 0 
2 0 1 0 2 0 2974 1094 100 MP stroke
2 0 2 0 1 0 2 0 2 0 2 0 1 0 2 0 
2 0 2 0 1 0 2 0 2 0 1 0 2 0 2 0 
2 0 1 0 2 0 2 0 2 0 1 0 2 0 2 0 
2 0 1 0 2 0 2 0 2 0 1 0 2 0 2 0 
2 0 1 0 2 0 2 0 2 0 1 0 2 0 2 0 
2 0 1 0 2 0 2 0 2 0 1 0 2 0 2 0 
2 0 1 0 2 0 2 0 2 0 1 0 2 0 2 0 
1 0 2 0 2 0 2 0 1 0 2 0 2 0 2 0 
1 0 2 0 2 0 2 0 1 0 2 0 2 0 2 0 
1 0 2 0 2 0 2 0 1 0 2 0 2 0 2 0 
1 0 2 0 2 0 2 0 1 0 2 0 2 0 2 0 
1 0 2 0 2 0 2 0 1 0 2 0 2 0 2 0 
1 0 2 0 2 0 2801 1094 100 MP stroke
1 0 2 0 2 0 2 0 1 0 2 0 2 0 2 0 
1 0 2 0 2 0 2 0 1 0 2 0 2 0 2 0 
1 0 2 0 2 0 2 0 1 0 2 0 2 0 2 0 
1 0 2 0 2 0 2 0 1 0 2 0 2 0 2 0 
1 0 2 0 2 0 2 0 1 0 2 0 2 0 1 0 
2 0 2 0 2 0 1 0 2 0 2 0 2 0 1 0 
2 0 2 0 2 0 1 0 2 0 2 0 2 0 1 0 
2 0 2 0 2 0 1 0 2 0 2 0 2 0 1 0 
2 0 2 0 2 0 1 0 2 0 2 0 2 0 1 0 
2 0 2 0 2 0 1 0 2 0 2 0 2 0 1 0 
2 0 2 0 1 0 2 0 2 0 2 0 1 0 2 0 
2 0 2 0 1 0 2 0 2 0 2 0 1 0 2 0 
2 0 2 0 1 0 2629 1094 100 MP stroke
2 0 2 0 2 0 1 0 2 0 2 0 2 0 1 0 
2 0 2 0 2 0 1 0 2 0 2 0 2 0 1 0 
2 0 2 0 2 0 1 0 2 0 2 0 2 0 1 0 
2 0 2 0 1 0 2 0 2 0 2 0 1 0 2 0 
2 0 2 0 1 0 2 0 2 0 2 0 1 0 2 0 
2 0 2 0 1 0 2 0 2 0 2 0 1 0 2 0 
2 0 2 0 1 0 2 0 2 0 2 0 1 0 2 0 
2 0 2 0 1 0 2 0 2 0 2 0 1 0 2 0 
2 0 2 0 1 0 2 0 2 0 1 0 2 0 2 0 
2 0 1 0 2 0 2 0 2 0 1 0 2 0 2 0 
2 0 1 0 2 0 2 0 2 0 1 0 2 0 2 0 
2 0 1 0 2 0 2 0 2 0 1 0 2 0 2 0 
2 0 1 0 2 0 2456 1094 100 MP stroke
2 0 2 0 1 0 2 0 2 0 2 0 1 0 2 0 
2 0 1 0 2 0 2 0 2 0 1 0 2 0 2 0 
2 0 1 0 2 0 2 0 2 0 1 0 2 0 2 0 
2 0 1 0 2 0 2 0 2 0 1 0 2 0 2 0 
2 0 1 0 2 0 2 0 2 0 1 0 2 0 2 0 
2 0 1 0 2 0 2 0 2 0 1 0 2 0 2 0 
2 0 1 0 2 0 2 0 1 0 2 0 2 0 2 0 
1 0 2 0 2 0 2 0 1 0 2 0 2 0 2 0 
1 0 2 0 2 0 2 0 1 0 2 0 2 0 2 0 
1 0 2 0 2 0 2 0 1 0 2 0 2 0 2 0 
1 0 2 0 2 0 2 0 1 0 2 0 2 0 2 0 
1 0 2 0 2 0 2 0 1 0 2 0 2 0 1 0 
2 0 2 0 2 0 2283 1094 100 MP stroke
1 0 2 0 2 0 2 0 1 0 2 0 2 0 2 0 
1 0 2 0 2 0 2 0 1 0 2 0 2 0 2 0 
1 0 2 0 2 0 2 0 1 0 2 0 2 0 2 0 
1 0 2 0 2 0 2 0 1 0 2 0 2 0 2 0 
1 0 2 0 2 0 2 0 1 0 2 0 2 0 1 0 
2 0 2 0 2 0 1 0 2 0 2 0 2 0 1 0 
2 0 2 0 2 0 1 0 2 0 2 0 2 0 1 0 
2 0 2 0 2 0 1 0 2 0 2 0 2 0 1 0 
2 0 2 0 2 0 1 0 2 0 2 0 2 0 1 0 
2 0 2 0 2 0 1 0 2 0 2 0 1 0 2 0 
2 0 2 0 1 0 2 0 2 0 2 0 1 0 2 0 
2 0 2 0 1 0 2 0 2 0 2 0 1 0 2 0 
2 0 2 0 1 0 2111 1094 100 MP stroke
2 0 2 0 2 0 1 0 2 0 2 0 2 0 1 0 
2 0 2 0 2 0 1 0 2 0 2 0 2 0 1 0 
2 0 2 0 2 0 1 0 2 0 2 0 1 0 2 0 
2 0 2 0 1 0 2 0 2 0 2 0 1 0 2 0 
2 0 2 0 1 0 2 0 2 0 2 0 1 0 2 0 
2 0 2 0 1 0 2 0 2 0 2 0 1 0 2 0 
2 0 2 0 1 0 2 0 2 0 2 0 1 0 2 0 
2 0 2 0 1 0 2 0 2 0 2 0 1 0 2 0 
2 0 1 0 2 0 2 0 2 0 1 0 2 0 2 0 
2 0 1 0 2 0 2 0 2 0 1 0 2 0 2 0 
2 0 1 0 2 0 2 0 2 0 1 0 2 0 2 0 
2 0 1 0 2 0 2 0 2 0 1 0 2 0 2 0 
2 0 1 0 2 0 1938 1094 100 MP stroke
2 0 2 0 1 0 2 0 2 0 2 0 1 0 2 0 
2 0 1 0 2 0 2 0 2 0 1 0 2 0 2 0 
2 0 1 0 2 0 2 0 2 0 1 0 2 0 2 0 
2 0 1 0 2 0 2 0 2 0 1 0 2 0 2 0 
2 0 1 0 2 0 2 0 2 0 1 0 2 0 2 0 
2 0 1 0 2 0 2 0 2 0 1 0 2 0 2 0 
2 0 1 0 2 0 2 0 1 0 2 0 2 0 2 0 
1 0 2 0 2 0 2 0 1 0 2 0 2 0 2 0 
1 0 2 0 2 0 2 0 1 0 2 0 2 0 2 0 
1 0 2 0 2 0 2 0 1 0 2 0 2 0 2 0 
1 0 2 0 2 0 2 0 1 0 2 0 2 0 2 0 
1 0 2 0 2 0 1 0 2 0 2 0 2 0 1 0 
2 0 2 0 2 0 1765 1094 100 MP stroke
1 0 2 0 2 0 2 0 1 0 2 0 2 0 2 0 
1 0 2 0 2 0 2 0 1 0 2 0 2 0 2 0 
1 0 2 0 2 0 2 0 1 0 2 0 2 0 2 0 
1 0 2 0 2 0 2 0 1 0 2 0 2 0 2 0 
1 0 2 0 2 0 1 0 2 0 2 0 2 0 1 0 
2 0 2 0 2 0 1 0 2 0 2 0 2 0 1 0 
2 0 2 0 2 0 1 0 2 0 2 0 2 0 1 0 
2 0 2 0 2 0 1 0 2 0 2 0 2 0 1 0 
2 0 2 0 2 0 1 0 2 0 2 0 2 0 1 0 
2 0 2 0 2 0 1 0 2 0 2 0 1 0 2 0 
2 0 2 0 1 0 2 0 2 0 2 0 1 0 2 0 
2 0 2 0 1 0 2 0 2 0 2 0 1 0 2 0 
2 0 2 0 1 0 1593 1094 100 MP stroke
2 0 2 0 2 0 1 0 2 0 2 0 2 0 1 0 
2 0 2 0 2 0 1 0 2 0 2 0 2 0 1 0 
2 0 2 0 2 0 1 0 2 0 2 0 1 0 2 0 
2 0 2 0 1 0 2 0 2 0 2 0 1 0 2 0 
2 0 2 0 1 0 2 0 2 0 2 0 1 0 2 0 
2 0 2 0 1 0 2 0 2 0 2 0 1 0 2 0 
2 0 2 0 1 0 2 0 2 0 2 0 1 0 2 0 
2 0 2 0 1 0 2 0 2 0 1 0 2 0 2 0 
2 0 1 0 2 0 2 0 2 0 1 0 2 0 2 0 
2 0 1 0 2 0 2 0 2 0 1 0 2 0 2 0 
2 0 1 0 2 0 2 0 2 0 1 0 2 0 2 0 
2 0 1 0 2 0 2 0 2 0 1 0 2 0 2 0 
2 0 1 0 2 0 1420 1094 100 MP stroke
2 0 2 0 1 0 2 0 2 0 1 0 2 0 2 0 
2 0 1 0 2 0 2 0 2 0 1 0 2 0 2 0 
2 0 1 0 2 0 2 0 2 0 1 0 2 0 2 0 
2 0 1 0 2 0 2 0 2 0 1 0 2 0 2 0 
2 0 1 0 2 0 2 0 2 0 1 0 2 0 2 0 
2 0 1 0 2 0 2 0 2 0 1 0 2 0 2 0 
1 0 2 0 2 0 2 0 1 0 2 0 2 0 2 0 
1 0 2 0 2 0 2 0 1 0 2 0 2 0 2 0 
1 0 2 0 2 0 2 0 1 0 2 0 2 0 2 0 
1 0 2 0 2 0 2 0 1 0 2 0 2 0 2 0 
1 0 2 0 2 0 2 0 1 0 2 0 2 0 2 0 
1 0 2 0 2 0 1 0 2 0 2 0 2 0 1 0 
2 0 2 0 2 0 1247 1094 100 MP stroke
1 0 2 0 2 0 2 0 1 0 2 0 2 0 2 0 
1 0 2 0 2 0 2 0 1 0 2 0 2 0 2 0 
1 0 2 0 2 0 2 0 1 0 2 0 2 0 2 0 
1 0 2 0 2 0 2 0 1 0 2 0 2 0 1 0 
2 0 2 0 2 0 1 0 2 0 2 0 2 0 1 0 
2 0 2 0 2 0 1 0 2 0 2 0 2 0 1 0 
2 0 2 0 2 0 1 0 2 0 2 0 2 0 1 0 
2 0 2 0 2 0 1 0 2 0 2 0 2 0 1 0 
2 0 2 0 2 0 1 0 2 0 2 0 2 0 1 0 
2 0 2 0 1 0 2 0 2 0 2 0 1 0 2 0 
2 0 2 0 1 0 2 0 2 0 2 0 1 0 2 0 
2 0 2 0 1 0 2 0 2 0 2 0 1 0 2 0 
2 0 2 0 1 0 1075 1094 100 MP stroke
2 0 2 0 2 0 1 0 2 0 2 0 2 0 1 0 
2 0 2 0 2 0 1 0 2 0 2 0 2 0 1 0 
2 0 2 0 1 0 2 0 2 0 2 0 1 0 2 0 
2 0 2 0 1 0 2 0 2 0 2 0 1 0 2 0 
2 0 2 0 1 0 2 0 2 0 2 0 1 0 2 0 
2 0 2 0 1 0 2 0 2 0 2 0 1 0 2 0 
2 0 2 0 1 0 2 0 2 0 2 0 1 0 2 0 
2 0 2 0 1 0 2 0 2 0 1 0 2 0 2 0 
2 0 1 0 2 0 2 0 2 0 1 0 2 0 2 0 
2 0 1 0 2 0 2 0 2 0 1 0 2 0 2 0 
2 0 1 0 2 0 2 0 2 0 1 0 2 0 2 0 
2 0 1 0 2 0 2 0 2 0 1 0 2 0 2 0 
2 0 1 0 2 0 902 1094 100 MP stroke
2 0 1 0 899 1094 3 MP stroke
/c9 { 0.000000 0.500000 0.000000 sr} bdef
c9
2 0 2 0 2 0 1 0 2 0 2 0 2 0 1 0 
2 0 2 0 2 0 1 0 2 0 2 0 2 0 1 0 
2 0 2 0 2 0 1 0 2 0 2 0 2 0 1 0 
2 0 2 0 2 0 1 0 2 0 2 0 2 0 1 0 
2 0 2 0 2 0 1 0 2 0 2 0 2 0 1 0 
2 0 2 0 1 0 2 0 2 0 2 0 1 0 2 0 
2 0 2 0 1 0 2 0 2 0 2 0 1 0 2 0 
2 0 2 0 1 0 2 0 2 0 2 0 1 0 2 0 
2 0 2 0 1 0 2 0 2 0 2 0 1 0 2 0 
2 0 2 0 1 0 2 0 2 0 2 0 1 0 2 0 
2 0 2 0 1 0 2 0 2 0 1 0 2 0 2 0 
2 0 1 0 2 0 2 0 2 0 1 0 2 0 2 0 
2 0 1 0 2 0 6082 1094 100 MP stroke
2 0 2 0 1 0 2 0 2 0 2 0 1 0 2 0 
2 0 2 0 1 0 2 0 2 0 2 0 1 0 2 0 
2 0 2 0 1 0 2 0 2 0 2 0 1 0 2 0 
2 0 2 0 1 0 2 0 2 0 1 0 2 0 2 0 
2 0 1 0 2 0 2 0 2 0 1 0 2 0 2 0 
2 0 1 0 2 0 2 0 2 0 1 0 2 0 2 0 
2 0 1 0 2 0 2 0 2 0 1 0 2 0 2 0 
2 0 1 0 2 0 2 0 2 0 1 0 2 0 2 0 
2 0 1 0 2 0 2 0 2 0 1 0 2 0 2 0 
1 0 2 0 2 0 2 0 1 0 2 0 2 0 2 0 
1 0 2 0 2 0 2 0 1 0 2 0 2 0 2 0 
1 0 2 0 2 0 2 0 1 0 2 0 2 0 2 0 
1 0 2 0 2 0 5909 1094 100 MP stroke
2 0 1 0 2 0 2 0 2 0 1 0 2 0 2 0 
2 0 1 0 2 0 2 0 1 0 2 0 2 0 2 0 
1 0 2 0 2 0 2 0 1 0 2 0 2 0 2 0 
1 0 2 0 2 0 2 0 1 0 2 0 2 0 2 0 
1 0 2 0 2 0 2 0 1 0 2 0 2 0 2 0 
1 0 2 0 2 0 2 0 1 0 2 0 2 0 2 0 
1 0 2 0 2 0 2 0 1 0 2 0 2 0 1 0 
2 0 2 0 2 0 1 0 2 0 2 0 2 0 1 0 
2 0 2 0 2 0 1 0 2 0 2 0 2 0 1 0 
2 0 2 0 2 0 1 0 2 0 2 0 2 0 1 0 
2 0 2 0 2 0 1 0 2 0 2 0 2 0 1 0 
2 0 2 0 2 0 1 0 2 0 2 0 2 0 1 0 
2 0 2 0 1 0 5737 1094 100 MP stroke
2 0 2 0 2 0 1 0 2 0 2 0 2 0 1 0 
2 0 2 0 2 0 1 0 2 0 2 0 2 0 1 0 
2 0 2 0 2 0 1 0 2 0 2 0 2 0 1 0 
2 0 2 0 2 0 1 0 2 0 2 0 2 0 1 0 
2 0 2 0 2 0 1 0 2 0 2 0 2 0 1 0 
2 0 2 0 1 0 2 0 2 0 2 0 1 0 2 0 
2 0 2 0 1 0 2 0 2 0 2 0 1 0 2 0 
2 0 2 0 1 0 2 0 2 0 2 0 1 0 2 0 
2 0 2 0 1 0 2 0 2 0 2 0 1 0 2 0 
2 0 2 0 1 0 2 0 2 0 2 0 1 0 2 0 
2 0 1 0 2 0 2 0 2 0 1 0 2 0 2 0 
2 0 1 0 2 0 2 0 2 0 1 0 2 0 2 0 
2 0 1 0 2 0 5564 1094 100 MP stroke
2 0 2 0 1 0 2 0 2 0 2 0 1 0 2 0 
2 0 2 0 1 0 2 0 2 0 2 0 1 0 2 0 
2 0 2 0 1 0 2 0 2 0 2 0 1 0 2 0 
2 0 1 0 2 0 2 0 2 0 1 0 2 0 2 0 
2 0 1 0 2 0 2 0 2 0 1 0 2 0 2 0 
2 0 1 0 2 0 2 0 2 0 1 0 2 0 2 0 
2 0 1 0 2 0 2 0 2 0 1 0 2 0 2 0 
2 0 1 0 2 0 2 0 2 0 1 0 2 0 2 0 
2 0 1 0 2 0 2 0 1 0 2 0 2 0 2 0 
1 0 2 0 2 0 2 0 1 0 2 0 2 0 2 0 
1 0 2 0 2 0 2 0 1 0 2 0 2 0 2 0 
1 0 2 0 2 0 2 0 1 0 2 0 2 0 2 0 
1 0 2 0 2 0 5391 1094 100 MP stroke
2 0 1 0 2 0 2 0 2 0 1 0 2 0 2 0 
2 0 1 0 2 0 2 0 1 0 2 0 2 0 2 0 
1 0 2 0 2 0 2 0 1 0 2 0 2 0 2 0 
1 0 2 0 2 0 2 0 1 0 2 0 2 0 2 0 
1 0 2 0 2 0 2 0 1 0 2 0 2 0 2 0 
1 0 2 0 2 0 2 0 1 0 2 0 2 0 2 0 
1 0 2 0 2 0 1 0 2 0 2 0 2 0 1 0 
2 0 2 0 2 0 1 0 2 0 2 0 2 0 1 0 
2 0 2 0 2 0 1 0 2 0 2 0 2 0 1 0 
2 0 2 0 2 0 1 0 2 0 2 0 2 0 1 0 
2 0 2 0 2 0 1 0 2 0 2 0 2 0 1 0 
2 0 2 0 2 0 1 0 2 0 2 0 1 0 2 0 
2 0 2 0 1 0 5219 1094 100 MP stroke
2 0 2 0 2 0 1 0 2 0 2 0 2 0 1 0 
2 0 2 0 2 0 1 0 2 0 2 0 2 0 1 0 
2 0 2 0 2 0 1 0 2 0 2 0 2 0 1 0 
2 0 2 0 2 0 1 0 2 0 2 0 2 0 1 0 
2 0 2 0 2 0 1 0 2 0 2 0 1 0 2 0 
2 0 2 0 1 0 2 0 2 0 2 0 1 0 2 0 
2 0 2 0 1 0 2 0 2 0 2 0 1 0 2 0 
2 0 2 0 1 0 2 0 2 0 2 0 1 0 2 0 
2 0 2 0 1 0 2 0 2 0 2 0 1 0 2 0 
2 0 2 0 1 0 2 0 2 0 2 0 1 0 2 0 
2 0 1 0 2 0 2 0 2 0 1 0 2 0 2 0 
2 0 1 0 2 0 2 0 2 0 1 0 2 0 2 0 
2 0 1 0 2 0 5046 1094 100 MP stroke
2 0 2 0 1 0 2 0 2 0 2 0 1 0 2 0 
2 0 2 0 1 0 2 0 2 0 2 0 1 0 2 0 
2 0 2 0 1 0 2 0 2 0 2 0 1 0 2 0 
2 0 1 0 2 0 2 0 2 0 1 0 2 0 2 0 
2 0 1 0 2 0 2 0 2 0 1 0 2 0 2 0 
2 0 1 0 2 0 2 0 2 0 1 0 2 0 2 0 
2 0 1 0 2 0 2 0 2 0 1 0 2 0 2 0 
2 0 1 0 2 0 2 0 2 0 1 0 2 0 2 0 
1 0 2 0 2 0 2 0 1 0 2 0 2 0 2 0 
1 0 2 0 2 0 2 0 1 0 2 0 2 0 2 0 
1 0 2 0 2 0 2 0 1 0 2 0 2 0 2 0 
1 0 2 0 2 0 2 0 1 0 2 0 2 0 2 0 
1 0 2 0 2 0 4873 1094 100 MP stroke
2 0 1 0 2 0 2 0 2 0 1 0 2 0 2 0 
1 0 2 0 2 0 2 0 1 0 2 0 2 0 2 0 
1 0 2 0 2 0 2 0 1 0 2 0 2 0 2 0 
1 0 2 0 2 0 2 0 1 0 2 0 2 0 2 0 
1 0 2 0 2 0 2 0 1 0 2 0 2 0 2 0 
1 0 2 0 2 0 2 0 1 0 2 0 2 0 2 0 
1 0 2 0 2 0 1 0 2 0 2 0 2 0 1 0 
2 0 2 0 2 0 1 0 2 0 2 0 2 0 1 0 
2 0 2 0 2 0 1 0 2 0 2 0 2 0 1 0 
2 0 2 0 2 0 1 0 2 0 2 0 2 0 1 0 
2 0 2 0 2 0 1 0 2 0 2 0 2 0 1 0 
2 0 2 0 2 0 1 0 2 0 2 0 1 0 2 0 
2 0 2 0 1 0 4701 1094 100 MP stroke
2 0 2 0 2 0 1 0 2 0 2 0 2 0 1 0 
2 0 2 0 2 0 1 0 2 0 2 0 2 0 1 0 
2 0 2 0 2 0 1 0 2 0 2 0 2 0 1 0 
2 0 2 0 2 0 1 0 2 0 2 0 2 0 1 0 
2 0 2 0 1 0 2 0 2 0 2 0 1 0 2 0 
2 0 2 0 1 0 2 0 2 0 2 0 1 0 2 0 
2 0 2 0 1 0 2 0 2 0 2 0 1 0 2 0 
2 0 2 0 1 0 2 0 2 0 2 0 1 0 2 0 
2 0 2 0 1 0 2 0 2 0 2 0 1 0 2 0 
2 0 2 0 1 0 2 0 2 0 1 0 2 0 2 0 
2 0 1 0 2 0 2 0 2 0 1 0 2 0 2 0 
2 0 1 0 2 0 2 0 2 0 1 0 2 0 2 0 
2 0 1 0 2 0 4528 1094 100 MP stroke
2 0 2 0 1 0 2 0 2 0 2 0 1 0 2 0 
2 0 2 0 1 0 2 0 2 0 2 0 1 0 2 0 
2 0 2 0 1 0 2 0 2 0 1 0 2 0 2 0 
2 0 1 0 2 0 2 0 2 0 1 0 2 0 2 0 
2 0 1 0 2 0 2 0 2 0 1 0 2 0 2 0 
2 0 1 0 2 0 2 0 2 0 1 0 2 0 2 0 
2 0 1 0 2 0 2 0 2 0 1 0 2 0 2 0 
2 0 1 0 2 0 2 0 2 0 1 0 2 0 2 0 
1 0 2 0 2 0 2 0 1 0 2 0 2 0 2 0 
1 0 2 0 2 0 2 0 1 0 2 0 2 0 2 0 
1 0 2 0 2 0 2 0 1 0 2 0 2 0 2 0 
1 0 2 0 2 0 2 0 1 0 2 0 2 0 2 0 
1 0 2 0 2 0 4355 1094 100 MP stroke
2 0 1 0 2 0 2 0 1 0 2 0 2 0 2 0 
1 0 2 0 2 0 2 0 1 0 2 0 2 0 2 0 
1 0 2 0 2 0 2 0 1 0 2 0 2 0 2 0 
1 0 2 0 2 0 2 0 1 0 2 0 2 0 2 0 
1 0 2 0 2 0 2 0 1 0 2 0 2 0 2 0 
1 0 2 0 2 0 2 0 1 0 2 0 2 0 1 0 
2 0 2 0 2 0 1 0 2 0 2 0 2 0 1 0 
2 0 2 0 2 0 1 0 2 0 2 0 2 217 1 0 
2 0 2 0 2 0 1 0 2 0 2 0 2 0 1 0 
2 0 2 0 2 0 1 0 2 0 2 0 2 0 1 0 
2 0 2 0 2 0 1 0 2 0 2 0 2 0 1 0 
2 0 2 0 1 0 2 0 2 0 2 0 1 0 2 0 
2 0 2 0 1 0 4183 877 100 MP stroke
2 0 2 0 2 0 1 0 2 0 2 0 2 0 1 0 
2 0 2 0 2 0 1 0 2 0 2 0 2 0 1 0 
2 0 2 0 2 0 1 0 2 0 2 0 2 0 1 0 
2 0 2 0 2 0 1 0 2 0 2 0 2 0 1 0 
2 0 2 0 1 0 2 0 2 0 2 0 1 0 2 0 
2 0 2 0 1 0 2 0 2 0 2 0 1 0 2 0 
2 0 2 0 1 0 2 0 2 0 2 0 1 0 2 0 
2 0 2 0 1 0 2 0 2 0 2 0 1 0 2 0 
2 0 2 0 1 0 2 0 2 0 2 0 1 0 2 0 
2 0 2 0 1 0 2 0 2 0 1 0 2 0 2 0 
2 0 1 0 2 0 2 0 2 0 1 0 2 0 2 0 
2 0 1 0 2 0 2 0 2 0 1 0 2 0 2 0 
2 0 1 0 2 0 4010 877 100 MP stroke
2 0 2 0 1 0 2 0 2 0 2 0 1 0 2 0 
2 0 2 0 1 0 2 0 2 0 2 0 1 0 2 0 
2 0 1 0 2 0 2 0 2 0 1 0 2 0 2 0 
2 0 1 0 2 0 2 0 2 0 1 0 2 0 2 0 
2 0 1 0 2 0 2 0 2 0 1 0 2 0 2 0 
2 0 1 0 2 0 2 0 2 0 1 0 2 0 2 0 
2 0 1 0 2 0 2 0 2 0 1 0 2 0 2 0 
2 -217 1 0 2 0 2 0 1 0 2 0 2 0 2 0 
1 0 2 0 2 0 2 0 1 0 2 0 2 0 2 0 
1 0 2 0 2 0 2 0 1 0 2 0 2 0 2 0 
1 0 2 0 2 0 2 0 1 0 2 0 2 0 2 0 
1 0 2 0 2 0 2 0 1 0 2 0 2 0 2 0 
1 0 2 0 2 0 3837 1094 100 MP stroke
2 0 1 0 2 0 2 0 1 0 2 0 2 0 2 0 
1 0 2 0 2 0 2 0 1 0 2 0 2 0 2 0 
1 0 2 0 2 0 2 0 1 0 2 0 2 0 2 0 
1 0 2 0 2 0 2 0 1 0 2 0 2 0 2 0 
1 0 2 0 2 0 2 0 1 0 2 0 2 0 2 0 
1 0 2 0 2 0 2 0 1 0 2 0 2 0 1 0 
2 0 2 0 2 0 1 0 2 0 2 0 2 0 1 0 
2 0 2 0 2 0 1 0 2 0 2 0 2 0 1 0 
2 0 2 0 2 0 1 0 2 0 2 0 2 0 1 0 
2 0 2 0 2 0 1 0 2 0 2 0 2 0 1 0 
2 0 2 0 2 0 1 0 2 0 2 0 1 0 2 0 
2 0 2 0 1 0 2 0 2 0 2 0 1 0 2 0 
2 0 2 0 1 0 3665 1094 100 MP stroke
2 0 2 0 2 0 1 0 2 0 2 0 2 0 1 0 
2 0 2 0 2 0 1 0 2 0 2 0 2 0 1 0 
2 0 2 0 2 0 1 0 2 0 2 0 2 0 1 0 
2 0 2 0 2 0 1 0 2 0 2 0 1 0 2 0 
2 0 2 0 1 0 2 0 2 0 2 0 1 0 2 0 
2 0 2 0 1 0 2 0 2 0 2 0 1 0 2 0 
2 0 2 0 1 0 2 0 2 0 2 0 1 0 2 0 
2 0 2 0 1 0 2 0 2 0 2 0 1 0 2 0 
2 0 2 0 1 0 2 0 2 0 2 0 1 0 2 0 
2 0 1 0 2 0 2 0 2 0 1 0 2 0 2 0 
2 0 1 0 2 0 2 0 2 0 1 0 2 0 2 0 
2 0 1 0 2 0 2 0 2 0 1 0 2 0 2 0 
2 0 1 0 2 0 3492 1094 100 MP stroke
2 0 2 0 1 0 2 0 2 0 2 0 1 0 2 0 
2 0 2 0 1 0 2 0 2 0 2 0 1 0 2 0 
2 0 1 0 2 0 2 0 2 0 1 0 2 0 2 0 
2 0 1 0 2 0 2 0 2 0 1 0 2 0 2 0 
2 0 1 0 2 0 2 0 2 0 1 0 2 0 2 0 
2 0 1 0 2 0 2 0 2 0 1 0 2 0 2 0 
2 0 1 0 2 0 2 0 2 0 1 0 2 0 2 0 
1 0 2 0 2 0 2 0 1 0 2 0 2 0 2 0 
1 0 2 0 2 0 2 0 1 0 2 0 2 0 2 0 
1 0 2 0 2 0 2 0 1 0 2 0 2 0 2 0 
1 0 2 0 2 0 2 0 1 0 2 0 2 0 2 0 
1 0 2 0 2 0 2 0 1 0 2 0 2 0 2 0 
1 0 2 0 2 0 3319 1094 100 MP stroke
1 0 2 0 2 0 2 0 1 0 2 0 2 0 2 0 
1 0 2 0 2 0 2 0 1 0 2 0 2 0 2 0 
1 0 2 0 2 0 2 0 1 0 2 0 2 0 2 0 
1 0 2 0 2 0 2 0 1 0 2 0 2 0 2 0 
1 0 2 0 2 0 2 0 1 0 2 0 2 0 2 0 
1 0 2 0 2 0 1 217 2 0 2 0 2 0 1 0 
2 0 2 0 2 0 1 0 2 0 2 0 2 0 1 0 
2 0 2 0 2 0 1 0 2 0 2 0 2 0 1 0 
2 0 2 0 2 0 1 0 2 0 2 0 2 0 1 0 
2 0 2 0 2 0 1 0 2 0 2 0 2 0 1 0 
2 0 2 0 2 0 1 0 2 0 2 0 1 0 2 0 
2 0 2 0 1 0 2 0 2 0 2 0 1 0 2 0 
2 0 2 0 1 0 3147 877 100 MP stroke
2 0 2 0 2 0 1 0 2 0 2 0 2 0 1 0 
2 0 2 0 2 0 1 0 2 0 2 0 2 0 1 0 
2 0 2 0 2 0 1 0 2 0 2 0 2 0 1 0 
2 0 2 0 1 0 2 0 2 0 2 0 1 0 2 0 
2 0 2 0 1 0 2 0 2 0 2 0 1 0 2 0 
2 0 2 0 1 0 2 0 2 0 2 0 1 0 2 0 
2 0 2 0 1 0 2 0 2 0 2 0 1 0 2 0 
2 0 2 0 1 0 2 0 2 0 2 0 1 0 2 0 
2 0 2 0 1 0 2 0 2 0 1 0 2 0 2 0 
2 0 1 0 2 0 2 0 2 0 1 0 2 0 2 0 
2 0 1 0 2 0 2 0 2 0 1 0 2 0 2 0 
2 0 1 0 2 0 2 0 2 0 1 0 2 0 2 0 
2 0 1 0 2 0 2974 877 100 MP stroke
2 0 2 0 1 0 2 0 2 0 2 0 1 0 2 0 
2 0 2 0 1 0 2 0 2 0 1 0 2 0 2 0 
2 0 1 0 2 0 2 0 2 0 1 0 2 0 2 0 
2 0 1 0 2 0 2 0 2 0 1 0 2 0 2 0 
2 0 1 0 2 0 2 0 2 0 1 -217 2 0 2 0 
2 0 1 0 2 0 2 0 2 0 1 0 2 0 2 0 
2 0 1 0 2 0 2 0 2 0 1 0 2 0 2 0 
1 0 2 0 2 0 2 0 1 0 2 0 2 0 2 0 
1 0 2 0 2 0 2 0 1 0 2 0 2 0 2 0 
1 0 2 0 2 0 2 0 1 0 2 0 2 0 2 0 
1 0 2 0 2 0 2 0 1 0 2 0 2 0 2 0 
1 0 2 0 2 0 2 0 1 0 2 0 2 0 2 0 
1 0 2 0 2 0 2801 1094 100 MP stroke
1 0 2 0 2 0 2 0 1 0 2 0 2 0 2 0 
1 0 2 0 2 0 2 0 1 0 2 0 2 0 2 0 
1 0 2 0 2 0 2 0 1 0 2 0 2 0 2 0 
1 0 2 0 2 0 2 0 1 0 2 0 2 0 2 0 
1 0 2 0 2 0 2 0 1 0 2 0 2 0 1 0 
2 0 2 0 2 0 1 0 2 0 2 0 2 0 1 0 
2 0 2 0 2 0 1 0 2 0 2 0 2 0 1 0 
2 0 2 0 2 0 1 0 2 0 2 0 2 0 1 0 
2 0 2 0 2 0 1 0 2 0 2 0 2 0 1 0 
2 0 2 0 2 0 1 0 2 0 2 0 2 0 1 0 
2 0 2 0 1 0 2 0 2 0 2 0 1 0 2 0 
2 0 2 0 1 0 2 0 2 0 2 0 1 0 2 0 
2 0 2 0 1 0 2629 1094 100 MP stroke
2 0 2 0 2 0 1 0 2 0 2 0 2 0 1 0 
2 0 2 0 2 0 1 0 2 0 2 0 2 0 1 0 
2 0 2 0 2 0 1 0 2 0 2 0 2 0 1 0 
2 0 2 0 1 0 2 0 2 0 2 0 1 0 2 0 
2 0 2 0 1 0 2 0 2 0 2 0 1 0 2 0 
2 0 2 0 1 0 2 0 2 0 2 0 1 0 2 0 
2 0 2 0 1 0 2 0 2 0 2 0 1 0 2 0 
2 0 2 0 1 0 2 0 2 0 2 0 1 0 2 0 
2 0 2 0 1 0 2 0 2 0 1 0 2 0 2 0 
2 0 1 0 2 0 2 0 2 0 1 0 2 0 2 0 
2 0 1 0 2 0 2 0 2 0 1 0 2 0 2 0 
2 0 1 0 2 0 2 0 2 0 1 0 2 0 2 0 
2 0 1 0 2 0 2456 1094 100 MP stroke
2 0 2 0 1 0 2 0 2 0 2 0 1 0 2 0 
2 0 1 0 2 0 2 0 2 0 1 0 2 0 2 0 
2 0 1 0 2 0 2 0 2 0 1 0 2 0 2 0 
2 0 1 0 2 0 2 0 2 0 1 0 2 0 2 0 
2 0 1 0 2 0 2 0 2 0 1 0 2 0 2 0 
2 0 1 0 2 0 2 0 2 0 1 0 2 0 2 0 
2 0 1 0 2 0 2 0 1 0 2 0 2 0 2 0 
1 0 2 0 2 0 2 0 1 0 2 0 2 0 2 0 
1 0 2 0 2 0 2 0 1 0 2 0 2 0 2 0 
1 0 2 0 2 0 2 0 1 0 2 0 2 0 2 0 
1 0 2 0 2 0 2 0 1 0 2 0 2 0 2 0 
1 0 2 0 2 0 2 0 1 0 2 0 2 0 1 0 
2 0 2 0 2 0 2283 1094 100 MP stroke
1 0 2 0 2 0 2 0 1 0 2 0 2 0 2 0 
1 0 2 0 2 0 2 0 1 0 2 0 2 0 2 0 
1 0 2 0 2 0 2 0 1 0 2 0 2 0 2 0 
1 0 2 0 2 0 2 0 1 0 2 0 2 0 2 0 
1 0 2 0 2 0 2 0 1 0 2 0 2 0 1 0 
2 0 2 0 2 0 1 0 2 0 2 0 2 0 1 0 
2 0 2 0 2 0 1 0 2 0 2 0 2 0 1 0 
2 0 2 0 2 0 1 0 2 0 2 0 2 0 1 0 
2 0 2 0 2 0 1 0 2 0 2 0 2 0 1 0 
2 0 2 0 2 0 1 0 2 0 2 0 1 0 2 0 
2 0 2 0 1 0 2 0 2 0 2 0 1 0 2 0 
2 0 2 0 1 0 2 0 2 0 2 0 1 0 2 0 
2 0 2 0 1 0 2111 1094 100 MP stroke
2 0 2 0 2 0 1 0 2 0 2 0 2 0 1 0 
2 0 2 0 2 0 1 0 2 0 2 0 2 0 1 0 
2 0 2 0 2 0 1 0 2 0 2 0 1 0 2 0 
2 0 2 0 1 0 2 0 2 0 2 0 1 0 2 0 
2 0 2 0 1 0 2 0 2 0 2 0 1 0 2 0 
2 0 2 0 1 0 2 0 2 0 2 0 1 0 2 0 
2 0 2 0 1 0 2 0 2 0 2 0 1 0 2 0 
2 0 2 0 1 0 2 0 2 0 2 0 1 0 2 0 
2 0 1 0 2 0 2 0 2 0 1 0 2 0 2 0 
2 0 1 0 2 0 2 0 2 0 1 0 2 0 2 0 
2 0 1 0 2 0 2 0 2 0 1 0 2 0 2 0 
2 0 1 0 2 0 2 0 2 0 1 0 2 0 2 0 
2 0 1 0 2 0 1938 1094 100 MP stroke
2 0 2 0 1 0 2 0 2 0 2 0 1 0 2 0 
2 0 1 0 2 0 2 0 2 0 1 0 2 0 2 0 
2 0 1 0 2 0 2 0 2 0 1 0 2 0 2 0 
2 0 1 0 2 0 2 0 2 0 1 0 2 0 2 0 
2 0 1 0 2 0 2 0 2 0 1 0 2 0 2 0 
2 0 1 0 2 0 2 0 2 0 1 0 2 0 2 0 
2 0 1 0 2 0 2 0 1 0 2 0 2 0 2 0 
1 0 2 0 2 0 2 0 1 0 2 0 2 0 2 0 
1 0 2 0 2 0 2 0 1 0 2 0 2 0 2 0 
1 0 2 0 2 0 2 0 1 0 2 0 2 0 2 0 
1 0 2 0 2 0 2 0 1 0 2 0 2 0 2 0 
1 0 2 0 2 0 1 0 2 0 2 0 2 0 1 0 
2 0 2 0 2 0 1765 1094 100 MP stroke
1 0 2 0 2 0 2 0 1 0 2 0 2 0 2 0 
1 0 2 0 2 0 2 0 1 0 2 0 2 0 2 0 
1 0 2 0 2 0 2 0 1 0 2 0 2 0 2 0 
1 0 2 0 2 0 2 0 1 0 2 0 2 0 2 0 
1 0 2 0 2 0 1 0 2 0 2 0 2 0 1 0 
2 0 2 0 2 0 1 0 2 0 2 0 2 0 1 0 
2 0 2 0 2 0 1 0 2 0 2 0 2 0 1 0 
2 0 2 0 2 0 1 0 2 0 2 0 2 0 1 0 
2 0 2 0 2 0 1 0 2 0 2 0 2 0 1 0 
2 0 2 0 2 0 1 0 2 0 2 0 1 0 2 0 
2 0 2 0 1 0 2 0 2 0 2 0 1 0 2 0 
2 0 2 0 1 0 2 0 2 0 2 0 1 0 2 0 
2 0 2 0 1 0 1593 1094 100 MP stroke
2 0 2 0 2 0 1 0 2 0 2 0 2 0 1 0 
2 0 2 0 2 0 1 0 2 0 2 0 2 0 1 0 
2 0 2 0 2 0 1 0 2 0 2 0 1 0 2 0 
2 0 2 0 1 0 2 0 2 0 2 0 1 0 2 0 
2 0 2 0 1 0 2 0 2 0 2 0 1 0 2 0 
2 0 2 0 1 0 2 0 2 0 2 0 1 0 2 0 
2 0 2 0 1 0 2 0 2 0 2 0 1 0 2 0 
2 0 2 0 1 0 2 0 2 0 1 0 2 0 2 0 
2 0 1 0 2 0 2 0 2 0 1 0 2 0 2 0 
2 0 1 0 2 0 2 0 2 0 1 0 2 0 2 0 
2 0 1 0 2 0 2 0 2 0 1 0 2 0 2 0 
2 0 1 0 2 0 2 0 2 0 1 0 2 0 2 0 
2 0 1 0 2 0 1420 1094 100 MP stroke
2 0 2 0 1 0 2 0 2 0 1 0 2 0 2 0 
2 0 1 0 2 0 2 0 2 0 1 0 2 0 2 0 
2 0 1 0 2 0 2 0 2 0 1 0 2 0 2 0 
2 0 1 0 2 0 2 0 2 0 1 0 2 0 2 0 
2 0 1 0 2 0 2 0 2 0 1 0 2 0 2 0 
2 0 1 0 2 0 2 0 2 0 1 0 2 0 2 0 
1 0 2 0 2 0 2 0 1 0 2 0 2 0 2 0 
1 0 2 0 2 0 2 0 1 0 2 0 2 0 2 0 
1 0 2 0 2 0 2 0 1 0 2 0 2 0 2 0 
1 0 2 0 2 0 2 0 1 0 2 0 2 0 2 0 
1 0 2 0 2 0 2 0 1 0 2 0 2 0 2 0 
1 0 2 0 2 0 1 0 2 0 2 0 2 0 1 0 
2 0 2 0 2 0 1247 1094 100 MP stroke
1 0 2 0 2 0 2 0 1 0 2 0 2 0 2 0 
1 0 2 0 2 0 2 0 1 0 2 0 2 0 2 0 
1 0 2 0 2 0 2 0 1 0 2 0 2 0 2 0 
1 0 2 0 2 0 2 0 1 0 2 0 2 0 1 0 
2 0 2 0 2 0 1 0 2 0 2 0 2 0 1 0 
2 0 2 0 2 0 1 0 2 0 2 0 2 0 1 0 
2 0 2 0 2 0 1 0 2 0 2 0 2 0 1 0 
2 0 2 0 2 0 1 0 2 0 2 0 2 0 1 0 
2 0 2 0 2 0 1 0 2 0 2 0 2 0 1 0 
2 0 2 0 1 0 2 0 2 0 2 0 1 0 2 0 
2 0 2 0 1 0 2 0 2 0 2 0 1 0 2 0 
2 0 2 0 1 0 2 0 2 0 2 0 1 0 2 0 
2 0 2 0 1 0 1075 1094 100 MP stroke
2 0 2 0 2 0 1 0 2 0 2 0 2 0 1 0 
2 0 2 0 2 0 1 0 2 0 2 0 2 0 1 0 
2 0 2 0 1 0 2 0 2 0 2 0 1 0 2 0 
2 0 2 0 1 0 2 0 2 0 2 0 1 0 2 0 
2 0 2 0 1 0 2 0 2 0 2 0 1 0 2 0 
2 0 2 0 1 0 2 0 2 0 2 0 1 0 2 0 
2 0 2 0 1 0 2 0 2 0 2 0 1 0 2 0 
2 0 2 0 1 0 2 0 2 0 1 0 2 0 2 0 
2 0 1 0 2 0 2 0 2 0 1 0 2 0 2 0 
2 0 1 0 2 0 2 0 2 0 1 0 2 0 2 0 
2 0 1 0 2 0 2 0 2 0 1 0 2 0 2 0 
2 0 1 0 2 0 2 0 2 0 1 0 2 0 2 0 
2 0 1 0 2 0 902 1094 100 MP stroke
2 0 1 0 899 1094 3 MP stroke
/c10 { 1.000000 0.000000 0.000000 sr} bdef
c10
2 0 2 0 2 0 1 0 2 0 2 0 2 0 1 0 
2 0 2 0 2 0 1 0 2 0 2 0 2 0 1 0 
2 0 2 0 2 0 1 0 2 0 2 0 2 0 1 0 
2 0 2 0 2 0 1 0 2 0 2 0 2 0 1 0 
2 0 2 0 2 0 1 0 2 0 2 0 2 0 1 0 
2 0 2 0 1 0 2 0 2 0 2 0 1 0 2 0 
2 0 2 0 1 0 2 0 2 0 2 0 1 0 2 0 
2 0 2 0 1 0 2 0 2 0 2 0 1 0 2 0 
2 0 2 0 1 0 2 0 2 0 2 0 1 0 2 0 
2 0 2 0 1 0 2 0 2 0 2 0 1 0 2 0 
2 0 2 0 1 0 2 0 2 0 1 0 2 0 2 0 
2 0 1 0 2 0 2 0 2 0 1 0 2 0 2 0 
2 0 1 0 2 0 6082 1094 100 MP stroke
2 0 2 0 1 0 2 0 2 0 2 0 1 0 2 0 
2 0 2 0 1 0 2 0 2 0 2 0 1 0 2 0 
2 0 2 0 1 0 2 0 2 0 2 0 1 0 2 0 
2 0 2 0 1 0 2 0 2 0 1 0 2 0 2 0 
2 0 1 0 2 0 2 0 2 0 1 0 2 0 2 0 
2 0 1 0 2 0 2 0 2 0 1 0 2 0 2 0 
2 0 1 0 2 0 2 0 2 0 1 0 2 0 2 0 
2 0 1 0 2 0 2 0 2 0 1 0 2 0 2 0 
2 0 1 0 2 0 2 0 2 0 1 0 2 0 2 0 
1 0 2 0 2 0 2 0 1 0 2 0 2 0 2 0 
1 0 2 0 2 0 2 0 1 0 2 0 2 0 2 0 
1 0 2 0 2 0 2 0 1 0 2 0 2 0 2 0 
1 0 2 0 2 0 5909 1094 100 MP stroke
2 0 1 0 2 0 2 0 2 0 1 0 2 0 2 0 
2 0 1 0 2 0 2 0 1 0 2 0 2 0 2 0 
1 0 2 0 2 0 2 0 1 0 2 0 2 0 2 0 
1 0 2 0 2 0 2 0 1 0 2 0 2 0 2 0 
1 0 2 0 2 0 2 0 1 0 2 0 2 0 2 0 
1 0 2 0 2 0 2 0 1 0 2 0 2 0 2 0 
1 0 2 0 2 0 2 0 1 0 2 0 2 0 1 0 
2 0 2 0 2 0 1 0 2 0 2 0 2 0 1 0 
2 0 2 0 2 0 1 0 2 0 2 0 2 0 1 0 
2 0 2 0 2 0 1 0 2 0 2 0 2 0 1 0 
2 0 2 0 2 0 1 0 2 0 2 0 2 0 1 0 
2 0 2 0 2 0 1 0 2 0 2 0 2 0 1 0 
2 0 2 0 1 0 5737 1094 100 MP stroke
2 0 2 0 2 0 1 0 2 0 2 0 2 0 1 0 
2 0 2 0 2 0 1 0 2 0 2 0 2 0 1 0 
2 0 2 0 2 0 1 0 2 0 2 0 2 0 1 0 
2 0 2 0 2 0 1 0 2 0 2 0 2 0 1 0 
2 0 2 0 2 0 1 0 2 0 2 0 2 0 1 0 
2 0 2 0 1 0 2 0 2 0 2 0 1 0 2 0 
2 0 2 0 1 0 2 0 2 0 2 0 1 0 2 0 
2 0 2 0 1 0 2 0 2 0 2 0 1 0 2 0 
2 0 2 0 1 0 2 0 2 0 2 0 1 0 2 0 
2 0 2 0 1 0 2 0 2 0 2 0 1 0 2 0 
2 0 1 0 2 0 2 0 2 0 1 0 2 0 2 0 
2 0 1 0 2 0 2 0 2 0 1 0 2 0 2 0 
2 0 1 0 2 0 5564 1094 100 MP stroke
2 0 2 0 1 0 2 0 2 0 2 0 1 0 2 0 
2 0 2 0 1 0 2 0 2 0 2 0 1 0 2 0 
2 0 2 0 1 0 2 0 2 0 2 0 1 0 2 0 
2 0 1 0 2 0 2 0 2 0 1 0 2 0 2 0 
2 0 1 0 2 0 2 0 2 0 1 0 2 0 2 0 
2 0 1 0 2 0 2 0 2 0 1 0 2 0 2 0 
2 0 1 0 2 0 2 0 2 0 1 0 2 0 2 0 
2 0 1 0 2 0 2 0 2 0 1 0 2 0 2 0 
2 0 1 0 2 0 2 0 1 0 2 0 2 0 2 0 
1 0 2 0 2 0 2 0 1 0 2 0 2 0 2 0 
1 0 2 0 2 0 2 0 1 0 2 0 2 0 2 0 
1 0 2 0 2 0 2 0 1 0 2 0 2 0 2 0 
1 0 2 0 2 0 5391 1094 100 MP stroke
2 0 1 0 2 0 2 0 2 0 1 0 2 0 2 0 
2 0 1 0 2 0 2 0 1 0 2 0 2 0 2 0 
1 0 2 0 2 0 2 0 1 0 2 0 2 0 2 0 
1 0 2 0 2 0 2 0 1 0 2 0 2 0 2 0 
1 0 2 0 2 0 2 0 1 0 2 0 2 0 2 0 
1 0 2 0 2 0 2 0 1 0 2 0 2 0 2 0 
1 0 2 0 2 0 1 0 2 0 2 0 2 0 1 0 
2 0 2 0 2 0 1 0 2 0 2 0 2 0 1 0 
2 0 2 0 2 0 1 0 2 0 2 0 2 0 1 0 
2 0 2 0 2 0 1 0 2 0 2 0 2 0 1 0 
2 0 2 0 2 0 1 0 2 0 2 0 2 0 1 0 
2 0 2 0 2 0 1 0 2 0 2 0 1 0 2 0 
2 0 2 0 1 0 5219 1094 100 MP stroke
2 0 2 0 2 0 1 0 2 0 2 0 2 0 1 0 
2 0 2 0 2 0 1 0 2 0 2 0 2 0 1 0 
2 0 2 0 2 0 1 0 2 0 2 0 2 0 1 0 
2 0 2 0 2 0 1 0 2 0 2 0 2 0 1 0 
2 0 2 0 2 0 1 0 2 0 2 0 1 0 2 0 
2 0 2 0 1 0 2 0 2 0 2 0 1 0 2 0 
2 0 2 0 1 0 2 0 2 0 2 0 1 0 2 0 
2 0 2 0 1 0 2 0 2 0 2 0 1 0 2 0 
2 0 2 0 1 0 2 0 2 0 2 0 1 0 2 0 
2 0 2 0 1 0 2 0 2 0 2 0 1 0 2 0 
2 0 1 0 2 0 2 0 2 0 1 0 2 0 2 0 
2 0 1 0 2 0 2 0 2 0 1 0 2 0 2 0 
2 0 1 0 2 0 5046 1094 100 MP stroke
2 0 2 0 1 0 2 0 2 0 2 0 1 0 2 0 
2 0 2 0 1 0 2 0 2 0 2 0 1 0 2 0 
2 0 2 0 1 0 2 0 2 0 2 0 1 0 2 0 
2 0 1 0 2 0 2 0 2 0 1 0 2 0 2 0 
2 0 1 0 2 0 2 0 2 0 1 0 2 0 2 0 
2 0 1 0 2 0 2 0 2 0 1 0 2 0 2 0 
2 0 1 0 2 0 2 0 2 0 1 0 2 0 2 0 
2 0 1 0 2 0 2 0 2 0 1 0 2 0 2 0 
1 0 2 0 2 0 2 0 1 0 2 0 2 0 2 0 
1 0 2 0 2 154 2 0 1 0 2 0 2 0 2 0 
1 0 2 0 2 0 2 0 1 0 2 0 2 0 2 0 
1 0 2 0 2 0 2 0 1 0 2 0 2 0 2 0 
1 0 2 0 2 0 4873 940 100 MP stroke
2 0 1 0 2 0 2 0 2 0 1 0 2 0 2 0 
1 0 2 0 2 0 2 0 1 0 2 0 2 0 2 0 
1 0 2 0 2 0 2 0 1 0 2 0 2 0 2 0 
1 0 2 0 2 0 2 0 1 0 2 0 2 0 2 0 
1 0 2 0 2 0 2 0 1 0 2 0 2 0 2 0 
1 0 2 0 2 0 2 0 1 0 2 0 2 0 2 0 
1 0 2 0 2 0 1 0 2 0 2 0 2 0 1 0 
2 0 2 0 2 0 1 0 2 0 2 0 2 0 1 0 
2 0 2 0 2 0 1 0 2 0 2 0 2 0 1 0 
2 0 2 0 2 0 1 0 2 0 2 0 2 0 1 0 
2 0 2 0 2 0 1 0 2 0 2 0 2 0 1 0 
2 0 2 0 2 0 1 0 2 0 2 0 1 0 2 0 
2 0 2 0 1 0 4701 940 100 MP stroke
2 0 2 0 2 0 1 0 2 0 2 0 2 0 1 0 
2 0 2 0 2 0 1 0 2 0 2 0 2 0 1 0 
2 0 2 0 2 0 1 0 2 0 2 0 2 0 1 0 
2 0 2 0 2 0 1 0 2 0 2 0 2 0 1 0 
2 0 2 0 1 0 2 0 2 0 2 0 1 0 2 0 
2 0 2 0 1 0 2 0 2 0 2 0 1 0 2 0 
2 0 2 0 1 0 2 0 2 0 2 0 1 0 2 0 
2 0 2 0 1 0 2 0 2 0 2 0 1 0 2 0 
2 0 2 0 1 0 2 0 2 0 2 0 1 0 2 0 
2 0 2 0 1 0 2 0 2 0 1 0 2 0 2 0 
2 0 1 0 2 0 2 0 2 0 1 0 2 0 2 0 
2 0 1 0 2 0 2 0 2 0 1 0 2 0 2 0 
2 0 1 0 2 0 4528 940 100 MP stroke
2 0 2 0 1 0 2 0 2 0 2 0 1 0 2 0 
2 0 2 0 1 0 2 0 2 0 2 0 1 0 2 0 
2 0 2 0 1 0 2 0 2 0 1 0 2 0 2 0 
2 0 1 0 2 0 2 0 2 0 1 0 2 0 2 0 
2 0 1 0 2 0 2 0 2 0 1 0 2 0 2 0 
2 0 1 0 2 0 2 0 2 0 1 0 2 0 2 0 
2 0 1 0 2 0 2 0 2 0 1 0 2 0 2 0 
2 0 1 0 2 0 2 0 2 0 1 0 2 0 2 0 
1 0 2 0 2 0 2 0 1 0 2 0 2 0 2 0 
1 0 2 0 2 0 2 0 1 0 2 0 2 0 2 0 
1 0 2 0 2 0 2 0 1 0 2 0 2 0 2 0 
1 0 2 0 2 0 2 0 1 0 2 0 2 0 2 0 
1 0 2 0 2 0 4355 940 100 MP stroke
2 0 1 0 2 0 2 0 1 0 2 0 2 0 2 0 
1 0 2 0 2 0 2 0 1 0 2 0 2 0 2 0 
1 0 2 0 2 0 2 0 1 0 2 0 2 0 2 0 
1 0 2 0 2 0 2 0 1 0 2 0 2 0 2 0 
1 0 2 0 2 0 2 0 1 0 2 0 2 0 2 0 
1 0 2 0 2 0 2 0 1 0 2 0 2 0 1 0 
2 0 2 0 2 0 1 0 2 0 2 0 2 0 1 0 
2 0 2 0 2 0 1 0 2 0 2 0 2 -154 1 0 
2 0 2 0 2 0 1 0 2 0 2 0 2 0 1 0 
2 0 2 0 2 0 1 0 2 0 2 0 2 0 1 0 
2 0 2 0 2 0 1 0 2 0 2 0 2 0 1 0 
2 0 2 0 1 0 2 0 2 0 2 0 1 0 2 0 
2 0 2 0 1 0 4183 1094 100 MP stroke
2 0 2 0 2 0 1 0 2 0 2 0 2 0 1 0 
2 0 2 0 2 0 1 0 2 0 2 0 2 0 1 0 
2 0 2 0 2 0 1 0 2 0 2 0 2 0 1 0 
2 0 2 0 2 0 1 0 2 0 2 0 2 0 1 0 
2 0 2 0 1 0 2 0 2 0 2 0 1 0 2 0 
2 0 2 0 1 0 2 0 2 0 2 0 1 0 2 0 
2 0 2 0 1 0 2 0 2 0 2 0 1 0 2 0 
2 0 2 0 1 0 2 0 2 0 2 0 1 0 2 0 
2 0 2 0 1 0 2 0 2 0 2 0 1 0 2 0 
2 0 2 0 1 0 2 0 2 0 1 0 2 0 2 0 
2 0 1 0 2 0 2 0 2 0 1 0 2 0 2 0 
2 0 1 0 2 0 2 0 2 0 1 0 2 0 2 0 
2 0 1 0 2 0 4010 1094 100 MP stroke
2 0 2 0 1 0 2 0 2 0 2 0 1 0 2 0 
2 0 2 0 1 0 2 0 2 0 2 0 1 0 2 0 
2 0 1 0 2 0 2 0 2 0 1 0 2 0 2 0 
2 0 1 0 2 0 2 0 2 0 1 0 2 0 2 0 
2 0 1 0 2 0 2 0 2 0 1 0 2 0 2 0 
2 0 1 0 2 0 2 0 2 0 1 0 2 0 2 0 
2 0 1 0 2 0 2 0 2 0 1 0 2 0 2 0 
2 0 1 0 2 0 2 0 1 0 2 0 2 0 2 0 
1 0 2 0 2 0 2 0 1 0 2 0 2 0 2 0 
1 0 2 0 2 0 2 0 1 0 2 0 2 0 2 0 
1 0 2 0 2 0 2 0 1 0 2 0 2 0 2 0 
1 0 2 0 2 0 2 0 1 0 2 0 2 0 2 0 
1 0 2 0 2 0 3837 1094 100 MP stroke
2 0 1 0 2 0 2 0 1 0 2 0 2 0 2 0 
1 0 2 0 2 0 2 0 1 0 2 0 2 0 2 0 
1 0 2 0 2 0 2 0 1 0 2 0 2 0 2 0 
1 0 2 0 2 0 2 0 1 0 2 0 2 0 2 0 
1 0 2 0 2 0 2 0 1 0 2 0 2 0 2 0 
1 0 2 0 2 0 2 0 1 0 2 0 2 0 1 0 
2 0 2 0 2 0 1 0 2 0 2 0 2 0 1 0 
2 0 2 0 2 0 1 0 2 0 2 0 2 0 1 0 
2 0 2 0 2 0 1 0 2 0 2 0 2 0 1 0 
2 0 2 0 2 0 1 0 2 0 2 0 2 0 1 0 
2 0 2 0 2 0 1 0 2 0 2 0 1 0 2 0 
2 0 2 0 1 0 2 0 2 0 2 0 1 0 2 0 
2 0 2 0 1 0 3665 1094 100 MP stroke
2 0 2 0 2 0 1 0 2 0 2 0 2 0 1 0 
2 0 2 0 2 0 1 0 2 0 2 0 2 0 1 0 
2 0 2 0 2 0 1 0 2 0 2 0 2 0 1 0 
2 0 2 0 2 0 1 0 2 0 2 0 1 0 2 0 
2 0 2 0 1 0 2 0 2 0 2 0 1 0 2 0 
2 0 2 0 1 0 2 0 2 0 2 0 1 0 2 0 
2 0 2 0 1 0 2 0 2 0 2 0 1 0 2 0 
2 0 2 0 1 0 2 0 2 0 2 0 1 0 2 0 
2 0 2 0 1 0 2 0 2 0 2 0 1 0 2 0 
2 0 1 0 2 0 2 0 2 0 1 0 2 0 2 0 
2 0 1 0 2 0 2 0 2 0 1 0 2 0 2 0 
2 0 1 0 2 0 2 0 2 0 1 0 2 0 2 0 
2 0 1 0 2 0 3492 1094 100 MP stroke
2 0 2 0 1 0 2 0 2 0 2 0 1 0 2 0 
2 0 2 0 1 0 2 0 2 0 2 0 1 0 2 0 
2 0 1 0 2 0 2 0 2 0 1 0 2 0 2 0 
2 0 1 0 2 0 2 0 2 0 1 0 2 0 2 0 
2 0 1 0 2 0 2 0 2 0 1 0 2 0 2 0 
2 0 1 0 2 0 2 0 2 0 1 0 2 0 2 0 
2 0 1 0 2 0 2 0 2 0 1 0 2 0 2 0 
1 0 2 0 2 0 2 0 1 0 2 0 2 0 2 0 
1 0 2 0 2 0 2 0 1 0 2 0 2 0 2 0 
1 0 2 0 2 0 2 0 1 0 2 0 2 0 2 0 
1 0 2 0 2 0 2 0 1 0 2 0 2 0 2 0 
1 0 2 0 2 0 2 0 1 0 2 0 2 0 2 0 
1 0 2 0 2 0 3319 1094 100 MP stroke
1 0 2 0 2 0 2 0 1 0 2 0 2 0 2 0 
1 0 2 0 2 0 2 0 1 0 2 0 2 0 2 0 
1 0 2 0 2 0 2 0 1 0 2 0 2 0 2 0 
1 0 2 0 2 0 2 0 1 0 2 0 2 0 2 0 
1 0 2 0 2 0 2 0 1 0 2 0 2 0 2 0 
1 0 2 0 2 0 1 0 2 0 2 0 2 0 1 0 
2 0 2 0 2 0 1 0 2 0 2 0 2 0 1 0 
2 0 2 0 2 0 1 0 2 0 2 0 2 0 1 0 
2 0 2 0 2 0 1 0 2 0 2 0 2 0 1 0 
2 0 2 0 2 0 1 0 2 0 2 0 2 0 1 0 
2 0 2 0 2 0 1 0 2 0 2 0 1 0 2 0 
2 0 2 0 1 0 2 0 2 0 2 0 1 0 2 0 
2 0 2 0 1 0 3147 1094 100 MP stroke
2 0 2 0 2 0 1 0 2 0 2 0 2 0 1 0 
2 0 2 0 2 0 1 0 2 0 2 0 2 0 1 0 
2 0 2 0 2 0 1 0 2 0 2 0 2 0 1 0 
2 0 2 0 1 0 2 0 2 0 2 0 1 0 2 0 
2 0 2 0 1 0 2 0 2 0 2 0 1 0 2 0 
2 0 2 0 1 0 2 0 2 0 2 0 1 0 2 0 
2 0 2 0 1 0 2 0 2 0 2 0 1 0 2 0 
2 0 2 0 1 0 2 0 2 0 2 0 1 0 2 0 
2 0 2 0 1 0 2 0 2 0 1 0 2 0 2 0 
2 0 1 0 2 0 2 0 2 0 1 0 2 0 2 0 
2 0 1 0 2 0 2 0 2 0 1 0 2 0 2 0 
2 0 1 0 2 0 2 0 2 0 1 0 2 0 2 0 
2 0 1 0 2 0 2974 1094 100 MP stroke
2 0 2 0 1 0 2 0 2 0 2 0 1 0 2 0 
2 0 2 0 1 0 2 0 2 0 1 0 2 0 2 0 
2 0 1 0 2 0 2 0 2 0 1 0 2 0 2 0 
2 0 1 0 2 0 2 0 2 0 1 0 2 0 2 0 
2 0 1 0 2 0 2 0 2 0 1 154 2 0 2 0 
2 0 1 0 2 0 2 0 2 0 1 0 2 0 2 0 
2 0 1 0 2 0 2 0 2 0 1 0 2 0 2 0 
1 0 2 0 2 0 2 0 1 0 2 0 2 0 2 0 
1 0 2 0 2 0 2 0 1 0 2 0 2 0 2 0 
1 0 2 0 2 0 2 0 1 0 2 0 2 0 2 0 
1 0 2 0 2 0 2 0 1 0 2 0 2 0 2 0 
1 0 2 0 2 0 2 0 1 0 2 0 2 0 2 0 
1 0 2 0 2 0 2801 940 100 MP stroke
1 0 2 0 2 0 2 0 1 0 2 0 2 0 2 0 
1 0 2 0 2 0 2 0 1 0 2 0 2 0 2 0 
1 0 2 0 2 0 2 0 1 0 2 0 2 0 2 0 
1 0 2 0 2 0 2 0 1 0 2 0 2 0 2 0 
1 0 2 0 2 0 2 0 1 0 2 0 2 0 1 0 
2 0 2 0 2 0 1 0 2 0 2 0 2 0 1 0 
2 0 2 0 2 0 1 0 2 0 2 0 2 0 1 0 
2 0 2 0 2 0 1 0 2 0 2 0 2 0 1 0 
2 0 2 0 2 0 1 0 2 0 2 0 2 0 1 0 
2 0 2 0 2 0 1 0 2 0 2 0 2 0 1 0 
2 0 2 0 1 0 2 0 2 0 2 0 1 0 2 0 
2 0 2 0 1 0 2 0 2 0 2 0 1 0 2 0 
2 0 2 0 1 0 2629 940 100 MP stroke
2 0 2 0 2 0 1 0 2 0 2 0 2 0 1 0 
2 0 2 0 2 0 1 0 2 0 2 0 2 0 1 0 
2 0 2 0 2 0 1 0 2 0 2 0 2 0 1 0 
2 0 2 0 1 0 2 0 2 0 2 0 1 0 2 0 
2 0 2 0 1 0 2 0 2 0 2 0 1 0 2 0 
2 0 2 0 1 0 2 0 2 0 2 0 1 0 2 0 
2 0 2 0 1 0 2 0 2 0 2 0 1 0 2 0 
2 0 2 0 1 0 2 0 2 0 2 0 1 0 2 0 
2 0 2 0 1 0 2 0 2 0 1 0 2 0 2 0 
2 0 1 0 2 0 2 0 2 0 1 0 2 0 2 0 
2 0 1 0 2 0 2 0 2 0 1 0 2 0 2 0 
2 0 1 0 2 0 2 0 2 0 1 0 2 0 2 0 
2 0 1 0 2 0 2456 940 100 MP stroke
2 0 2 0 1 0 2 0 2 0 2 0 1 0 2 0 
2 0 1 0 2 0 2 0 2 0 1 0 2 0 2 0 
2 0 1 0 2 0 2 0 2 0 1 0 2 0 2 0 
2 0 1 0 2 0 2 0 2 0 1 0 2 0 2 0 
2 0 1 0 2 0 2 0 2 0 1 0 2 0 2 0 
2 0 1 0 2 0 2 0 2 0 1 0 2 0 2 0 
2 0 1 0 2 0 2 0 1 0 2 0 2 0 2 0 
1 0 2 0 2 0 2 0 1 0 2 0 2 0 2 0 
1 0 2 0 2 0 2 0 1 0 2 0 2 0 2 0 
1 0 2 0 2 0 2 0 1 0 2 0 2 0 2 0 
1 0 2 0 2 0 2 0 1 0 2 0 2 0 2 0 
1 0 2 0 2 0 2 0 1 0 2 0 2 0 1 0 
2 0 2 0 2 0 2283 940 100 MP stroke
1 0 2 0 2 0 2 0 1 0 2 0 2 0 2 0 
1 0 2 0 2 0 2 0 1 0 2 0 2 0 2 0 
1 0 2 0 2 0 2 0 1 0 2 0 2 0 2 0 
1 0 2 -154 2 0 2 0 1 0 2 0 2 0 2 0 
1 0 2 0 2 0 2 0 1 0 2 0 2 0 1 0 
2 0 2 0 2 0 1 0 2 0 2 0 2 0 1 0 
2 0 2 0 2 0 1 0 2 0 2 0 2 0 1 0 
2 0 2 0 2 0 1 0 2 0 2 0 2 0 1 0 
2 0 2 0 2 0 1 0 2 0 2 0 2 0 1 0 
2 0 2 0 2 0 1 0 2 0 2 0 1 0 2 0 
2 0 2 0 1 0 2 0 2 0 2 0 1 0 2 0 
2 0 2 0 1 0 2 0 2 0 2 0 1 0 2 0 
2 0 2 0 1 0 2111 1094 100 MP stroke
2 0 2 0 2 0 1 0 2 0 2 0 2 0 1 0 
2 0 2 0 2 0 1 0 2 0 2 0 2 0 1 0 
2 0 2 0 2 0 1 0 2 0 2 0 1 0 2 0 
2 0 2 0 1 0 2 0 2 0 2 0 1 0 2 0 
2 0 2 0 1 0 2 0 2 0 2 0 1 0 2 0 
2 0 2 0 1 0 2 0 2 0 2 0 1 0 2 0 
2 0 2 0 1 0 2 0 2 0 2 0 1 0 2 0 
2 0 2 0 1 0 2 0 2 0 2 0 1 0 2 0 
2 0 1 0 2 0 2 0 2 0 1 0 2 0 2 0 
2 0 1 0 2 0 2 0 2 0 1 0 2 0 2 0 
2 0 1 0 2 0 2 0 2 0 1 0 2 0 2 0 
2 0 1 0 2 0 2 0 2 0 1 0 2 0 2 0 
2 0 1 0 2 0 1938 1094 100 MP stroke
2 0 2 0 1 0 2 0 2 0 2 0 1 0 2 0 
2 0 1 0 2 0 2 0 2 0 1 0 2 0 2 0 
2 0 1 0 2 0 2 0 2 0 1 0 2 0 2 0 
2 0 1 0 2 0 2 0 2 0 1 0 2 0 2 0 
2 0 1 0 2 0 2 0 2 0 1 0 2 0 2 0 
2 0 1 0 2 0 2 0 2 0 1 0 2 0 2 0 
2 0 1 0 2 0 2 0 1 0 2 0 2 0 2 0 
1 0 2 0 2 0 2 0 1 0 2 0 2 0 2 0 
1 0 2 0 2 0 2 0 1 0 2 0 2 0 2 0 
1 0 2 0 2 0 2 0 1 0 2 0 2 0 2 0 
1 0 2 0 2 0 2 0 1 0 2 0 2 0 2 0 
1 0 2 0 2 0 1 0 2 0 2 0 2 0 1 0 
2 0 2 0 2 0 1765 1094 100 MP stroke
1 0 2 0 2 0 2 0 1 0 2 0 2 0 2 0 
1 0 2 0 2 0 2 0 1 0 2 0 2 0 2 0 
1 0 2 0 2 0 2 0 1 0 2 0 2 0 2 0 
1 0 2 0 2 0 2 0 1 0 2 0 2 0 2 0 
1 0 2 0 2 0 1 0 2 0 2 0 2 0 1 0 
2 0 2 0 2 0 1 0 2 0 2 0 2 0 1 0 
2 0 2 0 2 0 1 0 2 0 2 0 2 0 1 0 
2 0 2 0 2 0 1 0 2 0 2 0 2 0 1 0 
2 0 2 0 2 0 1 0 2 0 2 0 2 0 1 0 
2 0 2 0 2 0 1 0 2 0 2 0 1 0 2 0 
2 0 2 0 1 0 2 0 2 0 2 0 1 0 2 0 
2 0 2 0 1 0 2 0 2 0 2 0 1 0 2 0 
2 0 2 0 1 0 1593 1094 100 MP stroke
2 0 2 0 2 0 1 0 2 0 2 0 2 0 1 0 
2 0 2 0 2 0 1 0 2 0 2 0 2 0 1 0 
2 0 2 0 2 0 1 0 2 0 2 0 1 0 2 0 
2 0 2 0 1 0 2 0 2 0 2 0 1 0 2 0 
2 0 2 0 1 0 2 0 2 0 2 0 1 0 2 0 
2 0 2 0 1 0 2 0 2 0 2 0 1 0 2 0 
2 0 2 0 1 0 2 0 2 0 2 0 1 0 2 0 
2 0 2 0 1 0 2 0 2 0 1 0 2 0 2 0 
2 0 1 0 2 0 2 0 2 0 1 0 2 0 2 0 
2 0 1 0 2 0 2 0 2 0 1 0 2 0 2 0 
2 0 1 0 2 0 2 0 2 0 1 0 2 0 2 0 
2 0 1 0 2 0 2 0 2 0 1 0 2 0 2 0 
2 0 1 0 2 0 1420 1094 100 MP stroke
2 0 2 0 1 0 2 0 2 0 1 0 2 0 2 0 
2 0 1 0 2 0 2 0 2 0 1 0 2 0 2 0 
2 0 1 0 2 0 2 0 2 0 1 0 2 0 2 0 
2 0 1 0 2 0 2 0 2 0 1 0 2 0 2 0 
2 0 1 0 2 0 2 0 2 0 1 0 2 0 2 0 
2 0 1 0 2 0 2 0 2 0 1 0 2 0 2 0 
1 0 2 0 2 0 2 0 1 0 2 0 2 0 2 0 
1 0 2 0 2 0 2 0 1 0 2 0 2 0 2 0 
1 0 2 0 2 0 2 0 1 0 2 0 2 0 2 0 
1 0 2 0 2 0 2 0 1 0 2 0 2 0 2 0 
1 0 2 0 2 0 2 0 1 0 2 0 2 0 2 0 
1 0 2 0 2 0 1 0 2 0 2 0 2 0 1 0 
2 0 2 0 2 0 1247 1094 100 MP stroke
1 0 2 0 2 0 2 0 1 0 2 0 2 0 2 0 
1 0 2 0 2 0 2 0 1 0 2 0 2 0 2 0 
1 0 2 0 2 0 2 0 1 0 2 0 2 0 2 0 
1 0 2 0 2 0 2 0 1 0 2 0 2 0 1 0 
2 0 2 0 2 0 1 0 2 0 2 0 2 0 1 0 
2 0 2 0 2 0 1 0 2 0 2 0 2 0 1 0 
2 0 2 0 2 0 1 0 2 0 2 0 2 0 1 0 
2 0 2 0 2 0 1 0 2 0 2 0 2 0 1 0 
2 0 2 0 2 0 1 0 2 0 2 0 2 0 1 0 
2 0 2 0 1 0 2 0 2 0 2 0 1 0 2 0 
2 0 2 0 1 0 2 0 2 0 2 0 1 0 2 0 
2 0 2 0 1 0 2 0 2 0 2 0 1 0 2 0 
2 0 2 0 1 0 1075 1094 100 MP stroke
2 0 2 0 2 0 1 0 2 0 2 0 2 0 1 0 
2 0 2 0 2 0 1 0 2 0 2 0 2 0 1 0 
2 0 2 0 1 0 2 0 2 0 2 0 1 0 2 0 
2 0 2 0 1 0 2 0 2 0 2 0 1 0 2 0 
2 0 2 0 1 0 2 0 2 0 2 0 1 0 2 0 
2 0 2 0 1 0 2 0 2 0 2 0 1 0 2 0 
2 0 2 0 1 0 2 0 2 0 2 0 1 0 2 0 
2 0 2 0 1 0 2 0 2 0 1 0 2 0 2 0 
2 0 1 0 2 0 2 0 2 0 1 0 2 0 2 0 
2 0 1 0 2 0 2 0 2 0 1 0 2 0 2 0 
2 0 1 0 2 0 2 0 2 0 1 0 2 0 2 0 
2 0 1 0 2 0 2 0 2 0 1 0 2 0 2 0 
2 0 1 0 2 0 902 1094 100 MP stroke
2 0 1 0 899 1094 3 MP stroke
gr

24 w
c10
0 sg
3559 1382 mt 
(f) s
 616  893 mt  -90 rotate
(|FT|) s
90 rotate
3168  386 mt 
(Input Spectrum) s
6 w
1 sg
0 613 5356 0 0 -613 899 2230 4 MP
PP
-5356 0 0 613 5356 0 0 -613 899 2230 5 MP stroke
4 w
DO
SO
6 w
0 sg
 899 2230 mt 6255 2230 L
 899 1617 mt 6255 1617 L
 899 2230 mt  899 1617 L
6255 2230 mt 6255 1617 L
 899 2230 mt 6255 2230 L
 899 2230 mt  899 1617 L
1066 2230 mt 1066 2176 L
1066 1617 mt 1066 1670 L
 930 2375 mt 
(-15) s
1903 2230 mt 1903 2176 L
1903 1617 mt 1903 1670 L
1767 2375 mt 
(-10) s
2740 2230 mt 2740 2176 L
2740 1617 mt 2740 1670 L
2637 2375 mt 
(-5) s
3577 2230 mt 3577 2176 L
3577 1617 mt 3577 1670 L
3544 2375 mt 
(0) s
4413 2230 mt 4413 2176 L
4413 1617 mt 4413 1670 L
4380 2375 mt 
(5) s
5250 2230 mt 5250 2176 L
5250 1617 mt 5250 1670 L
5184 2375 mt 
(10) s
6087 2230 mt 6087 2176 L
6087 1617 mt 6087 1670 L
6021 2375 mt 
(15) s
 899 2230 mt  952 2230 L
6255 2230 mt 6201 2230 L
 798 2274 mt 
(0) s
 899 1923 mt  952 1923 L
6255 1923 mt 6201 1923 L
 698 1967 mt 
(0.5) s
 899 1617 mt  952 1617 L
6255 1617 mt 6201 1617 L
 798 1661 mt 
(1) s
 899 2230 mt 6255 2230 L
 899 1617 mt 6255 1617 L
 899 2230 mt  899 1617 L
6255 2230 mt 6255 1617 L
gs 899 1617 5357 614 MR c np
24 w
c8
2 0 2 0 2 0 1 0 2 0 2 0 2 0 1 0 
2 0 2 0 2 0 1 0 2 0 2 0 2 0 1 0 
2 0 2 0 2 0 1 0 2 0 2 0 2 0 1 0 
2 0 2 0 2 0 1 0 2 0 2 0 2 0 1 0 
2 0 2 0 2 0 1 0 2 0 2 0 2 0 1 0 
2 0 2 0 1 0 2 0 2 0 2 0 1 0 2 0 
2 0 2 0 1 0 2 0 2 0 2 0 1 0 2 0 
2 0 2 0 1 0 2 0 2 0 2 0 1 0 2 0 
2 0 2 0 1 0 2 0 2 0 2 0 1 0 2 0 
2 0 2 0 1 0 2 0 2 0 2 0 1 0 2 0 
2 0 2 0 1 0 2 0 2 0 1 0 2 0 2 0 
2 0 1 0 2 0 2 0 2 0 1 0 2 0 2 0 
2 0 1 0 2 0 6082 2229 100 MP stroke
2 0 2 0 1 0 2 0 2 0 2 0 1 0 2 0 
2 0 2 0 1 0 2 0 2 0 2 0 1 0 2 0 
2 0 2 0 1 0 2 0 2 0 2 0 1 0 2 0 
2 0 2 0 1 0 2 0 2 0 1 0 2 0 2 0 
2 0 1 0 2 0 2 0 2 0 1 0 2 0 2 0 
2 0 1 0 2 0 2 0 2 0 1 0 2 0 2 0 
2 0 1 0 2 0 2 0 2 0 1 0 2 0 2 0 
2 0 1 0 2 0 2 0 2 0 1 0 2 0 2 0 
2 0 1 0 2 0 2 0 2 0 1 0 2 0 2 0 
1 0 2 0 2 0 2 0 1 0 2 0 2 0 2 0 
1 0 2 0 2 0 2 0 1 0 2 0 2 0 2 0 
1 0 2 0 2 0 2 0 1 0 2 0 2 0 2 0 
1 0 2 0 2 0 5909 2229 100 MP stroke
2 0 1 0 2 0 2 0 2 0 1 0 2 0 2 0 
2 0 1 0 2 0 2 0 1 0 2 0 2 0 2 0 
1 0 2 0 2 0 2 0 1 0 2 0 2 0 2 0 
1 0 2 0 2 0 2 0 1 0 2 0 2 0 2 0 
1 0 2 0 2 0 2 0 1 0 2 0 2 0 2 0 
1 0 2 0 2 0 2 0 1 0 2 0 2 0 2 0 
1 0 2 0 2 0 2 0 1 0 2 0 2 0 1 0 
2 0 2 0 2 0 1 0 2 0 2 0 2 0 1 0 
2 0 2 0 2 0 1 0 2 0 2 0 2 0 1 0 
2 0 2 0 2 0 1 0 2 0 2 0 2 0 1 0 
2 0 2 0 2 0 1 0 2 0 2 0 2 0 1 0 
2 0 2 0 2 0 1 0 2 0 2 0 2 0 1 0 
2 0 2 0 1 0 5737 2229 100 MP stroke
2 0 2 0 2 0 1 0 2 0 2 0 2 0 1 0 
2 0 2 0 2 0 1 0 2 0 2 0 2 0 1 0 
2 0 2 0 2 0 1 0 2 0 2 0 2 0 1 0 
2 0 2 0 2 0 1 0 2 0 2 0 2 0 1 0 
2 0 2 0 2 0 1 0 2 0 2 0 2 0 1 0 
2 0 2 0 1 0 2 0 2 0 2 0 1 0 2 0 
2 0 2 0 1 0 2 0 2 0 2 0 1 0 2 0 
2 0 2 0 1 0 2 0 2 0 2 0 1 0 2 0 
2 0 2 0 1 0 2 0 2 0 2 0 1 0 2 0 
2 0 2 0 1 0 2 0 2 0 2 0 1 0 2 0 
2 0 1 0 2 0 2 0 2 0 1 0 2 0 2 0 
2 0 1 0 2 0 2 0 2 0 1 0 2 0 2 0 
2 0 1 0 2 0 5564 2229 100 MP stroke
2 0 2 0 1 0 2 0 2 0 2 0 1 0 2 0 
2 0 2 0 1 0 2 0 2 0 2 0 1 0 2 0 
2 0 2 0 1 0 2 0 2 0 2 0 1 0 2 0 
2 0 1 0 2 0 2 0 2 0 1 0 2 0 2 0 
2 0 1 0 2 0 2 0 2 0 1 0 2 0 2 0 
2 0 1 0 2 0 2 0 2 0 1 0 2 0 2 0 
2 0 1 0 2 0 2 0 2 0 1 0 2 0 2 0 
2 0 1 0 2 0 2 0 2 0 1 0 2 0 2 0 
2 0 1 0 2 0 2 0 1 0 2 0 2 0 2 0 
1 0 2 0 2 0 2 0 1 0 2 0 2 0 2 0 
1 0 2 0 2 0 2 0 1 0 2 0 2 0 2 0 
1 0 2 0 2 0 2 0 1 0 2 0 2 0 2 0 
1 0 2 0 2 0 5391 2229 100 MP stroke
2 0 1 0 2 0 2 0 2 0 1 0 2 0 2 0 
2 0 1 0 2 0 2 0 1 0 2 0 2 0 2 0 
1 0 2 0 2 0 2 0 1 0 2 0 2 0 2 0 
1 0 2 0 2 0 2 0 1 0 2 0 2 0 2 0 
1 0 2 0 2 0 2 0 1 0 2 0 2 0 2 0 
1 0 2 0 2 0 2 0 1 0 2 0 2 0 2 0 
1 0 2 0 2 0 1 0 2 0 2 0 2 0 1 0 
2 0 2 0 2 0 1 0 2 0 2 0 2 0 1 0 
2 0 2 0 2 0 1 0 2 0 2 0 2 0 1 0 
2 0 2 0 2 0 1 0 2 0 2 0 2 0 1 0 
2 0 2 0 2 0 1 0 2 0 2 0 2 0 1 0 
2 0 2 0 2 0 1 0 2 0 2 0 1 0 2 0 
2 0 2 0 1 0 5219 2229 100 MP stroke
2 0 2 0 2 0 1 0 2 0 2 0 2 0 1 0 
2 0 2 0 2 0 1 0 2 0 2 0 2 0 1 0 
2 0 2 0 2 0 1 0 2 0 2 0 2 0 1 0 
2 0 2 0 2 0 1 0 2 0 2 0 2 0 1 0 
2 0 2 0 2 0 1 0 2 0 2 0 1 0 2 0 
2 0 2 0 1 0 2 0 2 0 2 0 1 0 2 0 
2 0 2 0 1 0 2 0 2 0 2 0 1 0 2 0 
2 0 2 0 1 0 2 0 2 0 2 0 1 0 2 0 
2 0 2 0 1 0 2 0 2 0 2 0 1 0 2 0 
2 0 2 0 1 0 2 0 2 0 2 0 1 0 2 0 
2 0 1 0 2 0 2 0 2 0 1 0 2 0 2 0 
2 0 1 0 2 0 2 0 2 0 1 0 2 0 2 0 
2 0 1 0 2 0 5046 2229 100 MP stroke
2 0 2 0 1 0 2 0 2 0 2 0 1 0 2 0 
2 0 2 0 1 0 2 0 2 0 2 0 1 0 2 0 
2 0 2 0 1 0 2 0 2 0 2 0 1 0 2 0 
2 0 1 0 2 0 2 0 2 0 1 0 2 0 2 0 
2 0 1 0 2 0 2 0 2 0 1 0 2 0 2 0 
2 0 1 0 2 0 2 0 2 0 1 0 2 0 2 0 
2 0 1 0 2 0 2 0 2 0 1 0 2 0 2 0 
2 0 1 0 2 0 2 0 2 0 1 0 2 0 2 0 
1 0 2 0 2 0 2 0 1 0 2 0 2 0 2 0 
1 0 2 0 2 0 2 0 1 0 2 0 2 0 2 0 
1 0 2 0 2 0 2 0 1 0 2 0 2 0 2 0 
1 0 2 0 2 0 2 0 1 0 2 0 2 0 2 0 
1 0 2 0 2 0 4873 2229 100 MP stroke
2 0 1 0 2 0 2 0 2 0 1 0 2 0 2 0 
1 0 2 0 2 0 2 0 1 0 2 0 2 0 2 0 
1 0 2 0 2 0 2 0 1 0 2 0 2 0 2 0 
1 0 2 0 2 0 2 0 1 0 2 0 2 0 2 0 
1 0 2 0 2 0 2 0 1 0 2 0 2 0 2 0 
1 0 2 0 2 0 2 0 1 0 2 0 2 0 2 0 
1 0 2 0 2 0 1 0 2 0 2 0 2 0 1 0 
2 0 2 0 2 0 1 0 2 0 2 0 2 0 1 0 
2 0 2 0 2 0 1 0 2 0 2 0 2 0 1 0 
2 0 2 0 2 0 1 0 2 0 2 0 2 0 1 0 
2 0 2 0 2 0 1 0 2 0 2 0 2 0 1 0 
2 0 2 0 2 0 1 0 2 0 2 0 1 0 2 0 
2 0 2 0 1 0 4701 2229 100 MP stroke
2 0 2 0 2 0 1 0 2 0 2 0 2 0 1 0 
2 0 2 0 2 0 1 0 2 0 2 0 2 0 1 0 
2 0 2 0 2 0 1 0 2 0 2 0 2 0 1 0 
2 0 2 0 2 0 1 0 2 0 2 0 2 0 1 0 
2 0 2 0 1 0 2 0 2 0 2 0 1 0 2 0 
2 0 2 0 1 0 2 0 2 0 2 0 1 0 2 0 
2 0 2 0 1 0 2 0 2 0 2 0 1 0 2 0 
2 0 2 0 1 0 2 0 2 0 2 0 1 0 2 0 
2 0 2 0 1 0 2 0 2 0 2 0 1 0 2 0 
2 0 2 0 1 0 2 0 2 0 1 0 2 0 2 0 
2 0 1 0 2 0 2 0 2 0 1 0 2 0 2 0 
2 0 1 0 2 0 2 0 2 0 1 0 2 0 2 0 
2 0 1 0 2 0 4528 2229 100 MP stroke
2 0 2 0 1 0 2 0 2 0 2 0 1 0 2 0 
2 0 2 0 1 0 2 0 2 0 2 0 1 0 2 0 
2 0 2 0 1 0 2 0 2 0 1 0 2 0 2 0 
2 0 1 0 2 0 2 0 2 0 1 0 2 0 2 0 
2 0 1 0 2 0 2 0 2 0 1 0 2 0 2 0 
2 0 1 0 2 0 2 0 2 0 1 0 2 0 2 0 
2 0 1 0 2 0 2 0 2 0 1 0 2 0 2 0 
2 0 1 0 2 0 2 0 2 0 1 0 2 0 2 0 
1 0 2 0 2 0 2 0 1 0 2 0 2 0 2 0 
1 0 2 0 2 0 2 0 1 0 2 0 2 0 2 0 
1 0 2 0 2 0 2 0 1 0 2 0 2 0 2 1 
1 -1 2 1 2 -1 2 1 1 -1 2 1 2 -1 2 1 
1 -1 2 1 2 -1 4355 2229 100 MP stroke
2 1 1 -1 2 1 2 -1 1 1 2 -1 2 1 2 -1 
1 1 2 -1 2 1 2 -1 1 1 2 -1 2 1 2 -1 
1 1 2 -1 2 1 2 -1 1 1 2 -1 2 2 2 -2 
1 2 2 -2 2 2 2 -2 1 2 2 -2 2 2 2 -2 
1 2 2 -2 2 3 2 -3 1 3 2 -3 2 3 2 -3 
1 4 2 -4 2 4 2 -4 1 5 2 -5 2 6 1 -6 
2 6 2 -6 2 8 1 -8 2 9 2 -9 2 12 1 -12 
2 16 2 -16 2 23 1 -23 2 43 2 -43 2 161 1 164 
2 45 2 -45 2 -25 1 25 2 17 2 -17 2 -13 1 13 
2 10 2 -10 2 -9 1 9 2 7 2 -7 2 -6 1 5 
2 6 2 -5 2 -5 1 4 2 5 2 -4 2 -4 1 3 
2 4 2 -3 1 -3 2 3 2 2 2 -2 1 -3 2 3 
2 1 2 -1 1 -2 4183 1906 100 MP stroke
2 2 2 1 2 -1 1 -1 2 1 2 0 2 0 1 -1 
2 1 2 0 2 0 1 0 2 0 2 -1 2 0 1 1 
2 0 2 -1 2 0 1 2 2 -1 2 -1 2 0 1 2 
2 -2 2 -1 2 2 1 1 2 -2 2 -1 2 2 1 1 
2 -2 2 -1 1 2 2 1 2 -2 2 -1 1 2 2 1 
2 -1 2 -2 1 2 2 1 2 -1 2 -2 1 2 2 1 
2 -1 2 -3 1 2 2 3 2 -2 2 -3 1 2 2 3 
2 -2 2 -3 1 2 2 3 2 -3 2 -2 1 3 2 2 
2 -3 2 -1 1 2 2 2 2 -3 2 -1 1 2 2 1 
2 -2 2 -1 1 2 2 1 2 -1 1 -2 2 1 2 2 
2 0 1 -3 2 1 2 2 2 0 1 -4 2 3 2 1 
2 0 1 -4 2 3 2 1 2 0 1 -4 2 3 2 2 
2 -3 1 -2 2 3 4010 1904 100 MP stroke
2 4 2 -8 1 3 2 0 2 8 2 -20 1 21 2 -8 
2 131 2 83 1 -85 2 -105 2 -160 2 -36 1 138 2 139 
2 80 1 -7 2 -82 2 -141 2 -140 1 63 2 157 2 115 
2 40 1 -41 2 -105 2 -162 2 -69 1 135 2 149 2 80 
2 2 1 -69 2 -132 2 -155 2 36 1 161 2 124 2 45 
2 -35 1 -99 2 -148 2 -99 2 119 1 155 2 96 2 10 
2 -78 1 -122 2 -135 2 -5 2 137 1 142 2 105 2 -60 
2 29 1 -61 2 -69 2 -146 1 -116 2 28 2 121 2 126 
1 67 2 23 2 -43 2 -93 1 -127 2 -114 2 51 2 131 
1 115 2 64 2 13 2 -50 1 -94 2 -136 2 -98 2 67 
1 137 2 104 2 65 2 -1 1 -49 2 -109 2 -124 2 -95 
1 88 2 133 2 104 2 54 1 -3 2 -61 2 -104 2 -138 
1 -71 2 104 2 128 3837 1882 100 MP stroke
2 99 1 48 2 -8 2 -67 1 -113 2 -129 2 -55 2 109 
1 130 2 94 2 42 2 -18 1 -70 2 -115 2 -135 2 -35 
1 126 2 122 2 91 2 32 1 -15 2 -87 2 -113 2 -132 
1 -4 2 115 2 123 2 95 1 24 2 -173 2 -20 2 -13 
1 20 2 -12 2 5 2 -7 1 11 2 -10 2 5 2 -2 
1 4 2 -5 2 2 2 1 1 -1 2 0 2 -1 1 4 
2 -6 2 5 2 -4 1 5 2 -7 2 -299 2 -1 1 1 
2 0 2 0 2 -1 1 0 2 0 2 1 2 0 1 0 
2 -1 2 0 2 0 1 1 2 -1 2 0 2 -1 1 1 
2 0 2 0 2 -1 1 0 2 0 2 0 2 0 1 0 
2 0 2 0 2 0 1 -1 2 0 2 0 1 0 2 0 
2 0 2 0 1 0 2 0 2 0 2 0 1 0 2 0 
2 0 2 0 1 0 3665 2229 100 MP stroke
2 0 2 0 2 0 1 0 2 0 2 0 2 0 1 0 
2 0 2 0 2 0 1 0 2 0 2 0 2 0 1 0 
2 0 2 0 2 0 1 0 2 0 2 0 2 0 1 0 
2 0 2 0 2 0 1 0 2 0 2 0 1 0 2 0 
2 0 2 0 1 0 2 0 2 0 2 0 1 0 2 0 
2 0 2 0 1 0 2 0 2 0 2 0 1 0 2 0 
2 0 2 0 1 0 2 0 2 0 2 0 1 0 2 0 
2 0 2 0 1 0 2 0 2 0 2 0 1 0 2 0 
2 0 2 0 1 0 2 0 2 0 2 0 1 0 2 0 
2 0 1 0 2 0 2 0 2 0 1 0 2 0 2 0 
2 0 1 0 2 0 2 0 2 0 1 0 2 0 2 0 
2 0 1 0 2 0 2 0 2 0 1 0 2 0 2 0 
2 0 1 0 2 0 3492 2229 100 MP stroke
2 0 2 0 1 0 2 0 2 0 2 0 1 0 2 0 
2 0 2 0 1 0 2 0 2 0 2 0 1 0 2 0 
2 1 1 0 2 0 2 0 2 0 1 0 2 0 2 0 
2 0 1 1 2 0 2 0 2 -1 1 1 2 0 2 1 
2 -1 1 0 2 0 2 1 2 0 1 0 2 -1 2 0 
2 0 1 1 2 0 2 0 2 -1 1 1 2 299 2 7 
2 -5 1 4 2 -5 2 6 2 -4 1 1 2 0 2 1 
1 -1 2 -2 2 5 2 -4 1 2 2 -5 2 10 2 -11 
1 7 2 -5 2 12 2 -20 1 13 2 20 2 173 2 -24 
1 -95 2 -123 2 -115 2 4 1 132 2 113 2 87 2 15 
1 -32 2 -91 2 -122 2 -126 1 35 2 135 2 115 2 70 
1 18 2 -42 2 -94 2 -130 1 -109 2 55 2 129 2 113 
1 67 2 8 2 -48 3319 1783 100 MP stroke
1 -99 2 -128 2 -104 2 71 1 138 2 104 2 61 2 3 
1 -54 2 -104 2 -133 2 -88 1 95 2 124 2 109 2 49 
1 1 2 -65 2 -104 2 -137 1 -67 2 98 2 136 2 94 
1 50 2 -13 2 -64 2 -115 1 -131 2 -51 2 114 2 127 
1 93 2 43 2 -23 2 -67 1 -126 2 -121 2 -28 2 116 
1 146 2 69 2 61 1 -29 2 60 2 -105 2 -142 1 -137 
2 5 2 135 2 122 1 78 2 -10 2 -96 2 -155 1 -119 
2 99 2 148 2 99 1 35 2 -45 2 -124 2 -161 1 -36 
2 155 2 132 2 69 1 -2 2 -80 2 -149 2 -135 1 69 
2 162 2 105 2 41 1 -40 2 -115 2 -157 2 -63 1 140 
2 141 2 82 2 7 1 -80 2 -139 2 -138 1 36 2 160 
2 105 2 85 1 -83 2 -131 2 8 2 -21 1 20 2 -8 
2 0 2 -3 1 8 3147 1900 100 MP stroke
2 -4 2 -3 2 2 1 3 2 -2 2 -3 2 4 1 0 
2 -1 2 -3 2 4 1 0 2 -1 2 -3 2 4 1 0 
2 -2 2 -1 2 3 1 0 2 -2 2 -1 2 2 1 1 
2 -1 2 -2 1 1 2 2 2 -1 2 -2 1 1 2 3 
2 -2 2 -2 1 1 2 3 2 -2 2 -3 1 2 2 3 
2 -3 2 -2 1 3 2 2 2 -3 2 -2 1 3 2 2 
2 -3 2 -2 1 3 2 1 2 -1 2 -2 1 2 2 1 
2 -1 2 -2 1 2 2 1 2 -1 2 -2 1 1 2 2 
2 -1 2 -2 1 1 2 2 2 -1 1 -2 2 1 2 2 
2 -1 1 -2 2 1 2 2 2 -2 1 0 2 1 2 1 
2 -2 1 0 2 1 2 0 2 -1 1 0 2 1 2 0 
2 0 1 0 2 0 2 -1 2 1 1 0 2 0 2 -1 
2 1 1 1 2 -1 2974 1904 100 MP stroke
2 -2 2 2 1 1 2 -1 2 -3 2 3 1 2 2 -2 
2 -3 2 3 1 3 2 -4 2 -3 1 4 2 4 2 -5 
2 -4 1 5 2 5 2 -6 2 -5 1 6 2 7 2 -7 
2 -9 1 9 2 10 2 -10 2 -13 1 13 2 17 2 -17 
2 -25 1 25 2 45 2 -45 2 -164 1 -161 2 43 2 -43 
2 23 1 -23 2 16 2 -16 2 12 1 -12 2 9 2 -9 
2 8 1 -8 2 6 2 -6 2 6 1 -6 2 5 2 -5 
1 4 2 -4 2 4 2 -4 1 3 2 -3 2 3 2 -3 
1 3 2 -3 2 2 2 -2 1 2 2 -2 2 2 2 -2 
1 2 2 -2 2 2 2 -2 1 2 2 -2 2 1 2 -1 
1 1 2 -1 2 1 2 -1 1 1 2 -1 2 1 2 -1 
1 1 2 -1 2 1 2 -1 1 1 2 -1 2 1 2 -1 
1 1 2 -1 2 1 2801 2228 100 MP stroke
1 -1 2 1 2 -1 2 1 1 -1 2 1 2 -1 2 1 
1 -1 2 1 2 -1 2 1 1 -1 2 0 2 0 2 0 
1 0 2 0 2 0 2 0 1 0 2 0 2 0 2 0 
1 0 2 0 2 0 2 0 1 0 2 0 2 0 2 0 
1 0 2 0 2 0 2 0 1 0 2 0 2 0 1 0 
2 0 2 0 2 0 1 0 2 0 2 0 2 0 1 0 
2 0 2 0 2 0 1 0 2 0 2 0 2 0 1 0 
2 0 2 0 2 0 1 0 2 0 2 0 2 0 1 0 
2 0 2 0 2 0 1 0 2 0 2 0 2 0 1 0 
2 0 2 0 2 0 1 0 2 0 2 0 2 0 1 0 
2 0 2 0 1 0 2 0 2 0 2 0 1 0 2 0 
2 0 2 0 1 0 2 0 2 0 2 0 1 0 2 0 
2 0 2 0 1 0 2629 2229 100 MP stroke
2 0 2 0 2 0 1 0 2 0 2 0 2 0 1 0 
2 0 2 0 2 0 1 0 2 0 2 0 2 0 1 0 
2 0 2 0 2 0 1 0 2 0 2 0 2 0 1 0 
2 0 2 0 1 0 2 0 2 0 2 0 1 0 2 0 
2 0 2 0 1 0 2 0 2 0 2 0 1 0 2 0 
2 0 2 0 1 0 2 0 2 0 2 0 1 0 2 0 
2 0 2 0 1 0 2 0 2 0 2 0 1 0 2 0 
2 0 2 0 1 0 2 0 2 0 2 0 1 0 2 0 
2 0 2 0 1 0 2 0 2 0 1 0 2 0 2 0 
2 0 1 0 2 0 2 0 2 0 1 0 2 0 2 0 
2 0 1 0 2 0 2 0 2 0 1 0 2 0 2 0 
2 0 1 0 2 0 2 0 2 0 1 0 2 0 2 0 
2 0 1 0 2 0 2456 2229 100 MP stroke
2 0 2 0 1 0 2 0 2 0 2 0 1 0 2 0 
2 0 1 0 2 0 2 0 2 0 1 0 2 0 2 0 
2 0 1 0 2 0 2 0 2 0 1 0 2 0 2 0 
2 0 1 0 2 0 2 0 2 0 1 0 2 0 2 0 
2 0 1 0 2 0 2 0 2 0 1 0 2 0 2 0 
2 0 1 0 2 0 2 0 2 0 1 0 2 0 2 0 
2 0 1 0 2 0 2 0 1 0 2 0 2 0 2 0 
1 0 2 0 2 0 2 0 1 0 2 0 2 0 2 0 
1 0 2 0 2 0 2 0 1 0 2 0 2 0 2 0 
1 0 2 0 2 0 2 0 1 0 2 0 2 0 2 0 
1 0 2 0 2 0 2 0 1 0 2 0 2 0 2 0 
1 0 2 0 2 0 2 0 1 0 2 0 2 0 1 0 
2 0 2 0 2 0 2283 2229 100 MP stroke
1 0 2 0 2 0 2 0 1 0 2 0 2 0 2 0 
1 0 2 0 2 0 2 0 1 0 2 0 2 0 2 0 
1 0 2 0 2 0 2 0 1 0 2 0 2 0 2 0 
1 0 2 0 2 0 2 0 1 0 2 0 2 0 2 0 
1 0 2 0 2 0 2 0 1 0 2 0 2 0 1 0 
2 0 2 0 2 0 1 0 2 0 2 0 2 0 1 0 
2 0 2 0 2 0 1 0 2 0 2 0 2 0 1 0 
2 0 2 0 2 0 1 0 2 0 2 0 2 0 1 0 
2 0 2 0 2 0 1 0 2 0 2 0 2 0 1 0 
2 0 2 0 2 0 1 0 2 0 2 0 1 0 2 0 
2 0 2 0 1 0 2 0 2 0 2 0 1 0 2 0 
2 0 2 0 1 0 2 0 2 0 2 0 1 0 2 0 
2 0 2 0 1 0 2111 2229 100 MP stroke
2 0 2 0 2 0 1 0 2 0 2 0 2 0 1 0 
2 0 2 0 2 0 1 0 2 0 2 0 2 0 1 0 
2 0 2 0 2 0 1 0 2 0 2 0 1 0 2 0 
2 0 2 0 1 0 2 0 2 0 2 0 1 0 2 0 
2 0 2 0 1 0 2 0 2 0 2 0 1 0 2 0 
2 0 2 0 1 0 2 0 2 0 2 0 1 0 2 0 
2 0 2 0 1 0 2 0 2 0 2 0 1 0 2 0 
2 0 2 0 1 0 2 0 2 0 2 0 1 0 2 0 
2 0 1 0 2 0 2 0 2 0 1 0 2 0 2 0 
2 0 1 0 2 0 2 0 2 0 1 0 2 0 2 0 
2 0 1 0 2 0 2 0 2 0 1 0 2 0 2 0 
2 0 1 0 2 0 2 0 2 0 1 0 2 0 2 0 
2 0 1 0 2 0 1938 2229 100 MP stroke
2 0 2 0 1 0 2 0 2 0 2 0 1 0 2 0 
2 0 1 0 2 0 2 0 2 0 1 0 2 0 2 0 
2 0 1 0 2 0 2 0 2 0 1 0 2 0 2 0 
2 0 1 0 2 0 2 0 2 0 1 0 2 0 2 0 
2 0 1 0 2 0 2 0 2 0 1 0 2 0 2 0 
2 0 1 0 2 0 2 0 2 0 1 0 2 0 2 0 
2 0 1 0 2 0 2 0 1 0 2 0 2 0 2 0 
1 0 2 0 2 0 2 0 1 0 2 0 2 0 2 0 
1 0 2 0 2 0 2 0 1 0 2 0 2 0 2 0 
1 0 2 0 2 0 2 0 1 0 2 0 2 0 2 0 
1 0 2 0 2 0 2 0 1 0 2 0 2 0 2 0 
1 0 2 0 2 0 1 0 2 0 2 0 2 0 1 0 
2 0 2 0 2 0 1765 2229 100 MP stroke
1 0 2 0 2 0 2 0 1 0 2 0 2 0 2 0 
1 0 2 0 2 0 2 0 1 0 2 0 2 0 2 0 
1 0 2 0 2 0 2 0 1 0 2 0 2 0 2 0 
1 0 2 0 2 0 2 0 1 0 2 0 2 0 2 0 
1 0 2 0 2 0 1 0 2 0 2 0 2 0 1 0 
2 0 2 0 2 0 1 0 2 0 2 0 2 0 1 0 
2 0 2 0 2 0 1 0 2 0 2 0 2 0 1 0 
2 0 2 0 2 0 1 0 2 0 2 0 2 0 1 0 
2 0 2 0 2 0 1 0 2 0 2 0 2 0 1 0 
2 0 2 0 2 0 1 0 2 0 2 0 1 0 2 0 
2 0 2 0 1 0 2 0 2 0 2 0 1 0 2 0 
2 0 2 0 1 0 2 0 2 0 2 0 1 0 2 0 
2 0 2 0 1 0 1593 2229 100 MP stroke
2 0 2 0 2 0 1 0 2 0 2 0 2 0 1 0 
2 0 2 0 2 0 1 0 2 0 2 0 2 0 1 0 
2 0 2 0 2 0 1 0 2 0 2 0 1 0 2 0 
2 0 2 0 1 0 2 0 2 0 2 0 1 0 2 0 
2 0 2 0 1 0 2 0 2 0 2 0 1 0 2 0 
2 0 2 0 1 0 2 0 2 0 2 0 1 0 2 0 
2 0 2 0 1 0 2 0 2 0 2 0 1 0 2 0 
2 0 2 0 1 0 2 0 2 0 1 0 2 0 2 0 
2 0 1 0 2 0 2 0 2 0 1 0 2 0 2 0 
2 0 1 0 2 0 2 0 2 0 1 0 2 0 2 0 
2 0 1 0 2 0 2 0 2 0 1 0 2 0 2 0 
2 0 1 0 2 0 2 0 2 0 1 0 2 0 2 0 
2 0 1 0 2 0 1420 2229 100 MP stroke
2 0 2 0 1 0 2 0 2 0 1 0 2 0 2 0 
2 0 1 0 2 0 2 0 2 0 1 0 2 0 2 0 
2 0 1 0 2 0 2 0 2 0 1 0 2 0 2 0 
2 0 1 0 2 0 2 0 2 0 1 0 2 0 2 0 
2 0 1 0 2 0 2 0 2 0 1 0 2 0 2 0 
2 0 1 0 2 0 2 0 2 0 1 0 2 0 2 0 
1 0 2 0 2 0 2 0 1 0 2 0 2 0 2 0 
1 0 2 0 2 0 2 0 1 0 2 0 2 0 2 0 
1 0 2 0 2 0 2 0 1 0 2 0 2 0 2 0 
1 0 2 0 2 0 2 0 1 0 2 0 2 0 2 0 
1 0 2 0 2 0 2 0 1 0 2 0 2 0 2 0 
1 0 2 0 2 0 1 0 2 0 2 0 2 0 1 0 
2 0 2 0 2 0 1247 2229 100 MP stroke
1 0 2 0 2 0 2 0 1 0 2 0 2 0 2 0 
1 0 2 0 2 0 2 0 1 0 2 0 2 0 2 0 
1 0 2 0 2 0 2 0 1 0 2 0 2 0 2 0 
1 0 2 0 2 0 2 0 1 0 2 0 2 0 1 0 
2 0 2 0 2 0 1 0 2 0 2 0 2 0 1 0 
2 0 2 0 2 0 1 0 2 0 2 0 2 0 1 0 
2 0 2 0 2 0 1 0 2 0 2 0 2 0 1 0 
2 0 2 0 2 0 1 0 2 0 2 0 2 0 1 0 
2 0 2 0 2 0 1 0 2 0 2 0 2 0 1 0 
2 0 2 0 1 0 2 0 2 0 2 0 1 0 2 0 
2 0 2 0 1 0 2 0 2 0 2 0 1 0 2 0 
2 0 2 0 1 0 2 0 2 0 2 0 1 0 2 0 
2 0 2 0 1 0 1075 2229 100 MP stroke
2 0 2 0 2 0 1 0 2 0 2 0 2 0 1 0 
2 0 2 0 2 0 1 0 2 0 2 0 2 0 1 0 
2 0 2 0 1 0 2 0 2 0 2 0 1 0 2 0 
2 0 2 0 1 0 2 0 2 0 2 0 1 0 2 0 
2 0 2 0 1 0 2 0 2 0 2 0 1 0 2 0 
2 0 2 0 1 0 2 0 2 0 2 0 1 0 2 0 
2 0 2 0 1 0 2 0 2 0 2 0 1 0 2 0 
2 0 2 0 1 0 2 0 2 0 1 0 2 0 2 0 
2 0 1 0 2 0 2 0 2 0 1 0 2 0 2 0 
2 0 1 0 2 0 2 0 2 0 1 0 2 0 2 0 
2 0 1 0 2 0 2 0 2 0 1 0 2 0 2 0 
2 0 1 0 2 0 2 0 2 0 1 0 2 0 2 0 
2 0 1 0 2 0 902 2229 100 MP stroke
2 0 1 0 899 2229 3 MP stroke
gr

24 w
c8
0 sg
3559 2518 mt 
(f) s
 616 2029 mt  -90 rotate
(|FT|) s
90 rotate
2953 1522 mt 
(Output Spectrum \(k'=1\)) s
6 w
1 sg
0 613 5356 0 0 -613 899 3366 4 MP
PP
-5356 0 0 613 5356 0 0 -613 899 3366 5 MP stroke
4 w
DO
SO
6 w
0 sg
 899 3366 mt 6255 3366 L
 899 2753 mt 6255 2753 L
 899 3366 mt  899 2753 L
6255 3366 mt 6255 2753 L
 899 3366 mt 6255 3366 L
 899 3366 mt  899 2753 L
1066 3366 mt 1066 3312 L
1066 2753 mt 1066 2806 L
 930 3511 mt 
(-15) s
1903 3366 mt 1903 3312 L
1903 2753 mt 1903 2806 L
1767 3511 mt 
(-10) s
2740 3366 mt 2740 3312 L
2740 2753 mt 2740 2806 L
2637 3511 mt 
(-5) s
3577 3366 mt 3577 3312 L
3577 2753 mt 3577 2806 L
3544 3511 mt 
(0) s
4413 3366 mt 4413 3312 L
4413 2753 mt 4413 2806 L
4380 3511 mt 
(5) s
5250 3366 mt 5250 3312 L
5250 2753 mt 5250 2806 L
5184 3511 mt 
(10) s
6087 3366 mt 6087 3312 L
6087 2753 mt 6087 2806 L
6021 3511 mt 
(15) s
 899 3366 mt  952 3366 L
6255 3366 mt 6201 3366 L
 798 3410 mt 
(0) s
 899 3059 mt  952 3059 L
6255 3059 mt 6201 3059 L
 698 3103 mt 
(0.5) s
 899 2753 mt  952 2753 L
6255 2753 mt 6201 2753 L
 798 2797 mt 
(1) s
 899 3366 mt 6255 3366 L
 899 2753 mt 6255 2753 L
 899 3366 mt  899 2753 L
6255 3366 mt 6255 2753 L
gs 899 2753 5357 614 MR c np
24 w
c9
2 0 2 0 2 0 1 0 2 0 2 0 2 0 1 0 
2 0 2 0 2 0 1 0 2 0 2 0 2 0 1 0 
2 0 2 0 2 0 1 0 2 0 2 0 2 0 1 0 
2 0 2 0 2 0 1 0 2 0 2 0 2 0 1 0 
2 0 2 0 2 0 1 0 2 0 2 0 2 0 1 0 
2 0 2 0 1 0 2 0 2 0 2 0 1 0 2 0 
2 0 2 0 1 0 2 0 2 0 2 0 1 0 2 0 
2 0 2 0 1 0 2 0 2 0 2 0 1 0 2 0 
2 0 2 0 1 0 2 0 2 0 2 0 1 0 2 0 
2 0 2 0 1 0 2 0 2 0 2 0 1 0 2 0 
2 0 2 0 1 0 2 0 2 0 1 0 2 0 2 0 
2 0 1 0 2 0 2 0 2 0 1 0 2 0 2 0 
2 0 1 0 2 0 6082 3365 100 MP stroke
2 0 2 0 1 0 2 0 2 0 2 0 1 0 2 0 
2 0 2 0 1 0 2 0 2 0 2 0 1 0 2 0 
2 0 2 0 1 0 2 0 2 0 2 0 1 0 2 0 
2 0 2 0 1 0 2 0 2 0 1 0 2 0 2 0 
2 0 1 0 2 0 2 0 2 0 1 0 2 0 2 0 
2 0 1 0 2 0 2 0 2 0 1 0 2 0 2 0 
2 0 1 0 2 0 2 0 2 0 1 0 2 0 2 0 
2 0 1 0 2 0 2 0 2 0 1 0 2 0 2 0 
2 0 1 0 2 0 2 0 2 0 1 0 2 0 2 0 
1 0 2 0 2 0 2 0 1 0 2 0 2 0 2 0 
1 0 2 0 2 0 2 0 1 0 2 0 2 0 2 0 
1 0 2 0 2 0 2 0 1 0 2 0 2 0 2 0 
1 0 2 0 2 0 5909 3365 100 MP stroke
2 0 1 0 2 0 2 0 2 0 1 0 2 0 2 0 
2 0 1 0 2 0 2 0 1 0 2 0 2 0 2 0 
1 0 2 0 2 0 2 0 1 0 2 0 2 0 2 0 
1 0 2 0 2 0 2 0 1 0 2 0 2 0 2 0 
1 0 2 0 2 0 2 0 1 0 2 0 2 0 2 0 
1 0 2 0 2 0 2 0 1 0 2 0 2 0 2 0 
1 0 2 0 2 0 2 0 1 0 2 0 2 0 1 0 
2 0 2 0 2 0 1 0 2 0 2 0 2 0 1 0 
2 0 2 0 2 0 1 0 2 0 2 0 2 0 1 0 
2 0 2 0 2 0 1 0 2 0 2 0 2 0 1 0 
2 0 2 0 2 0 1 0 2 0 2 0 2 0 1 0 
2 0 2 0 2 0 1 0 2 0 2 0 2 0 1 0 
2 0 2 0 1 0 5737 3365 100 MP stroke
2 0 2 0 2 0 1 0 2 0 2 0 2 0 1 0 
2 0 2 0 2 0 1 0 2 0 2 0 2 0 1 0 
2 0 2 0 2 0 1 0 2 0 2 0 2 0 1 0 
2 0 2 0 2 0 1 0 2 0 2 0 2 0 1 0 
2 0 2 0 2 0 1 0 2 0 2 0 2 0 1 0 
2 0 2 0 1 0 2 0 2 0 2 0 1 0 2 0 
2 0 2 0 1 0 2 0 2 0 2 0 1 0 2 0 
2 0 2 0 1 0 2 0 2 0 2 0 1 0 2 0 
2 0 2 0 1 0 2 0 2 0 2 0 1 0 2 0 
2 0 2 0 1 0 2 0 2 0 2 0 1 0 2 0 
2 0 1 0 2 0 2 0 2 0 1 0 2 0 2 0 
2 0 1 0 2 0 2 0 2 0 1 0 2 0 2 0 
2 0 1 0 2 0 5564 3365 100 MP stroke
2 0 2 0 1 0 2 0 2 0 2 0 1 0 2 0 
2 0 2 0 1 0 2 0 2 0 2 0 1 0 2 0 
2 0 2 0 1 0 2 0 2 0 2 0 1 0 2 0 
2 0 1 0 2 0 2 0 2 0 1 0 2 0 2 0 
2 0 1 0 2 0 2 0 2 0 1 0 2 0 2 0 
2 0 1 0 2 0 2 0 2 0 1 0 2 0 2 0 
2 0 1 0 2 0 2 0 2 0 1 0 2 0 2 0 
2 0 1 0 2 0 2 0 2 0 1 0 2 0 2 0 
2 0 1 0 2 0 2 0 1 0 2 0 2 0 2 0 
1 0 2 0 2 0 2 0 1 0 2 0 2 0 2 0 
1 0 2 0 2 0 2 0 1 0 2 0 2 0 2 0 
1 0 2 0 2 0 2 0 1 0 2 0 2 0 2 0 
1 0 2 0 2 0 5391 3365 100 MP stroke
2 0 1 0 2 0 2 0 2 0 1 0 2 0 2 0 
2 0 1 0 2 0 2 0 1 0 2 0 2 0 2 0 
1 0 2 0 2 0 2 0 1 0 2 0 2 0 2 0 
1 0 2 0 2 0 2 0 1 0 2 0 2 0 2 0 
1 0 2 0 2 0 2 0 1 0 2 0 2 0 2 0 
1 0 2 0 2 0 2 0 1 0 2 0 2 0 2 0 
1 0 2 0 2 0 1 0 2 0 2 0 2 0 1 0 
2 0 2 0 2 0 1 0 2 0 2 0 2 0 1 0 
2 0 2 0 2 0 1 0 2 0 2 0 2 0 1 0 
2 0 2 0 2 0 1 0 2 0 2 0 2 0 1 0 
2 0 2 0 2 0 1 0 2 0 2 0 2 0 1 0 
2 0 2 0 2 0 1 0 2 0 2 0 1 0 2 0 
2 0 2 0 1 0 5219 3365 100 MP stroke
2 0 2 0 2 0 1 0 2 0 2 0 2 0 1 0 
2 0 2 0 2 0 1 0 2 0 2 0 2 0 1 0 
2 0 2 0 2 0 1 0 2 0 2 0 2 0 1 0 
2 0 2 0 2 0 1 0 2 0 2 0 2 0 1 0 
2 0 2 0 2 0 1 0 2 0 2 0 1 0 2 0 
2 0 2 0 1 0 2 0 2 0 2 0 1 0 2 0 
2 0 2 0 1 0 2 0 2 0 2 0 1 0 2 0 
2 0 2 0 1 0 2 0 2 0 2 0 1 0 2 0 
2 0 2 0 1 0 2 0 2 0 2 0 1 0 2 0 
2 0 2 0 1 0 2 0 2 0 2 0 1 0 2 0 
2 0 1 0 2 0 2 0 2 0 1 0 2 0 2 0 
2 0 1 0 2 0 2 0 2 0 1 0 2 0 2 0 
2 0 1 0 2 0 5046 3365 100 MP stroke
2 0 2 0 1 0 2 0 2 0 2 0 1 0 2 0 
2 0 2 0 1 0 2 0 2 0 2 0 1 1 2 -1 
2 1 2 -1 1 1 2 -1 2 1 2 -1 1 1 2 -1 
2 1 1 -1 2 1 2 -1 2 1 1 -1 2 1 2 -1 
2 1 1 -1 2 1 2 -1 2 1 1 -1 2 1 2 -1 
2 1 1 -1 2 2 2 -2 2 2 1 -2 2 2 2 -2 
2 2 1 -2 2 2 2 -2 2 3 1 -3 2 3 2 -3 
2 3 1 -3 2 4 2 -4 2 4 1 -4 2 5 2 -5 
1 7 2 -7 2 8 2 -8 1 11 2 -11 2 17 2 -17 
1 31 2 -31 2 114 2 115 1 32 2 -32 2 -17 2 17 
1 12 2 -12 2 -9 2 9 1 8 2 -8 2 -6 2 6 
1 6 2 -6 2 -4 2 4 1 4 2 -4 2 -3 2 3 
1 4 2 -4 2 -3 4873 3139 100 MP stroke
2 3 1 3 2 -3 2 -2 2 2 1 3 2 -3 2 -2 
1 2 2 2 2 -2 2 -2 1 2 2 2 2 -2 2 -1 
1 1 2 2 2 -2 2 -1 1 1 2 2 2 -2 2 -1 
1 1 2 2 2 -2 2 -1 1 1 2 1 2 -1 2 -1 
1 1 2 1 2 -1 2 0 1 0 2 1 2 -1 2 0 
1 0 2 1 2 -1 2 0 1 0 2 1 2 -1 2 0 
1 0 2 1 2 -1 1 0 2 0 2 1 2 -1 1 0 
2 0 2 1 2 -1 1 0 2 0 2 1 2 -1 1 0 
2 0 2 1 2 -1 1 0 2 0 2 0 2 0 1 0 
2 0 2 0 2 0 1 1 2 -1 2 0 2 0 1 1 
2 -1 2 0 2 0 1 1 2 -1 2 0 2 0 1 1 
2 -1 2 0 2 0 1 1 2 -1 2 0 1 0 2 1 
2 -1 2 0 1 0 4701 3136 100 MP stroke
2 1 2 -1 2 0 1 0 2 1 2 -1 2 0 1 0 
2 1 2 -1 2 0 1 0 2 1 2 -1 2 0 1 0 
2 1 2 -1 2 0 1 0 2 1 2 -1 2 0 1 0 
2 1 2 -1 2 0 1 0 2 1 2 -1 2 0 1 0 
2 1 2 -1 1 0 2 0 2 1 2 -1 1 0 2 0 
2 1 2 -1 1 0 2 0 2 1 2 -1 1 0 2 0 
2 1 2 -1 1 0 2 0 2 1 2 -1 1 0 2 0 
2 1 2 -1 1 0 2 0 2 1 2 -1 1 0 2 0 
2 1 2 -1 1 -1 2 1 2 1 2 -1 1 -1 2 2 
2 0 2 -1 1 -1 2 2 2 0 1 -1 2 0 2 0 
2 1 1 -1 2 0 2 0 2 1 1 -1 2 0 2 0 
2 1 1 -1 2 0 2 0 2 1 1 -1 2 0 2 0 
2 1 1 0 2 -1 4528 3136 100 MP stroke
2 0 2 1 1 0 2 -2 2 1 2 1 1 0 2 -2 
2 2 2 0 1 0 2 -2 2 2 2 0 1 -1 2 0 
2 1 2 0 1 -1 2 0 2 0 1 1 2 -1 2 0 
2 0 1 1 2 -1 2 0 2 0 1 1 2 -1 2 0 
2 0 1 1 2 -1 2 0 2 0 1 0 2 1 2 -1 
2 0 1 0 2 1 2 -1 2 0 1 0 2 2 2 -3 
2 1 1 1 2 1 2 -3 2 1 1 1 2 0 2 -2 
2 1 1 3 2 -5 2 2 2 0 1 5 2 -14 2 16 
1 -7 2 93 2 59 2 -58 1 -72 2 -111 2 -36 2 94 
1 98 2 62 2 2 2 -53 1 -94 2 -103 2 18 2 108 
1 87 2 42 2 -19 2 -67 1 -106 2 -79 2 70 2 107 
1 73 2 20 2 -36 2 -82 1 -110 2 -32 2 100 2 98 
1 56 2 -2 2 -52 4355 3061 100 MP stroke
2 -96 1 -102 2 27 2 109 1 86 2 36 2 -21 2 -69 
1 -106 2 -75 2 78 2 105 1 71 2 17 2 -40 2 -86 
1 -106 2 -25 2 103 2 96 1 54 2 -3 2 -59 2 -98 
1 -95 2 34 2 107 2 84 1 37 2 -25 2 -77 2 -103 
1 -65 2 80 2 101 2 71 1 18 2 -46 2 -91 2 -103 
1 -13 2 100 2 93 2 55 1 -4 2 -63 2 -103 1 -92 
2 47 2 104 2 79 1 35 2 -20 2 -80 2 -116 1 -55 
2 96 2 96 2 50 1 24 2 -12 2 -119 2 41 1 75 
2 10 2 -35 2 -60 1 -99 2 -74 2 40 2 89 1 82 
2 45 2 8 2 -32 1 -70 2 -89 2 -77 2 47 1 90 
2 81 2 42 2 9 1 -37 2 -67 2 -94 2 -69 1 45 
2 97 2 72 1 48 2 1 2 -32 2 -74 1 -88 2 -74 
2 55 2 91 1 79 4183 3060 100 MP stroke
2 39 2 7 2 -40 1 -68 2 -95 2 -65 2 53 1 95 
2 73 2 44 2 0 1 -37 2 -73 2 -91 2 -67 1 60 
2 91 2 76 2 39 1 3 2 -41 2 -71 2 -94 1 -61 
2 59 2 94 2 72 1 42 2 -3 2 -38 2 -75 1 -91 
2 -62 2 65 1 92 2 73 2 37 2 0 1 -42 2 -74 
2 -93 2 -57 1 66 2 92 2 72 2 37 1 -2 2 -43 
2 -74 2 -94 1 -54 2 68 2 93 2 70 1 37 2 -4 
2 -43 2 -77 1 -92 2 -51 2 70 2 92 1 70 2 35 
2 -6 2 -42 1 -78 2 -93 2 -49 2 74 1 91 2 69 
2 34 2 -5 1 -47 2 -76 2 -93 1 -45 2 74 2 91 
2 69 1 32 2 -7 2 -45 2 -79 1 -93 2 -41 2 76 
2 91 1 65 2 36 2 -11 2 -47 1 -78 2 -92 2 -42 
2 81 1 89 2 70 4010 3043 100 MP stroke
2 25 2 -3 1 -52 2 -80 2 -94 2 -24 1 71 2 90 
2 -23 2 -32 1 24 2 -9 2 1 2 -2 1 5 2 -4 
2 0 1 2 2 0 2 -1 2 -1 1 3 2 -3 2 2 
2 -2 1 3 2 -4 2 4 2 -3 1 3 2 -4 2 4 
2 -3 1 2 2 -2 2 3 2 -3 1 2 2 -1 2 1 
2 -1 1 0 2 1 2 -1 2 1 1 -2 2 3 2 -3 
2 3 1 -3 2 3 2 -4 2 4 1 -4 2 4 2 -4 
2 -212 1 0 2 0 2 0 1 0 2 0 2 0 2 -1 
1 1 2 0 2 0 2 -1 1 0 2 0 2 1 2 -1 
1 0 2 0 2 0 2 0 1 0 2 0 2 0 2 0 
1 0 2 0 2 0 2 -1 1 0 2 1 2 -1 2 0 
1 0 2 0 2 0 2 0 1 0 2 0 2 0 2 0 
1 0 2 0 2 0 3837 3365 100 MP stroke
2 0 1 0 2 0 2 0 1 0 2 0 2 0 2 0 
1 0 2 0 2 0 2 0 1 0 2 0 2 0 2 0 
1 0 2 0 2 0 2 0 1 0 2 0 2 0 2 0 
1 0 2 0 2 0 2 0 1 0 2 0 2 0 2 0 
1 0 2 0 2 0 2 0 1 0 2 0 2 0 2 0 
1 0 2 0 2 0 2 0 1 0 2 0 2 0 1 0 
2 0 2 0 2 0 1 0 2 0 2 0 2 0 1 0 
2 0 2 0 2 0 1 0 2 0 2 0 2 0 1 0 
2 0 2 0 2 0 1 0 2 0 2 0 2 0 1 0 
2 0 2 0 2 0 1 0 2 0 2 0 2 0 1 0 
2 0 2 0 2 0 1 0 2 0 2 0 1 0 2 0 
2 0 2 0 1 0 2 0 2 0 2 0 1 0 2 0 
2 0 2 0 1 0 3665 3365 100 MP stroke
2 0 2 0 2 0 1 0 2 0 2 0 2 0 1 0 
2 0 2 0 2 0 1 0 2 0 2 0 2 0 1 0 
2 0 2 0 2 0 1 0 2 0 2 0 2 0 1 0 
2 0 2 0 2 0 1 0 2 0 2 0 1 0 2 0 
2 0 2 0 1 0 2 0 2 0 2 0 1 0 2 0 
2 0 2 0 1 0 2 0 2 0 2 0 1 0 2 0 
2 0 2 0 1 0 2 0 2 0 2 0 1 0 2 0 
2 0 2 0 1 0 2 0 2 0 2 0 1 0 2 0 
2 0 2 0 1 0 2 0 2 0 2 0 1 0 2 0 
2 0 1 0 2 0 2 0 2 0 1 0 2 0 2 0 
2 0 1 0 2 0 2 0 2 0 1 0 2 0 2 0 
2 0 1 0 2 0 2 0 2 0 1 0 2 0 2 0 
2 0 1 0 2 0 3492 3365 100 MP stroke
2 0 2 0 1 0 2 0 2 0 2 0 1 0 2 0 
2 0 2 0 1 0 2 0 2 0 2 0 1 0 2 0 
2 0 1 0 2 0 2 0 2 0 1 0 2 0 2 0 
2 0 1 0 2 0 2 0 2 0 1 0 2 0 2 0 
2 0 1 0 2 0 2 0 2 0 1 0 2 0 2 0 
2 0 1 0 2 0 2 0 2 0 1 0 2 0 2 0 
2 0 1 0 2 0 2 0 2 0 1 0 2 0 2 0 
1 0 2 0 2 0 2 0 1 0 2 0 2 0 2 0 
1 0 2 0 2 0 2 0 1 0 2 0 2 0 2 0 
1 0 2 0 2 0 2 0 1 0 2 0 2 0 2 0 
1 0 2 0 2 0 2 0 1 0 2 0 2 0 2 0 
1 0 2 0 2 0 2 0 1 0 2 0 2 0 2 0 
1 0 2 0 2 0 3319 3365 100 MP stroke
1 0 2 0 2 0 2 0 1 0 2 0 2 0 2 0 
1 0 2 0 2 0 2 0 1 0 2 1 2 -1 2 0 
1 1 2 0 2 0 2 0 1 0 2 0 2 0 2 0 
1 0 2 0 2 0 2 0 1 1 2 -1 2 0 2 0 
1 1 2 0 2 0 2 -1 1 1 2 0 2 0 2 0 
1 0 2 0 2 0 1 212 2 4 2 -4 2 4 1 -4 
2 4 2 -3 2 3 1 -3 2 3 2 -3 2 2 1 -1 
2 1 2 -1 2 0 1 1 2 -1 2 1 2 -2 1 3 
2 -3 2 2 2 -2 1 3 2 -4 2 4 2 -3 1 3 
2 -4 2 4 2 -3 1 2 2 -2 2 3 2 -3 1 1 
2 1 2 0 2 -2 1 0 2 4 2 -5 1 2 2 -1 
2 9 2 -24 1 32 2 23 2 -90 2 -71 1 24 2 94 
2 80 2 52 1 3 3147 3018 100 MP stroke
2 -25 2 -70 2 -89 1 -81 2 42 2 92 2 78 1 47 
2 11 2 -36 2 -65 1 -91 2 -76 2 41 2 93 1 79 
2 45 2 7 2 -32 1 -69 2 -91 2 -74 2 45 1 93 
2 76 2 47 1 5 2 -34 2 -69 2 -91 1 -74 2 49 
2 93 2 78 1 42 2 6 2 -35 2 -70 1 -92 2 -70 
2 51 2 92 1 77 2 43 2 4 2 -37 1 -70 2 -93 
2 -68 2 54 1 94 2 74 2 43 2 2 1 -37 2 -72 
2 -92 2 -66 1 57 2 93 2 74 2 42 1 0 2 -37 
2 -73 2 -92 1 -65 2 62 2 91 1 75 2 38 2 3 
2 -42 1 -72 2 -94 2 -59 2 61 1 94 2 71 2 41 
2 -3 1 -39 2 -76 2 -91 2 -60 1 67 2 91 2 73 
2 37 1 0 2 -44 2 -73 2 -95 1 -53 2 65 2 95 
2 68 1 40 2 -7 2974 3021 100 MP stroke
2 -39 2 -79 1 -91 2 -55 2 74 2 88 1 74 2 32 
2 -1 2 -48 1 -72 2 -97 2 -45 1 69 2 94 2 67 
2 37 1 -9 2 -42 2 -81 2 -90 1 -47 2 77 2 89 
2 70 1 32 2 -8 2 -45 2 -82 1 -89 2 -40 2 74 
2 99 1 60 2 35 2 -10 2 -75 1 -41 2 119 2 12 
2 -24 1 -50 2 -96 2 -96 2 55 1 116 2 80 2 20 
2 -35 1 -79 2 -104 2 -47 2 92 1 103 2 63 2 4 
1 -55 2 -93 2 -100 2 13 1 103 2 91 2 46 2 -18 
1 -71 2 -101 2 -80 2 65 1 103 2 77 2 25 2 -37 
1 -84 2 -107 2 -34 2 95 1 98 2 59 2 3 2 -54 
1 -96 2 -103 2 25 2 106 1 86 2 40 2 -17 2 -71 
1 -105 2 -78 2 75 2 106 1 69 2 21 2 -36 2 -86 
1 -109 2 -27 2 102 2801 3157 100 MP stroke
1 96 2 52 2 2 2 -56 1 -98 2 -100 2 32 2 110 
1 82 2 36 2 -20 2 -73 1 -107 2 -70 2 79 2 106 
1 67 2 19 2 -42 2 -87 1 -108 2 -18 2 103 2 94 
1 53 2 -2 2 -62 2 -98 1 -94 2 36 2 111 2 72 
1 58 2 -59 2 -93 2 7 1 -16 2 14 2 -5 1 0 
2 -2 2 5 2 -3 1 -1 2 2 2 0 2 -1 1 -1 
2 3 2 -1 2 -1 1 -1 2 3 2 -2 2 0 1 0 
2 1 2 -1 2 0 1 0 2 1 2 -1 2 0 1 0 
2 0 2 1 2 -1 1 0 2 0 2 1 2 -1 1 0 
2 0 2 1 2 -1 1 0 2 0 2 1 2 -1 1 0 
2 0 2 1 1 0 2 -1 2 0 2 1 1 0 2 -2 
2 2 2 0 1 0 2 -2 2 2 2 0 1 -1 2 -1 
2 2 2 0 1 -1 2629 3136 100 MP stroke
2 0 2 1 2 0 1 -1 2 0 2 0 2 1 1 -1 
2 0 2 0 2 1 1 -1 2 0 2 0 2 1 1 -1 
2 0 2 0 2 1 1 -1 2 0 2 0 2 1 1 0 
2 -2 2 1 1 1 2 0 2 -2 2 1 1 1 2 -1 
2 -1 2 1 1 1 2 -1 2 0 2 0 1 1 2 -1 
2 0 2 0 1 1 2 -1 2 0 2 0 1 1 2 -1 
2 0 2 0 1 1 2 -1 2 0 2 0 1 1 2 -1 
2 0 2 0 1 1 2 -1 2 0 2 0 1 1 2 -1 
2 0 2 0 1 1 2 -1 2 0 1 0 2 1 2 -1 
2 0 1 0 2 1 2 -1 2 0 1 0 2 1 2 -1 
2 0 1 0 2 1 2 -1 2 0 1 0 2 1 2 -1 
2 0 1 0 2 1 2 -1 2 0 1 0 2 1 2 -1 
2 0 1 0 2 1 2456 3135 100 MP stroke
2 -1 2 0 1 0 2 1 2 -1 2 0 1 0 2 1 
2 -1 1 0 2 0 2 1 2 -1 1 0 2 0 2 1 
2 -1 1 0 2 0 2 1 2 -1 1 0 2 0 2 1 
2 -1 1 0 2 0 2 0 2 0 1 0 2 0 2 0 
2 0 1 1 2 -1 2 0 2 0 1 1 2 -1 2 0 
2 0 1 1 2 -1 2 0 2 0 1 1 2 -1 2 0 
2 0 1 1 2 -1 2 0 1 0 2 1 2 -1 2 0 
1 0 2 1 2 -1 2 0 1 0 2 1 2 -1 2 0 
1 0 2 1 2 -1 2 -1 1 1 2 1 2 -1 2 -1 
1 1 2 2 2 -2 2 -1 1 1 2 2 2 -2 2 -1 
1 1 2 2 2 -2 2 -1 1 1 2 2 2 -2 2 -2 
1 2 2 2 2 -2 2 -2 1 2 2 3 2 -3 1 -2 
2 2 2 3 2 -3 2283 3136 100 MP stroke
1 -3 2 3 2 4 2 -4 1 -3 2 3 2 4 2 -4 
1 -4 2 4 2 6 2 -6 1 -6 2 6 2 8 2 -8 
1 -9 2 9 2 12 2 -12 1 -17 2 17 2 32 2 -32 
1 -115 2 -114 2 31 2 -31 1 17 2 -17 2 11 2 -11 
1 8 2 -8 2 7 2 -7 1 5 2 -5 2 4 1 -4 
2 4 2 -4 2 3 1 -3 2 3 2 -3 2 3 1 -3 
2 2 2 -2 2 2 1 -2 2 2 2 -2 2 2 1 -2 
2 2 2 -2 2 1 1 -1 2 1 2 -1 2 1 1 -1 
2 1 2 -1 2 1 1 -1 2 1 2 -1 2 1 1 -1 
2 1 2 -1 2 1 1 -1 2 1 2 -1 1 1 2 -1 
2 1 2 -1 1 1 2 -1 2 1 2 -1 1 0 2 0 
2 0 2 0 1 0 2 0 2 0 2 0 1 0 2 0 
2 0 2 0 1 0 2111 3365 100 MP stroke
2 0 2 0 2 0 1 0 2 0 2 0 2 0 1 0 
2 0 2 0 2 0 1 0 2 0 2 0 2 0 1 0 
2 0 2 0 2 0 1 0 2 0 2 0 1 0 2 0 
2 0 2 0 1 0 2 0 2 0 2 0 1 0 2 0 
2 0 2 0 1 0 2 0 2 0 2 0 1 0 2 0 
2 0 2 0 1 0 2 0 2 0 2 0 1 0 2 0 
2 0 2 0 1 0 2 0 2 0 2 0 1 0 2 0 
2 0 2 0 1 0 2 0 2 0 2 0 1 0 2 0 
2 0 1 0 2 0 2 0 2 0 1 0 2 0 2 0 
2 0 1 0 2 0 2 0 2 0 1 0 2 0 2 0 
2 0 1 0 2 0 2 0 2 0 1 0 2 0 2 0 
2 0 1 0 2 0 2 0 2 0 1 0 2 0 2 0 
2 0 1 0 2 0 1938 3365 100 MP stroke
2 0 2 0 1 0 2 0 2 0 2 0 1 0 2 0 
2 0 1 0 2 0 2 0 2 0 1 0 2 0 2 0 
2 0 1 0 2 0 2 0 2 0 1 0 2 0 2 0 
2 0 1 0 2 0 2 0 2 0 1 0 2 0 2 0 
2 0 1 0 2 0 2 0 2 0 1 0 2 0 2 0 
2 0 1 0 2 0 2 0 2 0 1 0 2 0 2 0 
2 0 1 0 2 0 2 0 1 0 2 0 2 0 2 0 
1 0 2 0 2 0 2 0 1 0 2 0 2 0 2 0 
1 0 2 0 2 0 2 0 1 0 2 0 2 0 2 0 
1 0 2 0 2 0 2 0 1 0 2 0 2 0 2 0 
1 0 2 0 2 0 2 0 1 0 2 0 2 0 2 0 
1 0 2 0 2 0 1 0 2 0 2 0 2 0 1 0 
2 0 2 0 2 0 1765 3365 100 MP stroke
1 0 2 0 2 0 2 0 1 0 2 0 2 0 2 0 
1 0 2 0 2 0 2 0 1 0 2 0 2 0 2 0 
1 0 2 0 2 0 2 0 1 0 2 0 2 0 2 0 
1 0 2 0 2 0 2 0 1 0 2 0 2 0 2 0 
1 0 2 0 2 0 1 0 2 0 2 0 2 0 1 0 
2 0 2 0 2 0 1 0 2 0 2 0 2 0 1 0 
2 0 2 0 2 0 1 0 2 0 2 0 2 0 1 0 
2 0 2 0 2 0 1 0 2 0 2 0 2 0 1 0 
2 0 2 0 2 0 1 0 2 0 2 0 2 0 1 0 
2 0 2 0 2 0 1 0 2 0 2 0 1 0 2 0 
2 0 2 0 1 0 2 0 2 0 2 0 1 0 2 0 
2 0 2 0 1 0 2 0 2 0 2 0 1 0 2 0 
2 0 2 0 1 0 1593 3365 100 MP stroke
2 0 2 0 2 0 1 0 2 0 2 0 2 0 1 0 
2 0 2 0 2 0 1 0 2 0 2 0 2 0 1 0 
2 0 2 0 2 0 1 0 2 0 2 0 1 0 2 0 
2 0 2 0 1 0 2 0 2 0 2 0 1 0 2 0 
2 0 2 0 1 0 2 0 2 0 2 0 1 0 2 0 
2 0 2 0 1 0 2 0 2 0 2 0 1 0 2 0 
2 0 2 0 1 0 2 0 2 0 2 0 1 0 2 0 
2 0 2 0 1 0 2 0 2 0 1 0 2 0 2 0 
2 0 1 0 2 0 2 0 2 0 1 0 2 0 2 0 
2 0 1 0 2 0 2 0 2 0 1 0 2 0 2 0 
2 0 1 0 2 0 2 0 2 0 1 0 2 0 2 0 
2 0 1 0 2 0 2 0 2 0 1 0 2 0 2 0 
2 0 1 0 2 0 1420 3365 100 MP stroke
2 0 2 0 1 0 2 0 2 0 1 0 2 0 2 0 
2 0 1 0 2 0 2 0 2 0 1 0 2 0 2 0 
2 0 1 0 2 0 2 0 2 0 1 0 2 0 2 0 
2 0 1 0 2 0 2 0 2 0 1 0 2 0 2 0 
2 0 1 0 2 0 2 0 2 0 1 0 2 0 2 0 
2 0 1 0 2 0 2 0 2 0 1 0 2 0 2 0 
1 0 2 0 2 0 2 0 1 0 2 0 2 0 2 0 
1 0 2 0 2 0 2 0 1 0 2 0 2 0 2 0 
1 0 2 0 2 0 2 0 1 0 2 0 2 0 2 0 
1 0 2 0 2 0 2 0 1 0 2 0 2 0 2 0 
1 0 2 0 2 0 2 0 1 0 2 0 2 0 2 0 
1 0 2 0 2 0 1 0 2 0 2 0 2 0 1 0 
2 0 2 0 2 0 1247 3365 100 MP stroke
1 0 2 0 2 0 2 0 1 0 2 0 2 0 2 0 
1 0 2 0 2 0 2 0 1 0 2 0 2 0 2 0 
1 0 2 0 2 0 2 0 1 0 2 0 2 0 2 0 
1 0 2 0 2 0 2 0 1 0 2 0 2 0 1 0 
2 0 2 0 2 0 1 0 2 0 2 0 2 0 1 0 
2 0 2 0 2 0 1 0 2 0 2 0 2 0 1 0 
2 0 2 0 2 0 1 0 2 0 2 0 2 0 1 0 
2 0 2 0 2 0 1 0 2 0 2 0 2 0 1 0 
2 0 2 0 2 0 1 0 2 0 2 0 2 0 1 0 
2 0 2 0 1 0 2 0 2 0 2 0 1 0 2 0 
2 0 2 0 1 0 2 0 2 0 2 0 1 0 2 0 
2 0 2 0 1 0 2 0 2 0 2 0 1 0 2 0 
2 0 2 0 1 0 1075 3365 100 MP stroke
2 0 2 0 2 0 1 0 2 0 2 0 2 0 1 0 
2 0 2 0 2 0 1 0 2 0 2 0 2 0 1 0 
2 0 2 0 1 0 2 0 2 0 2 0 1 0 2 0 
2 0 2 0 1 0 2 0 2 0 2 0 1 0 2 0 
2 0 2 0 1 0 2 0 2 0 2 0 1 0 2 0 
2 0 2 0 1 0 2 0 2 0 2 0 1 0 2 0 
2 0 2 0 1 0 2 0 2 0 2 0 1 0 2 0 
2 0 2 0 1 0 2 0 2 0 1 0 2 0 2 0 
2 0 1 0 2 0 2 0 2 0 1 0 2 0 2 0 
2 0 1 0 2 0 2 0 2 0 1 0 2 0 2 0 
2 0 1 0 2 0 2 0 2 0 1 0 2 0 2 0 
2 0 1 0 2 0 2 0 2 0 1 0 2 0 2 0 
2 0 1 0 2 0 902 3365 100 MP stroke
2 0 1 0 899 3365 3 MP stroke
gr

24 w
c9
0 sg
3559 3654 mt 
(f) s
 616 3165 mt  -90 rotate
(|FT|) s
90 rotate
2953 2658 mt 
(Output Spectrum \(k'=2\)) s
6 w
1 sg
0 613 5356 0 0 -613 899 4502 4 MP
PP
-5356 0 0 613 5356 0 0 -613 899 4502 5 MP stroke
4 w
DO
SO
6 w
0 sg
 899 4502 mt 6255 4502 L
 899 3889 mt 6255 3889 L
 899 4502 mt  899 3889 L
6255 4502 mt 6255 3889 L
 899 4502 mt 6255 4502 L
 899 4502 mt  899 3889 L
1066 4502 mt 1066 4448 L
1066 3889 mt 1066 3942 L
 930 4647 mt 
(-15) s
1903 4502 mt 1903 4448 L
1903 3889 mt 1903 3942 L
1767 4647 mt 
(-10) s
2740 4502 mt 2740 4448 L
2740 3889 mt 2740 3942 L
2637 4647 mt 
(-5) s
3577 4502 mt 3577 4448 L
3577 3889 mt 3577 3942 L
3544 4647 mt 
(0) s
4413 4502 mt 4413 4448 L
4413 3889 mt 4413 3942 L
4380 4647 mt 
(5) s
5250 4502 mt 5250 4448 L
5250 3889 mt 5250 3942 L
5184 4647 mt 
(10) s
6087 4502 mt 6087 4448 L
6087 3889 mt 6087 3942 L
6021 4647 mt 
(15) s
 899 4502 mt  952 4502 L
6255 4502 mt 6201 4502 L
 798 4546 mt 
(0) s
 899 4195 mt  952 4195 L
6255 4195 mt 6201 4195 L
 698 4239 mt 
(0.5) s
 899 3889 mt  952 3889 L
6255 3889 mt 6201 3889 L
 798 3933 mt 
(1) s
 899 4502 mt 6255 4502 L
 899 3889 mt 6255 3889 L
 899 4502 mt  899 3889 L
6255 4502 mt 6255 3889 L
gs 899 3889 5357 614 MR c np
24 w
c10
2 103 2 35 2 -35 1 -21 2 21 2 15 2 -15 1 -11 
2 11 2 9 2 -9 1 -8 2 8 2 7 2 -7 1 -6 
2 6 2 5 2 -5 1 -5 2 5 2 4 2 -4 1 -4 
2 4 2 4 2 -4 1 -3 2 3 2 3 2 -3 1 -3 
2 3 2 3 2 -3 1 -3 2 3 2 3 2 -3 1 -2 
2 2 2 2 1 -2 2 -2 2 2 2 2 1 -2 2 -2 
2 2 2 2 1 -2 2 -2 2 2 2 2 1 -2 2 -2 
2 2 2 2 1 -2 2 -1 2 1 2 1 1 -1 2 -1 
2 1 2 1 1 -1 2 -1 2 1 2 1 1 -1 2 -1 
2 1 2 1 1 -1 2 -1 2 1 2 1 1 -1 2 -1 
2 1 2 1 1 -1 2 -1 2 1 1 1 2 -1 2 -1 
2 1 1 1 2 -1 2 -1 2 1 1 1 2 -1 2 -1 
2 1 1 1 2 -1 6082 4339 100 MP stroke
2 -1 2 1 1 1 2 -1 2 -1 2 1 1 1 2 -1 
2 -1 2 1 1 1 2 -1 2 -1 2 1 1 1 2 -1 
2 0 2 0 1 1 2 -1 2 0 2 0 1 1 2 -1 
2 0 2 0 1 0 2 0 2 0 1 0 2 0 2 0 
2 0 1 0 2 0 2 0 2 0 1 0 2 0 2 0 
2 0 1 0 2 0 2 0 2 0 1 0 2 0 2 0 
2 0 1 0 2 0 2 0 2 0 1 0 2 0 2 0 
2 0 1 0 2 0 2 0 2 0 1 0 2 0 2 0 
2 0 1 0 2 0 2 0 2 0 1 0 2 0 2 0 
1 0 2 0 2 0 2 0 1 0 2 0 2 0 2 0 
1 0 2 0 2 0 2 0 1 0 2 0 2 0 2 0 
1 0 2 0 2 0 2 0 1 0 2 0 2 0 2 0 
1 0 2 0 2 0 5909 4339 100 MP stroke
2 0 1 0 2 0 2 0 2 0 1 0 2 0 2 0 
2 0 1 0 2 0 2 0 1 0 2 0 2 0 2 0 
1 0 2 0 2 0 2 0 1 0 2 0 2 0 2 0 
1 0 2 0 2 0 2 0 1 0 2 0 2 0 2 0 
1 0 2 0 2 0 2 0 1 0 2 0 2 0 2 0 
1 0 2 0 2 0 2 0 1 0 2 0 2 0 2 0 
1 0 2 0 2 0 2 0 1 0 2 0 2 0 1 0 
2 0 2 0 2 0 1 0 2 0 2 0 2 0 1 0 
2 0 2 0 2 0 1 0 2 0 2 0 2 0 1 0 
2 0 2 0 2 0 1 0 2 0 2 0 2 0 1 0 
2 0 2 0 2 0 1 0 2 0 2 0 2 0 1 0 
2 0 2 0 2 0 1 0 2 0 2 0 2 0 1 0 
2 0 2 0 1 0 5737 4339 100 MP stroke
2 0 2 0 2 0 1 0 2 0 2 0 2 0 1 0 
2 0 2 0 2 0 1 0 2 0 2 0 2 0 1 0 
2 0 2 0 2 0 1 0 2 0 2 0 2 0 1 0 
2 0 2 0 2 0 1 0 2 0 2 0 2 0 1 0 
2 0 2 0 2 0 1 0 2 0 2 0 2 0 1 0 
2 0 2 0 1 0 2 0 2 0 2 0 1 0 2 0 
2 0 2 0 1 0 2 0 2 0 2 0 1 0 2 0 
2 0 2 0 1 0 2 0 2 0 2 0 1 0 2 0 
2 0 2 0 1 0 2 0 2 0 2 0 1 0 2 0 
2 0 2 0 1 0 2 0 2 0 2 0 1 0 2 0 
2 0 1 0 2 0 2 0 2 0 1 0 2 0 2 0 
2 0 1 0 2 0 2 0 2 0 1 0 2 0 2 0 
2 0 1 0 2 0 5564 4339 100 MP stroke
2 0 2 0 1 0 2 0 2 0 2 0 1 0 2 0 
2 0 2 0 1 0 2 0 2 0 2 0 1 0 2 0 
2 0 2 0 1 0 2 0 2 0 2 0 1 0 2 0 
2 0 1 0 2 0 2 0 2 0 1 0 2 0 2 0 
2 0 1 0 2 0 2 0 2 0 1 0 2 0 2 0 
2 0 1 0 2 0 2 0 2 0 1 0 2 0 2 0 
2 0 1 0 2 0 2 0 2 0 1 0 2 0 2 0 
2 0 1 0 2 0 2 0 2 0 1 0 2 0 2 0 
2 0 1 0 2 0 2 0 1 0 2 0 2 0 2 0 
1 0 2 0 2 0 2 0 1 0 2 0 2 0 2 0 
1 0 2 0 2 0 2 0 1 0 2 0 2 0 2 0 
1 0 2 0 2 0 2 0 1 0 2 0 2 0 2 0 
1 0 2 0 2 0 5391 4339 100 MP stroke
2 0 1 0 2 0 2 0 2 0 1 0 2 0 2 0 
2 0 1 0 2 0 2 0 1 0 2 0 2 0 2 0 
1 0 2 0 2 0 2 0 1 0 2 0 2 0 2 0 
1 0 2 0 2 0 2 0 1 0 2 0 2 0 2 0 
1 0 2 0 2 0 2 0 1 0 2 0 2 0 2 0 
1 0 2 0 2 0 2 0 1 0 2 0 2 0 2 0 
1 0 2 0 2 0 1 0 2 0 2 0 2 0 1 0 
2 0 2 1 2 -1 1 0 2 0 2 1 2 -2 1 1 
2 0 2 1 2 -2 1 1 2 1 2 -1 2 -1 1 1 
2 2 2 -4 2 2 1 0 2 3 2 -10 2 12 1 -5 
2 65 2 42 2 -40 1 -50 2 -78 2 -29 2 65 1 69 
2 46 2 3 2 -35 1 -64 2 -74 2 3 1 75 2 64 
2 33 2 -9 1 -44 5219 4297 100 MP stroke
2 -72 2 -63 2 37 1 76 2 56 2 20 2 -20 1 -53 
2 -77 2 -41 2 63 1 72 2 47 2 7 2 -30 1 -64 
2 -75 2 -7 2 74 1 66 2 35 2 -5 2 -41 1 -70 
2 -68 2 29 2 76 1 59 2 22 2 -15 2 -52 1 -75 
2 -49 2 58 2 73 1 49 2 11 2 -28 1 -61 2 -75 
2 -17 2 71 1 68 2 38 2 0 2 -40 1 -68 2 -70 
2 19 2 76 1 61 2 27 2 -13 2 -51 1 -72 2 -55 
2 50 2 74 1 52 2 15 2 -25 2 -59 1 -76 2 -26 
2 68 2 70 1 41 2 4 2 -37 2 -67 1 -72 2 9 
2 75 2 63 1 31 2 -9 2 -47 2 -73 1 -61 2 43 
2 75 1 54 2 19 2 -21 2 -56 1 -77 2 -35 2 65 
2 71 1 44 2 7 2 -33 2 -64 1 -76 2 0 2 74 
2 65 1 33 2 -6 5046 4252 100 MP stroke
2 -42 2 -72 1 -67 2 35 2 77 2 56 1 21 2 -17 
2 -52 2 -77 1 -45 2 61 2 74 2 46 1 9 2 -29 
2 -61 2 -77 1 -12 2 74 2 67 2 36 1 -3 2 -40 
2 -69 1 -70 2 25 2 76 2 60 1 25 2 -16 2 -50 
2 -73 1 -53 2 53 2 75 2 52 1 12 2 -29 2 -58 
2 -74 1 -23 2 68 2 71 2 42 1 -2 2 -39 2 -65 
2 -71 1 13 2 74 2 65 2 29 1 -14 2 -49 2 -71 
2 -56 1 43 2 74 2 56 2 18 1 -25 2 -60 2 -75 
1 -26 2 63 2 67 2 46 1 12 2 -40 2 -78 2 -65 
1 26 2 57 2 -11 2 -90 1 42 2 75 2 44 2 27 
1 -4 2 -34 2 -53 2 -68 1 -30 2 52 2 65 2 47 
1 25 2 -6 2 -31 2 -56 1 -65 2 -33 2 55 2 62 
1 51 2 21 2 -2 4873 4256 100 MP stroke
2 -35 1 -53 2 -67 2 -29 2 49 1 67 2 45 2 27 
1 -7 2 -29 2 -57 2 -64 1 -34 2 53 2 62 2 51 
1 22 2 -2 2 -32 2 -54 1 -66 2 -33 2 50 2 65 
1 48 2 25 2 -4 2 -31 1 -53 2 -66 2 -36 2 51 
1 64 2 50 2 24 2 -2 1 -31 2 -54 2 -65 2 -36 
1 48 2 66 2 49 2 26 1 -4 2 -30 2 -53 2 -66 
1 -37 2 49 2 64 1 50 2 26 2 -2 2 -30 1 -53 
2 -66 2 -38 2 48 1 64 2 51 2 26 2 -2 1 -30 
2 -52 2 -66 2 -39 1 47 2 65 2 50 2 27 1 -2 
2 -29 2 -53 2 -64 1 -42 2 47 2 65 2 51 1 26 
2 0 2 -29 2 -52 1 -66 2 -41 2 45 2 65 1 51 
2 27 2 0 2 -29 1 -51 2 -66 2 -42 1 44 2 65 
2 51 2 28 1 0 4701 4256 100 MP stroke
2 -28 2 -52 2 -64 1 -44 2 43 2 65 2 52 1 28 
2 0 2 -28 2 -50 1 -66 2 -44 2 42 2 66 1 51 
2 29 2 0 2 -27 1 -51 2 -64 2 -46 2 41 1 66 
2 52 2 28 2 2 1 -27 2 -51 2 -65 2 -46 1 41 
2 65 2 52 1 30 2 1 2 -26 2 -51 1 -65 2 -47 
2 40 2 65 1 53 2 29 2 2 2 -26 1 -50 2 -65 
2 -48 2 39 1 65 2 53 2 30 2 2 1 -26 2 -49 
2 -65 2 -49 1 38 2 65 2 53 2 31 1 2 2 -25 
2 -50 2 -64 1 -50 2 37 2 65 2 54 1 31 2 2 
2 -24 2 -50 1 -65 2 -50 2 36 1 65 2 54 2 31 
2 4 1 -25 2 -49 2 -65 2 -50 1 34 2 66 2 54 
2 31 1 4 2 -24 2 -50 2 -63 1 -52 2 33 2 66 
2 54 1 32 2 4 4528 4254 100 MP stroke
2 -24 2 -48 1 -65 2 -52 2 32 2 66 1 55 2 31 
2 5 2 -24 1 -48 2 -64 2 -52 2 30 1 66 2 55 
2 32 2 5 1 -23 2 -48 2 -64 1 -53 2 30 2 65 
2 55 1 33 2 6 2 -24 2 -47 1 -64 2 -54 2 28 
2 66 1 55 2 34 2 5 2 -21 1 -49 2 -63 2 -55 
2 28 1 65 2 56 2 34 2 6 1 -23 2 -45 2 -65 
2 -55 1 26 2 65 2 57 2 32 1 9 2 -23 2 -47 
2 -63 1 -54 2 22 2 67 2 54 1 40 2 -4 2 -9 
1 -52 2 -37 2 21 2 -17 1 7 2 -1 2 2 2 -5 
1 4 2 -1 2 0 2 -1 1 2 2 -2 2 1 2 0 
1 1 2 -2 2 1 2 0 1 0 2 -1 2 1 2 0 
1 0 2 -1 2 1 2 0 1 0 2 0 2 0 2 0 
1 0 2 0 2 0 4355 4348 100 MP stroke
2 0 1 0 2 0 2 -1 1 1 2 0 2 0 2 -1 
1 1 2 0 2 0 2 -1 1 1 2 0 2 0 2 0 
1 0 2 0 2 0 2 0 1 -1 2 1 2 -1 2 1 
1 -1 2 1 2 -1 2 1 1 -1 2 2 2 -2 2 1 
1 -1 2 2 2 -2 2 1 1 -1 2 1 2 -1 2 1 
1 -1 2 1 2 -1 2 1 1 0 2 -1 2 1 1 -1 
2 1 2 -1 2 2 1 -2 2 2 2 -2 2 2 1 -3 
2 3 2 -3 2 3 1 -3 2 3 2 -3 2 -150 1 0 
2 0 2 0 2 0 1 0 2 0 2 0 2 0 1 0 
2 0 2 0 2 0 1 0 2 0 2 0 2 0 1 0 
2 0 2 0 2 0 1 0 2 0 2 -1 2 0 1 0 
2 0 2 0 1 0 2 0 2 0 2 0 1 0 2 0 
2 0 2 0 1 0 4183 4501 100 MP stroke
2 0 2 0 2 0 1 0 2 0 2 0 2 0 1 0 
2 0 2 0 2 0 1 0 2 0 2 0 2 0 1 0 
2 0 2 0 2 0 1 0 2 0 2 0 2 0 1 0 
2 0 2 0 2 0 1 0 2 0 2 0 2 0 1 0 
2 0 2 0 1 0 2 0 2 0 2 0 1 0 2 0 
2 0 2 0 1 0 2 0 2 0 2 0 1 0 2 0 
2 0 2 0 1 0 2 0 2 0 2 0 1 0 2 0 
2 0 2 0 1 0 2 0 2 0 2 0 1 0 2 0 
2 0 2 0 1 0 2 0 2 0 2 0 1 0 2 0 
2 0 2 0 1 0 2 0 2 0 1 0 2 0 2 0 
2 0 1 0 2 0 2 0 2 0 1 0 2 0 2 0 
2 0 1 0 2 0 2 0 2 0 1 0 2 0 2 0 
2 0 1 0 2 0 4010 4501 100 MP stroke
2 0 2 0 1 0 2 0 2 0 2 0 1 0 2 0 
2 0 2 0 1 0 2 0 2 0 2 0 1 0 2 0 
2 0 1 0 2 0 2 0 2 0 1 0 2 0 2 0 
2 0 1 0 2 0 2 0 2 0 1 0 2 0 2 0 
2 0 1 0 2 0 2 0 2 0 1 0 2 0 2 0 
2 0 1 0 2 0 2 0 2 0 1 0 2 0 2 0 
2 0 1 0 2 0 2 0 2 0 1 0 2 0 2 0 
2 0 1 0 2 0 2 0 1 0 2 0 2 0 2 0 
1 0 2 0 2 0 2 0 1 0 2 0 2 0 2 0 
1 0 2 0 2 0 2 0 1 0 2 0 2 0 2 0 
1 0 2 0 2 0 2 0 1 0 2 0 2 0 2 0 
1 0 2 0 2 0 2 0 1 0 2 0 2 0 2 0 
1 0 2 0 2 0 3837 4501 100 MP stroke
2 0 1 0 2 0 2 0 1 0 2 0 2 0 2 0 
1 0 2 0 2 0 2 0 1 0 2 0 2 0 2 0 
1 0 2 0 2 0 2 0 1 0 2 0 2 0 2 0 
1 0 2 0 2 0 2 0 1 0 2 0 2 0 2 0 
1 0 2 0 2 0 2 0 1 0 2 0 2 0 2 0 
1 0 2 0 2 0 2 0 1 0 2 0 2 0 1 0 
2 0 2 0 2 0 1 0 2 0 2 0 2 0 1 0 
2 0 2 0 2 0 1 0 2 0 2 0 2 0 1 0 
2 0 2 0 2 0 1 0 2 0 2 0 2 0 1 0 
2 0 2 0 2 0 1 0 2 0 2 0 2 0 1 0 
2 0 2 0 2 0 1 0 2 0 2 0 1 0 2 0 
2 0 2 0 1 0 2 0 2 0 2 0 1 0 2 0 
2 0 2 0 1 0 3665 4501 100 MP stroke
2 0 2 0 2 0 1 0 2 0 2 0 2 0 1 0 
2 0 2 0 2 0 1 0 2 0 2 0 2 0 1 0 
2 0 2 0 2 0 1 0 2 0 2 0 2 0 1 0 
2 0 2 0 2 0 1 0 2 0 2 0 1 0 2 0 
2 0 2 0 1 0 2 0 2 0 2 0 1 0 2 0 
2 0 2 0 1 0 2 0 2 0 2 0 1 0 2 0 
2 0 2 0 1 0 2 0 2 0 2 0 1 0 2 0 
2 0 2 0 1 0 2 0 2 0 2 0 1 0 2 0 
2 0 2 0 1 0 2 0 2 0 2 0 1 0 2 0 
2 0 1 0 2 0 2 0 2 0 1 0 2 0 2 0 
2 0 1 0 2 0 2 0 2 0 1 0 2 0 2 0 
2 0 1 0 2 0 2 0 2 0 1 0 2 0 2 0 
2 0 1 0 2 0 3492 4501 100 MP stroke
2 0 2 0 1 0 2 0 2 0 2 0 1 0 2 0 
2 0 2 0 1 0 2 0 2 0 2 0 1 0 2 0 
2 0 1 0 2 0 2 0 2 0 1 0 2 0 2 0 
2 0 1 0 2 0 2 0 2 0 1 0 2 0 2 0 
2 0 1 0 2 0 2 0 2 0 1 0 2 0 2 0 
2 0 1 0 2 0 2 0 2 0 1 0 2 0 2 0 
2 0 1 0 2 0 2 0 2 0 1 0 2 0 2 0 
1 0 2 0 2 0 2 0 1 0 2 0 2 0 2 0 
1 0 2 0 2 0 2 0 1 0 2 0 2 0 2 0 
1 0 2 0 2 0 2 0 1 0 2 0 2 0 2 0 
1 0 2 0 2 0 2 0 1 0 2 0 2 0 2 0 
1 0 2 0 2 0 2 0 1 0 2 0 2 0 2 0 
1 0 2 0 2 0 3319 4501 100 MP stroke
1 0 2 0 2 0 2 0 1 0 2 0 2 0 2 0 
1 0 2 0 2 0 2 0 1 0 2 0 2 0 2 0 
1 0 2 0 2 0 2 0 1 0 2 0 2 0 2 0 
1 0 2 0 2 0 2 0 1 0 2 0 2 0 2 0 
1 0 2 0 2 0 2 0 1 0 2 0 2 0 2 0 
1 0 2 0 2 0 1 0 2 0 2 0 2 0 1 0 
2 0 2 0 2 0 1 0 2 0 2 0 2 0 1 0 
2 0 2 0 2 0 1 0 2 0 2 0 2 0 1 0 
2 0 2 0 2 0 1 0 2 0 2 0 2 0 1 0 
2 0 2 0 2 0 1 0 2 0 2 0 2 0 1 0 
2 0 2 0 2 0 1 0 2 0 2 0 1 0 2 0 
2 0 2 0 1 0 2 0 2 0 2 0 1 0 2 0 
2 0 2 0 1 0 3147 4501 100 MP stroke
2 0 2 0 2 0 1 0 2 0 2 0 2 0 1 0 
2 0 2 0 2 0 1 0 2 0 2 0 2 0 1 0 
2 0 2 0 2 0 1 0 2 0 2 0 2 0 1 0 
2 0 2 0 1 0 2 0 2 0 2 0 1 0 2 0 
2 0 2 0 1 0 2 0 2 0 2 0 1 0 2 0 
2 0 2 0 1 0 2 0 2 0 2 0 1 0 2 0 
2 0 2 0 1 0 2 0 2 0 2 0 1 0 2 0 
2 0 2 0 1 0 2 0 2 0 2 0 1 0 2 0 
2 0 2 0 1 0 2 0 2 0 1 0 2 0 2 0 
2 0 1 0 2 0 2 0 2 0 1 0 2 0 2 0 
2 0 1 0 2 0 2 0 2 0 1 0 2 0 2 0 
2 0 1 0 2 0 2 0 2 0 1 0 2 0 2 0 
2 0 1 0 2 0 2974 4501 100 MP stroke
2 0 2 0 1 0 2 0 2 0 2 0 1 0 2 0 
2 0 2 0 1 0 2 0 2 0 1 0 2 1 2 0 
2 0 1 0 2 0 2 0 2 0 1 0 2 0 2 0 
2 0 1 0 2 0 2 0 2 0 1 0 2 0 2 0 
2 0 1 0 2 0 2 0 2 0 1 150 2 3 2 -3 
2 3 1 -3 2 3 2 -3 2 3 1 -2 2 2 2 -2 
2 2 1 -2 2 1 2 -1 2 1 1 -1 2 1 2 0 
1 -1 2 1 2 -1 2 1 1 -1 2 1 2 -1 2 1 
1 -1 2 2 2 -2 2 1 1 -1 2 2 2 -2 2 1 
1 -1 2 1 2 -1 2 1 1 -1 2 1 2 -1 2 1 
1 0 2 0 2 0 2 0 1 0 2 0 2 0 2 -1 
1 1 2 0 2 0 2 -1 1 1 2 0 2 0 2 -1 
1 1 2 0 2 0 2801 4348 100 MP stroke
1 0 2 0 2 0 2 0 1 0 2 0 2 0 2 0 
1 0 2 -1 2 1 2 0 1 0 2 -1 2 1 2 0 
1 0 2 -1 2 2 2 -1 1 0 2 -1 2 2 2 -2 
1 1 2 0 2 1 2 -4 1 5 2 -2 2 1 2 -7 
1 17 2 -21 2 37 2 52 1 9 2 4 2 -40 1 -54 
2 -67 2 -22 2 54 1 63 2 47 2 23 2 -9 1 -32 
2 -57 2 -65 2 -26 1 55 2 65 2 45 2 23 1 -6 
2 -34 2 -56 2 -65 1 -28 2 55 2 63 2 49 1 21 
2 -5 2 -34 2 -55 1 -66 2 -28 2 54 2 64 1 47 
2 24 2 -6 2 -33 1 -55 2 -65 2 -30 2 53 1 64 
2 48 2 23 1 -5 2 -32 2 -55 2 -66 1 -30 2 52 
2 64 2 48 1 24 2 -5 2 -31 2 -55 1 -66 2 -32 
2 52 2 65 1 48 2629 4278 100 MP stroke
2 24 2 -4 2 -32 1 -54 2 -66 2 -33 2 52 1 63 
2 50 2 24 2 -4 1 -31 2 -54 2 -66 2 -34 1 50 
2 65 2 49 2 25 1 -4 2 -31 2 -54 2 -65 1 -36 
2 50 2 65 1 50 2 24 2 -2 2 -31 1 -54 2 -65 
2 -37 2 50 1 64 2 50 2 25 2 -2 1 -31 2 -53 
2 -65 2 -38 1 49 2 65 2 49 2 26 1 -2 2 -30 
2 -53 2 -65 1 -39 2 48 2 65 2 50 1 26 2 -2 
2 -29 2 -53 1 -65 2 -40 2 47 2 65 1 51 2 26 
2 -1 2 -30 1 -52 2 -65 2 -41 1 46 2 65 2 51 
2 27 1 -2 2 -28 2 -52 2 -66 1 -41 2 46 2 64 
2 51 1 27 2 0 2 -29 2 -51 1 -66 2 -42 2 44 
2 66 1 50 2 28 2 0 2 -28 1 -52 2 -65 2 -43 
2 44 1 64 2 52 2456 4284 100 MP stroke
2 28 2 0 1 -28 2 -51 2 -65 2 -44 1 42 2 66 
2 51 1 29 2 0 2 -27 2 -51 1 -65 2 -45 2 41 
2 66 1 52 2 29 2 0 2 -26 1 -51 2 -65 2 -47 
2 42 1 64 2 53 2 29 2 2 1 -27 2 -50 2 -65 
2 -47 1 39 2 66 2 52 2 30 1 2 2 -26 2 -51 
2 -64 1 -48 2 38 2 66 2 53 1 30 2 2 2 -26 
2 -50 1 -64 2 -49 2 37 1 66 2 53 2 30 2 4 
1 -26 2 -49 2 -66 2 -48 1 36 2 65 2 54 2 31 
1 2 2 -24 2 -50 2 -64 1 -51 2 36 2 66 2 53 
1 31 2 4 2 -25 2 -48 1 -65 2 -50 2 33 2 66 
1 54 2 32 2 2 2 -22 1 -51 2 -62 2 -53 2 34 
1 64 2 57 2 29 2 7 1 -27 2 -45 2 -67 1 -49 
2 29 2 67 2 53 2283 4291 100 MP stroke
1 35 2 2 2 -21 2 -51 1 -62 2 -55 2 33 2 65 
1 56 2 31 2 6 2 -25 1 -47 2 -65 2 -52 2 30 
1 68 2 53 2 34 2 4 1 -27 2 -44 2 -75 2 -42 
1 90 2 11 2 -57 2 -26 1 65 2 78 2 40 2 -12 
1 -46 2 -67 2 -63 2 26 1 75 2 60 2 25 1 -18 
2 -56 2 -74 2 -43 1 56 2 71 2 49 2 14 1 -29 
2 -65 2 -74 2 -13 1 71 2 65 2 39 2 2 1 -42 
2 -71 2 -68 2 23 1 74 2 58 2 29 2 -12 1 -52 
2 -75 2 -53 2 53 1 73 2 50 2 16 2 -25 1 -60 
2 -76 2 -25 2 70 1 69 2 40 2 3 1 -36 2 -67 
2 -74 2 12 1 77 2 61 2 29 2 -9 1 -46 2 -74 
2 -61 2 45 1 77 2 52 2 17 2 -21 1 -56 2 -77 
2 -35 2 67 1 72 2111 4294 100 MP stroke
2 42 2 6 2 -33 1 -65 2 -74 2 0 2 76 1 64 
2 33 2 -7 2 -44 1 -71 2 -65 2 35 2 77 1 56 
2 21 2 -19 2 -54 1 -75 2 -43 2 61 1 73 2 47 
2 9 2 -31 1 -63 2 -75 2 -9 2 72 1 67 2 37 
2 -4 2 -41 1 -70 2 -68 2 26 2 76 1 59 2 25 
2 -15 2 -52 1 -74 2 -50 2 55 2 72 1 51 2 13 
2 -27 2 -61 1 -76 2 -19 2 70 2 68 1 40 2 0 
2 -38 2 -68 1 -71 2 17 2 75 2 61 1 28 2 -11 
2 -49 1 -73 2 -58 2 49 2 75 1 52 2 15 2 -22 
2 -59 1 -76 2 -29 2 68 2 70 1 41 2 5 2 -35 
2 -66 1 -74 2 7 2 75 2 64 1 30 2 -7 2 -47 
2 -72 1 -63 2 41 2 77 2 53 1 20 2 -20 2 -56 
2 -76 1 -37 2 63 1938 4369 100 MP stroke
2 72 2 44 1 9 2 -33 2 -64 2 -75 1 -3 2 74 
2 64 1 35 2 -3 2 -46 2 -69 1 -65 2 29 2 78 
2 50 1 40 2 -42 2 -65 2 5 1 -12 2 10 2 -3 
2 0 1 -2 2 4 2 -2 2 -1 1 1 2 1 2 -1 
2 -1 1 2 2 -1 2 0 2 -1 1 2 2 -1 2 0 
2 0 1 1 2 -1 2 0 2 0 1 0 2 0 2 0 
2 0 1 0 2 0 2 0 1 0 2 0 2 0 2 0 
1 0 2 0 2 0 2 0 1 0 2 0 2 0 2 0 
1 0 2 0 2 0 2 0 1 0 2 0 2 0 2 0 
1 0 2 0 2 0 2 0 1 0 2 0 2 0 2 0 
1 0 2 0 2 0 2 0 1 0 2 0 2 0 2 0 
1 0 2 0 2 0 1 0 2 0 2 0 2 0 1 0 
2 0 2 0 2 0 1765 4339 100 MP stroke
1 0 2 0 2 0 2 0 1 0 2 0 2 0 2 0 
1 0 2 0 2 0 2 0 1 0 2 0 2 0 2 0 
1 0 2 0 2 0 2 0 1 0 2 0 2 0 2 0 
1 0 2 0 2 0 2 0 1 0 2 0 2 0 2 0 
1 0 2 0 2 0 1 0 2 0 2 0 2 0 1 0 
2 0 2 0 2 0 1 0 2 0 2 0 2 0 1 0 
2 0 2 0 2 0 1 0 2 0 2 0 2 0 1 0 
2 0 2 0 2 0 1 0 2 0 2 0 2 0 1 0 
2 0 2 0 2 0 1 0 2 0 2 0 2 0 1 0 
2 0 2 0 2 0 1 0 2 0 2 0 1 0 2 0 
2 0 2 0 1 0 2 0 2 0 2 0 1 0 2 0 
2 0 2 0 1 0 2 0 2 0 2 0 1 0 2 0 
2 0 2 0 1 0 1593 4339 100 MP stroke
2 0 2 0 2 0 1 0 2 0 2 0 2 0 1 0 
2 0 2 0 2 0 1 0 2 0 2 0 2 0 1 0 
2 0 2 0 2 0 1 0 2 0 2 0 1 0 2 0 
2 0 2 0 1 0 2 0 2 0 2 0 1 0 2 0 
2 0 2 0 1 0 2 0 2 0 2 0 1 0 2 0 
2 0 2 0 1 0 2 0 2 0 2 0 1 0 2 0 
2 0 2 0 1 0 2 0 2 0 2 0 1 0 2 0 
2 0 2 0 1 0 2 0 2 0 1 0 2 0 2 0 
2 0 1 0 2 0 2 0 2 0 1 0 2 0 2 0 
2 0 1 0 2 0 2 0 2 0 1 0 2 0 2 0 
2 0 1 0 2 0 2 0 2 0 1 0 2 0 2 0 
2 0 1 0 2 0 2 0 2 0 1 0 2 0 2 0 
2 0 1 0 2 0 1420 4339 100 MP stroke
2 0 2 0 1 0 2 0 2 0 1 0 2 0 2 0 
2 0 1 0 2 0 2 0 2 0 1 0 2 0 2 0 
2 0 1 0 2 0 2 0 2 0 1 0 2 0 2 0 
2 0 1 0 2 0 2 0 2 0 1 0 2 0 2 0 
2 0 1 0 2 0 2 0 2 0 1 0 2 0 2 0 
2 0 1 0 2 0 2 0 2 0 1 0 2 0 2 0 
1 0 2 0 2 0 2 0 1 0 2 0 2 0 2 0 
1 0 2 0 2 0 2 0 1 0 2 0 2 0 2 0 
1 0 2 0 2 0 2 0 1 0 2 0 2 0 2 0 
1 0 2 0 2 0 2 0 1 0 2 0 2 0 2 0 
1 0 2 0 2 0 2 0 1 0 2 0 2 0 2 0 
1 0 2 0 2 0 1 0 2 0 2 0 2 0 1 0 
2 0 2 0 2 0 1247 4339 100 MP stroke
1 0 2 0 2 0 2 0 1 0 2 0 2 0 2 0 
1 0 2 0 2 0 2 0 1 0 2 0 2 0 2 0 
1 0 2 0 2 0 2 0 1 0 2 0 2 0 2 0 
1 0 2 0 2 0 2 0 1 0 2 0 2 0 1 0 
2 0 2 0 2 0 1 0 2 0 2 0 2 0 1 0 
2 0 2 0 2 0 1 0 2 0 2 0 2 0 1 0 
2 0 2 0 2 0 1 0 2 0 2 0 2 0 1 0 
2 0 2 0 2 0 1 0 2 0 2 0 2 0 1 0 
2 0 2 0 2 0 1 0 2 0 2 0 2 0 1 0 
2 0 2 0 1 0 2 0 2 1 2 -1 1 0 2 0 
2 1 2 -1 1 0 2 0 2 1 2 -1 1 -1 2 1 
2 1 2 -1 1 -1 2 1 2 1 2 -1 1 -1 2 1 
2 1 2 -1 1 -1 1075 4340 100 MP stroke
2 1 2 1 2 -1 1 -1 2 1 2 1 2 -1 1 -1 
2 1 2 1 2 -1 1 -1 2 1 2 1 2 -1 1 -1 
2 1 2 1 1 -1 2 -1 2 1 2 1 1 -1 2 -1 
2 1 2 1 1 -1 2 -1 2 1 2 1 1 -1 2 -1 
2 1 2 1 1 -1 2 -1 2 1 2 1 1 -1 2 -1 
2 1 2 2 1 -2 2 -2 2 2 2 2 1 -2 2 -2 
2 2 2 2 1 -2 2 -2 2 2 2 2 1 -2 2 -2 
2 2 2 2 1 -2 2 -2 2 2 1 3 2 -3 2 -3 
2 3 1 3 2 -3 2 -3 2 3 1 3 2 -3 2 -3 
2 3 1 4 2 -4 2 -4 2 4 1 4 2 -4 2 -5 
2 5 1 5 2 -5 2 -6 2 6 1 7 2 -7 2 -8 
2 8 1 9 2 -9 2 -11 2 11 1 15 2 -15 2 -21 
2 21 1 35 2 -35 902 4339 100 MP stroke
2 -103 1 -59 899 4501 3 MP stroke
gr

24 w
c10
0 sg
3559 4790 mt 
(f) s
 616 4301 mt  -90 rotate
(|FT|) s
90 rotate
2953 3794 mt 
(Output Spectrum \(k'=3\)) s
6 w

end %%Color Dict

eplot
%%EndObject

epage
end

showpage

%%Trailer
%%EOF
